<?xml version="1.0" encoding="UTF-8"?>
<svg width="141px" height="143px" viewBox="0 0 141 143" version="1.1" xmlns="http://www.w3.org/2000/svg" xmlns:xlink="http://www.w3.org/1999/xlink">
    <!-- Generator: Sketch 47.1 (45422) - http://www.bohemiancoding.com/sketch -->
    <title>Group 182</title>
    <desc>Created with Sketch.</desc>
    <defs></defs>
    <g id="Page-1" stroke="none" stroke-width="1" fill="none" fill-rule="evenodd">
        <g id="HOMEPAGE1---Advanced" transform="translate(-990.000000, -191.000000)" fill="#DFDFEA">
            <g id="Group-220" transform="translate(318.000000, 61.652500)">
                <g id="Group-183" transform="translate(672.000000, 95.000000)">
                    <g id="Group-182" transform="translate(0.000000, 34.000000)">
                        <g>
                            <path d="M135.2865,57.5787 C134.9183,57.1569 134.5203,56.7634 134.0894,56.4054 C133.9761,56.097 133.7034,55.8688 133.4962,55.6273 C132.3768,54.3245 131.1975,53.0739 130.0796,51.7711 C129.2462,50.8022 128.3564,49.9019 127.3322,49.1371 C126.3441,48.4007 125.5943,47.4587 124.8848,46.4629 C122.7693,43.4877 121.2312,40.2261 120.0639,36.7885 C119.3691,34.7465 118.4541,32.8101 117.4954,30.8947 C116.7547,29.1656 115.9766,27.4498 115.1089,25.7876 C114.72,25.0395 114.1758,24.0854 113.4796,23.3832 C112.3094,21.5588 111.035,19.8056 109.8544,17.9886 C109.5848,17.5728 109.1525,17.2581 108.7783,16.9168 C107.4336,15.6931 105.8805,14.7673 104.36,13.7911 C102.6592,12.6997 100.9045,11.7263 98.9087,11.3343 C97.5625,11.0706 96.2092,10.9096 94.8511,10.841 C94.4637,10.5621 93.982,10.4116 93.4245,10.4623 C90.026,10.7753 86.6332,11.1554 83.2376,11.5194 C81.9629,11.561 80.6856,11.5579 79.4035,11.491 C76.4163,11.3329 73.4232,11.0066 70.4312,11.3955 C61.7887,12.518 47.0267,15.3158 40.5453,11.4939 C38.302,10.1701 35.5906,9.8407 33.2577,8.5977 C31.5076,7.6645 29.7561,6.6954 28.2341,5.4688 C27.1848,4.6204 26.1546,3.7947 24.8921,3.4758 C24.0737,3.2686 23.5252,2.857 23.0422,2.3056 C22.9855,2.2087 22.9288,2.1103 22.8707,2.0134 C22.6814,1.69 22.416,1.4306 22.109,1.2398 C21.6887,0.8909 21.2252,0.7659 20.7912,0.8537 C19.9788,0.8387 19.174,1.2055 18.761,2.0134 C18.5331,2.4607 18.2066,3.2073 17.8114,3.9886 C17.6728,3.9169 17.5373,3.8395 17.3987,3.7649 C17.3242,1.8912 14.4725,1.8597 13.8106,3.6099 L13.7539,3.5934 C13.7154,3.8871 13.6587,4.2241 13.5989,4.5878 C13.5274,4.9634 13.4319,5.3271 13.3129,5.6789 C12.7805,6.3989 12.0741,6.9712 11.281,7.4811 C10.1168,8.2323 9.0167,9.0821 8.0628,10.0927 C7.7527,10.4207 7.2235,10.8768 7.6214,11.3105 C7.7615,11.4641 7.9063,11.491 8.0492,11.4491 C7.9897,11.5684 7.9389,11.6923 7.8987,11.8173 C7.8406,11.7518 7.7586,11.7042 7.6557,11.6937 C7.4247,11.6727 7.3113,11.8635 7.213,12.035 C6.9105,12.5656 7.0117,13.0889 7.3323,13.5541 C7.8496,14.3053 7.696,14.8881 7.0386,15.474 C6.1129,16.3011 5.1426,17.0792 4.3571,18.0586 C3.7607,18.8055 3.1226,19.4779 4.138,20.3527 C4.1915,20.3975 4.1884,20.5109 4.202,20.5914 C4.6819,23.4592 6.6883,25.2079 8.814,26.8639 C8.9064,26.937 9.0807,26.9296 9.2134,26.9191 C10.6103,26.8072 11.849,27.1649 13.0385,27.9342 C14.2653,28.7288 15.5593,29.4309 17.1124,29.4159 C18.4212,29.404 19.6554,29.8646 20.9137,30.1569 C21.4009,30.2717 21.8287,30.5413 21.975,31.0407 C24.135,38.3552 31.5955,47.8329 34.7289,49.6604 C34.9987,49.8169 35.2028,50.0391 35.3222,50.3506 C36.3327,52.9667 37.4076,55.2608 37.2109,58.2031 C37.1899,58.4194 37.1706,58.5909 37.157,58.7026 C37.1483,58.7803 37.1392,58.8563 37.1304,58.9336 C37.0439,59.4821 36.9008,60.0323 36.6845,60.5809 C35.7737,62.8942 34.948,65.2376 34.1387,67.5853 C33.8031,68.5587 33.2815,69.2713 32.3512,69.7036 C31.509,70.0956 30.874,70.7158 30.3882,71.5146 C29.8054,72.4747 29.5429,73.7061 30.0081,74.5109 C30.5401,75.4307 31.8713,75.2652 32.9073,75.0356 C33.4828,74.9074 33.8048,74.8626 33.6616,75.6036 C33.6319,75.757 33.6959,76.024 33.8584,76.0328 C34.5738,76.0702 35.1804,76.5456 35.9557,76.4146 C37.2078,76.1997 38.5165,76.3698 39.736,76.4951 C42.0168,76.7304 43.7354,76.2295 44.9084,74.3113 C45.3959,73.5136 45.9563,72.8027 46.0624,71.7516 C46.1443,70.9273 46.9283,70.2507 47.459,69.5366 C48.088,68.6913 48.6039,67.6479 49.0569,66.6269 C49.871,64.7948 50.7937,63.0135 51.6285,61.1906 C53.2845,57.5727 54.4368,56.4159 55.8229,51.7189 C56.2674,50.2148 56.5579,49.96 58.1201,49.9526 C60.383,49.9407 62.7471,49.9631 65.004,49.8154 C65.9848,49.8228 66.9477,49.6232 67.9016,49.3041 C70.6385,48.7734 73.432,48.4962 76.0453,47.3946 C77.0782,46.9578 78.2288,46.7432 79.3558,46.7328 C80.3979,46.7237 81.492,46.5791 82.4609,47.0726 C82.6024,47.1829 82.7472,47.2917 82.8918,47.3975 C82.7248,47.4751 82.3849,47.4871 82.6814,47.7748 C83.2569,48.3323 83.7504,48.9582 84.2317,49.5949 C84.2198,49.6933 84.2391,49.7976 84.3003,49.8959 C85.4795,51.7861 87.6959,54.4557 90.166,55.517 C90.4076,55.7155 90.6533,55.9062 90.9053,56.0896 C91.5494,56.6126 92.2008,57.1254 92.8595,57.6323 C93.8732,58.4089 94.9824,58.9351 96.2449,59.0677 C97.9024,59.2423 99.3395,60.9148 99.0861,62.6603 C98.9489,63.5935 98.8341,64.5295 98.691,65.4627 C98.3749,66.3125 97.9233,67.2737 98.1439,68.1607 C97.9979,68.6973 97.8264,69.2265 97.6178,69.7498 C97.0454,71.1807 97.09,71.1986 95.5249,71.2941 C93.9894,71.3879 92.5914,72.5493 92.402,74.0264 C92.3453,74.472 91.9249,74.9925 92.967,75.4381 C93.0296,75.4636 93.0863,75.4857 93.1385,75.5036 C93.4976,75.9299 94.0178,76.2326 94.6334,76.2757 C95.1014,76.3086 95.5711,76.3384 96.0391,76.3534 C96.4445,76.3831 96.8561,76.3936 97.2765,76.3891 C98.6567,76.3727 99.8761,76.2088 101.1863,75.6855 C103.7636,74.6554 104.108,71.941 105.6866,72.6445 C106.0503,72.8072 106.4619,72.6729 106.8581,72.676 C107.0387,72.731 107.219,72.7772 107.3993,72.816 C107.4262,72.8325 107.4514,72.8503 107.4784,72.8713 C107.4829,72.8594 107.4889,72.8475 107.4962,72.8353 C107.5438,72.8444 107.5917,72.8534 107.6394,72.8608 L107.5053,72.8877 C108.8855,74.1412 111.7564,73.0799 112.2111,72.9459 C112.6405,72.8174 112.9594,72.5 113.1131,72.0991 C115.5041,65.8607 116.2717,69.8779 115.7068,59.8728 C115.6336,58.5745 115.5636,57.2552 115.1226,56.0298 C114.4428,54.1456 113.8331,52.2303 112.9506,50.4235 C112.8446,50.206 112.7553,49.9824 112.6777,49.7542 C112.4169,47.025 113.9493,49.3114 114.5366,50.7752 C114.9272,51.7487 115.5265,52.6209 116.3953,53.2558 C116.5983,53.4035 116.8024,53.8043 117.0722,53.5643 C117.2525,53.4018 116.9455,53.1172 116.8083,52.9233 C116.1926,52.0542 115.656,51.1435 115.179,50.2015 C115.522,50.7231 115.9109,51.218 116.3508,51.6786 C116.4803,51.8144 116.6652,51.7742 116.7681,51.658 C118.0992,53.8537 119.5094,55.9867 121.7945,57.3224 C122.6397,58.4685 123.5341,59.445 124.1736,60.0397 C124.5523,60.3915 124.9548,60.5809 125.3483,60.6449 C128.0032,62.8361 131.4478,64.2404 134.9285,63.8245 C135.4251,63.8634 135.835,63.6873 136.2239,63.4518 C136.6324,63.3387 136.9856,63.0955 137.2302,62.7706 C137.9695,62.2071 138.1305,61.6555 137.7235,60.9729 C137.7578,60.8224 137.7683,60.6659 137.749,60.5018 C137.7325,60.3646 137.6982,60.2364 137.6475,60.1202 C137.7294,60.1678 137.8176,60.1755 137.9086,60.08 C138.0395,59.9428 137.813,59.7222 137.6863,59.5822 C136.9754,58.795 136.2047,58.0855 135.2865,57.5787 Z M10.7637,9.225 L10.7594,9.231 L10.7489,9.2372 L10.7637,9.225 Z M9.4668,26.1918 C9.5774,26.2261 9.6876,26.2587 9.7993,26.2901 C9.6876,26.2663 9.5774,26.2334 9.4668,26.1918 Z M12.5974,26.636 L12.6048,26.636 L12.6135,26.6507 L12.5974,26.636 Z M107.5053,72.8877 L107.4903,72.8756 L107.4889,72.8773 L107.4784,72.8713 L107.4679,72.8951 L107.5053,72.8877 Z" id="Fill-172"></path>
                            <g id="Group-181" transform="translate(0.000000, 90.000000)">
                                <path d="M48.251,22.8477 C48.0146,22.3375 47.764,21.8344 47.5032,21.336 C47.5004,21.2612 47.4893,21.1818 47.4751,21.1223 C47.2373,20.1336 46.9689,19.1505 46.438,18.2709 C46.2429,17.9469 46.1531,17.6507 46.2254,17.2609 C46.4646,15.9734 46.6647,14.6811 47.1123,13.4398 C47.4817,12.4171 47.6892,11.3567 47.692,10.2605 L47.671,9.8997 L47.7317,9.7279 C47.8043,9.5584 47.8709,9.3784 47.9281,9.1743 C48.2402,8.3233 47.866,7.5713 47.2433,7.1084 C46.9502,6.6103 46.2818,6.3972 45.5779,6.637 C45.1967,6.6818 44.8375,6.8394 44.5583,7.1353 C44.0906,7.393 43.6277,7.6623 43.1362,7.8615 C42.8059,7.9953 42.4743,8.1269 42.1415,8.2561 C39.9648,9.0073 37.684,9.4328 35.6816,10.2358 C34.2161,10.2251 32.7529,10.2407 31.2834,10.4071 C29.796,10.576 28.3302,10.9329 26.8364,11.0613 C26.4341,11.0604 26.0322,11.0568 25.63,11.0505 C25.2067,10.6015 24.5874,10.3297 23.7497,10.4071 C23.0045,10.4757 22.257,10.5204 21.5089,10.5542 C20.8643,10.5326 20.2135,10.5632 19.5635,10.6284 L18.8106,10.6565 C18.4285,10.6718 18.0921,10.7503 17.8007,10.8776 L17.6516,10.9037 C17.4117,10.9468 17.219,10.913 16.9942,10.8178 C16.1781,10.4731 15.3144,10.2271 14.5264,9.8308 C11.7099,8.4137 8.4591,8.086 5.7891,6.3155 C5.5264,6.3155 5.2636,6.3155 5.0003,6.3155 C4.9254,6.3742 4.8588,6.4499 4.7749,6.4899 C4.3831,6.6764 3.8349,6.9477 3.8519,7.2841 C3.8664,7.5818 4.109,7.5392 4.3659,7.5146 C4.21,7.7042 4.128,7.95 4.1842,8.1646 L4.1436,8.1742 C3.9503,8.2349 3.9894,8.4361 3.9565,8.5903 C3.8159,9.2363 4.299,9.7999 4.2403,10.4056 C4.0696,12.1631 4.2814,13.8951 4.6088,15.5979 C4.8928,17.0778 4.4645,18.7157 5.5351,20.0341 C5.657,20.1837 5.5074,20.3351 5.415,20.4686 C3.6583,23.0088 2.6917,25.9205 1.5298,28.741 C0.4855,32.6106 1.5726,31.0121 0.8914,32.5677 C1.1054,32.5904 0.9969,32.8892 1.0082,33.0621 C1.1729,35.5504 2.099,37.6934 3.7802,39.4987 C3.9968,39.8542 4.2312,40.1995 4.4906,40.5328 C4.6485,41.5346 5.2126,42.3444 5.998,42.9108 C7.054,43.6736 7.7076,44.6813 8.253,45.8157 C8.4931,46.3166 8.8205,46.7758 9.1133,47.2518 C9.9467,48.6099 11.2538,49.3372 12.6796,49.8928 C12.861,49.9637 13.1788,50.1882 13.2797,49.928 C13.3038,49.8659 13.297,49.8154 13.2706,49.7732 C13.5762,49.9183 13.8894,50.0524 14.2089,50.1743 C14.1559,50.1964 14.1128,50.2384 14.0918,50.3089 C14.0289,50.5258 14.2718,50.5448 14.3963,50.6168 C15.6151,51.313 16.9429,51.4317 18.418,51.2977 L19.0074,51.2991 C20.7427,51.5344 22.6995,51.6832 24.6177,51.6262 C26.3352,51.8654 28.0754,52.3028 29.7416,51.3427 C30.107,51.133 30.7828,51.5264 30.8709,51.0017 C31.2783,48.6022 36.346,51.5174 41.0071,48.7247 C42.2438,48.1773 43.3904,47.4808 44.2592,46.3146 C44.7655,45.6357 45.4492,45.0921 46.0147,44.4537 C46.6205,43.7683 47.3751,43.1248 47.7172,42.3175 C48.1892,41.2066 48.757,40.221 49.5697,39.3423 C50.4291,38.4142 51.0621,37.341 51.3192,36.0853 C51.5321,35.0461 51.9505,35.359 51.3113,30.8321 C51.0097,28.7818 50.6355,26.7488 49.685,24.8765 C49.3029,24.1236 48.865,23.413 48.251,22.8477" id="Fill-173"></path>
                                <g id="Group-180" transform="translate(77.000000, 0.000000)">
                                    <g id="Group-176" transform="translate(0.000000, 29.000000)">
                                        <path d="M10.4369,10.1002 C9.7449,11.2301 6.1378,15.2578 5.0334,16.9685 C4.3262,18.0641 3.9356,19.0392 4.1947,20.4257 C4.7931,22.4116 6.1928,24.1223 8.5359,23.7286 C8.7723,23.6889 13.043,21.6015 16.9327,23.3278 C20.4035,24.8676 23.3059,21.2293 21.9838,17.7566 C21.6314,16.8316 17.4291,11.9634 16.3134,10.6337 C14.4601,8.4255 10.7937,9.518 10.4369,10.1002 Z M1.18,11.8273 C1.9374,12.8668 2.8876,13.7217 4.3081,13.656 C6.3326,13.5621 6.9179,11.1924 6.3958,9.4312 C5.959,7.9578 4.5802,6.5124 3.1291,6.4877 C0.4974,6.4426 -0.3169,9.7734 1.18,11.8273 Z M22.771,13.6529 C28.3524,14.5347 28.1925,8.1355 25.3763,6.6059 C22.5601,5.0761 19.495,13.1355 22.771,13.6529 Z M17.3262,8.5468 C19.5556,8.5097 20.8499,5.2133 20.755,2.9949 C20.6969,1.6388 19.5585,-0.1213 18.0422,0.1778 C12.4962,1.2717 13.9076,8.6041 17.3262,8.5468 Z M5.7611,3.9632 C5.7761,6.5521 7.1251,8.0856 8.1119,8.3986 C11.4811,9.4669 13.8761,5.4749 11.91,2.5476 C9.3631,-1.2339 5.7376,-0.0932 5.7611,3.9632 L5.7611,3.9632 Z" id="Fill-174"></path>
                                        <path d="M52.2793,6.8361 C46.7124,6.8301 41.1142,7.7454 41.0558,9.5228 C40.7593,12.6871 41.7302,13.927 42.4754,14.4826 C43.0747,14.9287 44.079,14.7793 45.3761,16.6088 C47.1824,19.1566 46.889,19.5532 49.3531,22.0851 C49.6899,22.3957 50.9578,22.5857 52.2793,22.5964 C53.6006,22.5857 54.8688,22.3957 55.2053,22.0851 C57.6697,19.5532 57.376,19.1566 59.1826,16.6088 C60.4794,14.7793 61.4837,14.9287 62.083,14.4826 C62.8285,13.927 63.7993,12.6871 63.5028,9.5228 C63.4444,7.7454 57.846,6.8301 52.2793,6.8361" id="Fill-175"></path>
                                    </g>
                                    <g id="Group-179">
                                        <path d="M12.5881,5.3112 C16.6138,6.6801 18.9745,9.6162 20.9693,12.713 C21.0631,14.0966 20.4579,15.4814 19.3923,16.1948 C19.2977,16.2666 19.2288,16.2884 19.1469,16.334 C15.5928,18.3183 11.5772,19.1522 7.8695,17.9381 C2.1662,16.071 0.4668,10.8393 1.1755,5.1162 C1.423,4.9475 1.6673,4.7868 1.91,4.6309 C4.3356,4.3942 6.2368,4.1822 8.2729,4.3625 C8.1918,4.6099 8.1173,4.8707 8.0509,5.1454 C7.321,8.1646 8.1187,10.9842 9.3608,12.7377 C11.4069,11.9103 13.6426,10.5051 14.69,7.9248 C14.3042,8.1365 13.8418,8.2116 13.3798,8.1039 C12.3843,7.8712 11.7666,6.8762 11.999,5.881 C12.0569,5.6338 12.1617,5.4096 12.302,5.216 L12.5881,5.3112 Z M13.0138,1.2869 L13.0135,1.2869 C12.6723,1.1865 12.323,1.1114 11.9664,1.0604 C8.7052,0.5022 4.8761,1.7756 0.5045,4.7621 C-0.2625,10.9609 1.43,16.4664 7.6073,18.4895 C12.6105,20.1276 17.9336,18.3194 22.3614,14.9527 C20.5999,8.2615 18.0907,4.0444 14.8705,2.1333 L14.8651,2.12 C14.2752,1.754 13.6581,1.4759 13.0138,1.2869 L13.0138,1.2869 Z" id="Fill-177"></path>
                                        <path d="M51.4046,5.3112 C47.3788,6.6801 45.0178,9.6162 43.0234,12.713 C42.9295,14.0966 43.5345,15.4814 44.6003,16.1948 C44.695,16.2666 44.7638,16.2884 44.8458,16.334 C48.3996,18.3183 52.4154,19.1522 56.1231,17.9381 C61.8264,16.071 63.5258,10.8393 62.8169,5.1162 C62.5697,4.9475 62.3253,4.7868 62.0827,4.6309 C59.6571,4.3942 57.7559,4.1822 55.7197,4.3625 C55.8008,4.6099 55.8754,4.8707 55.9417,5.1454 C56.6716,8.1646 55.874,10.9842 54.6318,12.7377 C52.5858,11.9103 50.3501,10.5051 49.3027,7.9248 C49.6885,8.1365 50.1505,8.2116 50.6129,8.1039 C51.6081,7.8712 52.226,6.8762 51.9936,5.881 C51.9355,5.6338 51.8309,5.4096 51.6906,5.216 L51.4046,5.3112 Z M50.9788,1.2869 L50.9791,1.2869 C51.3204,1.1865 51.6696,1.1114 52.0262,1.0604 C55.2875,0.5022 59.1165,1.7756 63.4878,4.7621 C64.2551,10.9609 62.5626,16.4664 56.3853,18.4895 C51.3822,20.1276 46.059,18.3194 41.6313,14.9527 C43.3927,8.2615 45.902,4.0444 49.1218,2.1333 L49.1275,2.12 C49.7174,1.754 50.3345,1.4759 50.9788,1.2869 L50.9788,1.2869 Z" id="Fill-178"></path>
                                    </g>
                                </g>
                            </g>
                        </g>
                    </g>
                </g>
            </g>
        </g>
    </g>
</svg>