<?xml version="1.0" encoding="UTF-8"?>
<svg width="32px" height="16px" viewBox="0 0 32 16" version="1.1" xmlns="http://www.w3.org/2000/svg" xmlns:xlink="http://www.w3.org/1999/xlink">
    <!-- Generator: Sketch 47.1 (45422) - http://www.bohemiancoding.com/sketch -->
    <title>Stroke 322</title>
    <desc>Created with Sketch.</desc>
    <defs></defs>
    <g id="Page-1" stroke="none" stroke-width="1" fill="none" fill-rule="evenodd">
        <g id="CAT-PROFILE_2" transform="translate(-1226.000000, -737.000000)" stroke="#403F41" stroke-width="0.5">
            <path d="M1252.8135,739.863 C1252.7469,739.9671 1252.7821,739.9418 1252.648,739.9557 C1252.5102,740.0116 1252.1774,740.248 1252.0315,740.341 C1251.8475,740.4586 1251.6278,740.5924 1251.4297,740.7063 C1251.3701,740.8061 1251.3976,740.7846 1251.2718,740.8007 C1251.1434,740.8654 1251.0249,740.9408 1250.9115,741.0235 C1250.8265,741.1233 1250.8772,741.087 1250.753,741.1216 L1250.5784,741.2359 L1250.4571,741.3512 C1250.194,741.809 1250.2201,741.7262 1250.1175,742.2733 C1250.052,742.6228 1249.9837,742.9148 1249.827,743.2314 L1249.7238,743.3511 C1249.681,743.4466 1249.698,743.4253 1249.5812,743.444 C1249.4936,743.4792 1249.4276,743.505 1249.3632,743.5254 C1249.0837,743.0174 1249.1705,742.3181 1249.4403,741.7957 C1249.5041,741.6721 1249.4845,741.6633 1249.4202,741.5783 L1249.4959,741.5037 C1249.5225,741.4416 1249.4928,741.4028 1249.5713,741.2619 L1249.6869,740.9924 C1249.6351,740.9569 1249.6376,740.9547 1249.5832,740.9102 L1249.6628,740.8328 L1249.4967,740.672 C1249.5296,740.6392 1249.535,740.6403 1249.5611,740.6122 L1249.626,740.5323 L1249.4123,740.4804 C1249.465,740.4274 1249.4786,740.4164 1249.5103,740.3466 L1249.3088,740.301 C1249.2507,740.2763 1249.2748,740.2905 1249.2368,740.2605 C1249.8749,739.8432 1249.5293,738.2586 1249.1671,737.7135 C1248.6792,736.9802 1248.1386,737.9987 1247.866,738.3734 C1247.7302,738.5594 1247.6026,738.7008 1247.4921,738.8482 C1247.379,738.8261 1247.4473,738.8689 1247.3648,738.768 L1247.2735,738.8386 L1247.1814,738.7632 C1247.0952,738.8111 1247.1306,738.8216 1247.0297,738.7969 C1247.0249,738.7958 1247.0161,738.793 1247.0113,738.7918 C1247.0062,738.791 1246.9971,738.7887 1246.9917,738.7879 C1246.9413,738.7796 1246.9274,738.7697 1246.8563,738.791 L1246.7264,738.8839 L1246.4152,738.8519 C1246.2865,738.8599 1246.2559,738.9148 1246.1524,738.9494 C1246.0685,738.9775 1246.0804,738.988 1246.0254,739.0795 C1245.5824,739.0075 1245.5197,739.0311 1245.2068,738.7833 C1245.0061,738.6249 1244.8128,738.4321 1244.5661,738.3006 C1244.2577,738.1359 1243.9317,738.1583 1243.7761,738.448 C1243.5278,738.91 1243.9524,739.8007 1244.139,740.2454 C1244.2745,740.5683 1244.3842,740.7537 1244.3414,741.1613 C1244.2895,741.6565 1244.472,742.8065 1245.0197,742.6798 C1244.95,742.8431 1244.8128,742.8303 1244.6288,742.8043 C1244.6101,742.8488 1244.7943,742.9976 1244.0817,742.9783 L1244.0817,743.073 L1243.8385,743.0495 C1243.8782,743.1005 1243.8875,743.0959 1243.8688,743.1359 L1243.5658,743.054 L1243.6426,743.2204 C1243.5017,743.1929 1243.466,743.1589 1243.3654,743.1093 L1243.426,743.2853 L1243.1621,743.2116 L1243.2066,743.4131 L1242.9152,743.3976 C1242.9759,743.5481 1243.0065,743.5186 1242.8047,743.5492 L1242.7891,743.6345 C1242.7877,743.6388 1242.784,743.6496 1242.7803,743.6566 L1242.4407,743.702 C1242.373,743.9126 1242.0994,743.9407 1241.9665,744.0507 C1241.9617,744.0546 1241.9557,744.0611 1241.9509,744.0651 L1241.6252,744.263 L1241.6864,744.3693 C1241.5438,744.4305 1241.4721,744.456 1241.435,744.4716 C1241.4015,744.4523 1241.3712,744.4228 1241.3449,744.3775 L1241.1062,743.7388 C1241.0237,743.45 1241.1495,743.3559 1241.3389,743.1878 C1241.4279,743.109 1241.5022,743.0228 1241.5523,742.9457 C1241.6153,742.8493 1241.6632,742.7544 1241.7366,742.6719 C1241.9177,742.6622 1242.1077,742.6515 1242.2783,742.6441 C1242.6533,742.6285 1242.7945,742.8159 1242.9762,742.5724 C1243.0989,742.408 1243.1579,742.5044 1243.2248,742.2521 C1243.2375,742.2033 1243.2971,742.0284 1243.2993,742.0106 C1243.3183,741.8728 1243.1828,741.8357 1243.1837,741.5627 C1243.1843,741.3393 1243.2069,741.2016 1243.1318,741.0224 C1243.0556,740.8401 1242.7432,740.4555 1242.5164,740.4407 C1242.5079,740.3222 1242.5351,740.2369 1242.5691,740.1414 C1242.6012,740.0521 1242.6528,740.0175 1242.6513,739.9373 C1242.6485,739.7743 1242.6601,739.9036 1242.6224,739.8483 C1242.4957,739.7227 1242.2579,739.9931 1242.0986,740.0972 C1241.9149,740.2168 1241.7391,740.3441 1241.5869,740.4424 C1241.1813,740.7049 1241.3687,740.7786 1241.1793,740.8914 C1240.9965,741.0006 1240.6872,740.8535 1240.5007,740.8019 C1240.2646,740.7367 1240.118,740.6604 1239.8864,740.5587 C1239.54,740.4062 1238.8926,740.2457 1238.483,740.2415 C1237.3829,740.2296 1237.2304,740.3432 1236.3051,740.61 C1236.0594,740.6811 1235.8629,740.7602 1235.7357,740.5161 C1235.493,740.0504 1235.5508,738.6799 1235.7827,738.3207 C1235.876,738.1764 1236.0166,737.9692 1236.1317,737.8159 C1236.4894,737.3399 1236.5569,737.6852 1236.552,737.3694 C1236.1421,737.3487 1235.7779,737.7759 1235.5579,738.0409 C1235.3184,738.3298 1235.0726,738.7833 1235.0616,739.2233 C1235.0128,741.1962 1235.2685,741.0989 1235.2923,741.5034 C1235.3003,741.6389 1235.2742,741.7929 1235.2742,741.9326 C1235.2745,742.0922 1235.3133,742.1846 1235.3122,742.3224 C1235.3294,742.527 1235.4233,742.4539 1235.4278,742.7376 L1235.4888,742.7629 L1235.4868,742.8323 C1235.4956,742.9355 1235.5265,743.058 1235.5386,743.1694 C1235.5642,743.3981 1235.5072,743.2845 1235.4871,743.454 C1235.4692,743.5747 1235.3623,743.651 1235.3609,743.84 C1235.1764,743.7853 1234.9947,743.7525 1234.8198,743.7459 C1234.4181,743.7312 1233.8322,743.6802 1233.4742,743.8012 L1232.4418,744.1691 C1231.6308,744.5087 1232.0092,743.5668 1230.4746,743.4596 C1229.6616,743.4029 1228.9671,743.7306 1228.2783,744.064 C1228.0365,744.1811 1227.5472,744.4146 1227.4364,744.6649 C1227.5557,744.7213 1227.5486,744.6938 1227.7162,744.7018 C1227.5985,744.8126 1227.4772,744.9104 1227.4324,745.0646 C1227.5741,745.2262 1227.7043,745.1576 1228.0404,745.3631 C1228.045,745.7217 1227.9852,745.8546 1228.2037,746.0616 C1228.3571,746.2067 1228.596,746.296 1228.6876,746.4856 C1228.7987,746.7155 1228.7579,746.9661 1229.0467,747.0174 C1229.2868,747.0599 1229.5128,746.8969 1229.801,746.9902 C1230.0423,747.4922 1229.4419,747.9826 1229.1272,748.1462 C1228.6808,748.3786 1227.8474,748.4546 1227.6269,748.5385 C1227.5299,748.7332 1227.6456,748.5396 1227.2329,748.6714 C1226.8499,748.7936 1226.5953,749.123 1226.7957,749.5337 L1226.8326,749.5972 C1227.2462,749.9085 1227.4148,749.7849 1227.838,749.6034 L1229.0382,749.3662 C1229.1519,749.5119 1228.9815,749.6698 1229.8172,749.6737 C1230.5312,749.6769 1230.5636,749.3832 1231.1481,748.8523 C1232.6105,747.5237 1232.0157,747.8131 1233.2562,747.9106 C1233.5294,747.9321 1233.8271,748.0478 1234.0882,748.1391 C1234.5369,748.2961 1234.7546,748.2953 1234.7872,748.5546 C1234.0275,748.5589 1234.4898,748.4585 1233.9036,748.6975 L1233.8792,748.99 C1233.365,749.0938 1233.2984,749.4852 1233.4266,749.691 C1233.5323,749.8793 1233.9232,749.822 1234.1636,749.8214 C1235.4278,749.8197 1234.919,749.7574 1235.7209,749.6638 C1235.9471,749.6375 1236.2694,749.5521 1236.4406,749.4702 C1236.7828,749.3061 1236.6977,749.2545 1236.7153,748.8715 C1236.7369,748.4038 1237.1473,748.6524 1237.7273,748.1756 C1238.1119,747.8593 1238.1621,748.2329 1238.8478,748.4208 L1238.8322,748.4421 C1238.8906,748.475 1238.839,748.4401 1238.8951,748.4514 C1238.8994,748.4523 1238.9093,748.4537 1238.9139,748.4548 C1238.9184,748.4557 1238.9286,748.4585 1238.9329,748.4597 C1238.9374,748.4608 1238.9487,748.4648 1238.9527,748.4656 C1238.9564,748.4668 1238.9669,748.4685 1238.9725,748.4724 C1238.7602,748.7499 1238.847,748.8321 1238.7568,748.9812 C1238.7072,749.0629 1238.6925,749.0833 1238.6695,749.1712 L1238.7812,749.1615 C1238.718,749.2675 1238.6916,749.3044 1238.6616,749.4484 C1238.7339,749.4186 1238.7602,749.3988 1238.8186,749.3636 C1238.773,749.5561 1238.4779,749.7409 1238.2608,749.8257 C1237.5529,750.1026 1236.141,749.8832 1235.2691,750.0216 C1234.5927,750.1287 1233.9804,750.0924 1233.3205,750.1758 C1232.738,750.2492 1232.3012,750.4462 1231.5568,750.54 C1231.5401,750.6018 1231.662,750.5893 1231.3136,750.644 C1231.3167,750.7282 1231.2348,750.7126 1231.2527,750.781 C1231.9214,751.1364 1233.6207,750.9286 1234.4615,750.9785 C1235.6396,750.9723 1236.9103,751.0928 1238.3965,751.2079 C1238.7667,751.2271 1238.8591,751.1733 1239.1812,751.3326 C1239.4028,751.4423 1239.5485,751.5611 1239.8243,751.6637 C1240.3729,751.868 1240.9114,751.8352 1241.5132,751.9228 C1242.4708,752.0622 1243.1945,752.6155 1243.7801,751.9979 C1244.063,751.6994 1243.9734,751.8201 1244.2898,751.7756 C1244.3618,751.7654 1244.3895,751.728 1244.4465,751.6931 C1244.5001,751.7411 1244.5126,751.7572 1244.5423,751.7651 C1244.7181,751.6421 1244.8057,751.4973 1245.0667,751.5276 C1245.215,751.7439 1245.2961,752.0254 1245.4633,752.2553 C1245.6597,752.5257 1245.7485,752.6025 1246.189,752.6513 C1248.078,752.8602 1247.5125,752.3119 1247.3977,752.0259 C1247.7404,751.8028 1248.0822,752.4293 1248.4856,752.2037 C1248.6398,752.1172 1248.728,751.9125 1248.7053,751.6923 C1248.6733,751.3836 1248.5409,751.3881 1248.37,751.2665 C1248.3535,751.0165 1248.3527,750.7671 1248.3646,750.5185 C1248.5386,750.5264 1248.7348,750.5443 1248.8708,750.5567 C1249.1506,750.5825 1249.372,750.5454 1249.6368,750.5372 C1249.7742,750.493 1249.8502,750.3529 1249.8581,750.2095 C1249.8712,749.9736 1249.7649,749.9606 1249.709,749.805 C1249.7462,749.7112 1249.715,749.7177 1249.8414,749.6896 C1250.0398,749.5558 1249.969,749.5677 1250.2363,749.5689 L1250.5444,749.5896 L1250.5628,749.894 C1250.5336,750.0709 1250.5586,749.9513 1250.4894,750.0065 C1250.5356,750.6174 1250.1855,750.7183 1251.3687,750.654 C1251.8152,750.6296 1251.6573,750.5978 1251.8257,750.5409 C1251.8588,750.4476 1251.8381,750.447 1251.9371,750.411 C1252.0624,749.8812 1251.7565,750.0312 1251.7375,749.7883 C1251.8569,749.6786 1251.8957,749.7375 1252.0609,749.7092 C1252.231,749.6797 1252.2171,749.661 1252.3444,749.5884 C1252.3883,749.4966 1252.3674,749.4986 1252.4717,749.462 C1252.5641,749.4002 1252.5621,749.2236 1252.5326,749.1162 C1252.3949,748.6144 1251.7401,748.6499 1251.5816,748.6133 C1251.4611,748.3817 1251.5309,747.8788 1251.5181,747.5942 C1251.5351,747.4857 1251.5124,747.4936 1251.6105,747.431 C1251.7131,747.2994 1251.8209,747.1503 1251.9195,747.0279 C1252.0181,746.9051 1252.1806,746.7487 1252.2494,746.6299 C1252.2786,746.5525 1252.2605,746.533 1252.3583,746.5148 C1252.3824,746.4267 1252.3603,746.4309 1252.4728,746.404 C1252.5338,746.2824 1252.6851,746.1596 1252.758,746.0341 C1252.8152,745.9351 1252.9116,745.7044 1252.9153,745.593 C1252.9176,745.4683 1252.8802,745.4479 1252.9992,745.4087 C1253.3714,745.2911 1253.8261,745.125 1254.1747,744.9504 C1254.4015,744.837 1254.9024,744.4022 1255.0144,744.1989 L1255.1065,744.0909 L1255.426,743.6793 C1255.4534,743.5875 1255.4311,743.5841 1255.5351,743.5467 L1255.7281,743.3479 C1255.763,743.2708 1255.7293,743.2717 1255.8458,743.2399 C1255.8741,743.149 1255.8551,743.158 1255.9677,743.1339 C1256.0603,743.0891 1256.2483,742.9006 1256.3455,742.8218 C1256.4773,742.7144 1256.6508,742.679 1256.8144,742.6231 C1257.2157,742.4862 1257.095,742.3329 1257.0907,742.2436 C1257.0834,742.0908 1257.2333,742.0624 1257.2123,741.7158 L1257.0255,741.6341 C1256.962,741.3277 1256.9431,741.4453 1256.72,741.3042 C1256.5261,741.3022 1256.5309,741.3302 1256.36,741.3864 C1256.2562,741.4459 1256.0558,741.3773 1255.901,741.3929 C1255.7933,741.5284 1255.6882,741.6574 1255.6655,741.8651 C1255.5802,741.9468 1255.5161,741.9488 1255.3922,741.9822 C1255.2661,742.0213 1255.2253,742.1548 1255.1059,742.2535 C1255.0203,742.3246 1254.8976,742.4253 1254.802,742.4959 C1254.7431,742.5993 1254.7845,742.5599 1254.6734,742.6118 L1254.2745,743.0248 C1254.2243,743.1215 1254.2496,743.1022 1254.1365,743.1354 C1253.9114,743.2482 1254.058,743.2544 1253.7294,743.2269 C1253.7481,743.0106 1253.8533,743.0529 1253.8386,742.7419 C1253.8295,742.5542 1253.7467,742.5276 1253.641,742.393 C1253.5372,742.3649 1253.5452,742.3896 1253.5066,742.2833 C1253.2784,742.0176 1253.4547,741.358 1253.1044,741.1074 L1252.9947,741.0173 L1252.9782,740.9912 L1252.894,740.9748 L1252.8765,740.9085 L1252.7679,740.841 L1252.7818,740.6088 L1252.8821,740.4552 C1253.0117,740.2673 1253.3105,739.9668 1253.2997,739.6524 C1253.1106,739.6646 1252.9643,739.7885 1252.8135,739.863 Z M1236.9412,744.7539 C1236.9614,744.6332 1236.8721,744.4994 1236.8278,744.4759 C1236.7547,744.4639 1236.6694,744.4693 1236.5849,744.473 C1236.4335,744.3633 1236.2771,744.2618 1236.1186,744.1714 C1236.0962,744.111 1236.082,744.0526 1236.0837,744.013 C1236.1691,743.9424 1236.3947,743.7839 1236.5084,743.9378 C1236.5424,743.9979 1236.518,743.9591 1236.5506,744.0013 C1236.5826,744.0427 1236.5549,744.0084 1236.594,744.0498 C1236.7264,744.1904 1236.7283,744.24 1236.874,744.2973 L1236.8851,744.3078 C1236.9616,744.4416 1236.8871,744.3321 1236.986,744.3962 C1237.0246,744.4214 1237.0328,744.4228 1237.0725,744.4523 C1237.162,744.5178 1237.1671,744.5493 1237.2786,744.583 C1237.333,744.6663 1237.2964,744.5977 1237.3381,744.6428 C1237.3849,744.6936 1237.3622,744.6729 1237.4019,744.7239 C1237.4481,744.7831 1237.475,744.8092 1237.5433,744.8401 C1237.5989,744.9195 1237.541,744.8614 1237.6207,744.9087 C1237.6207,744.9087 1237.6884,744.9376 1237.6992,744.9422 C1237.7811,744.9767 1237.7763,744.9844 1237.9059,744.985 L1238.0496,744.9716 C1238.0935,745.0346 1238.0218,745.0068 1238.2568,744.9932 C1238.299,744.9906 1238.3659,744.9977 1238.3965,744.9889 C1238.5125,744.9558 1238.4589,744.9762 1238.4824,744.9098 L1238.4762,744.8957 C1238.532,744.8628 1238.4986,744.9271 1238.5207,744.8095 C1238.5244,744.7908 1238.5187,744.6953 1238.5153,744.6734 C1238.4935,744.5359 1238.5,744.5317 1238.3775,744.4943 L1238.1014,744.4705 C1238.0011,744.4634 1238.0102,744.4747 1237.9387,744.4384 C1237.9351,744.4365 1237.8968,744.4075 1237.8877,744.4022 C1237.8239,744.3633 1237.9393,744.4115 1237.8237,744.3687 L1237.7891,744.3018 C1237.7542,744.2097 1237.7718,744.2633 1237.7375,744.2156 L1237.443,743.7893 C1237.4248,743.7238 1237.4084,743.6436 1237.4191,743.552 C1237.6955,743.5501 1237.8769,743.5512 1238.1374,743.5172 C1238.3668,743.4874 1238.5309,743.4228 1238.7971,743.4361 C1238.8268,743.4783 1238.8027,743.4409 1238.8302,743.4962 C1238.8764,743.5883 1238.8657,743.5937 1238.9595,743.6793 C1239.6324,744.2927 1239.0403,745.1298 1240.1617,744.977 C1240.3091,744.9572 1240.368,744.9501 1240.4468,744.8395 C1240.4964,744.5371 1240.3249,744.5569 1240.1727,744.4075 C1240.0494,744.2865 1240.0361,744.0308 1240.0299,743.8321 C1240.1849,743.861 1240.2785,744.075 1240.461,744.2893 C1240.7252,744.5997 1240.855,744.7678 1240.9775,744.8611 C1240.9514,744.8795 1240.9114,744.9062 1240.8513,744.9456 C1240.6804,745.0584 1240.7867,745.0235 1240.7918,745.0453 C1240.7995,745.0774 1240.9012,745.0045 1240.6883,745.1417 C1240.4392,745.3022 1240.5191,745.3265 1240.5126,745.4527 C1240.3913,745.5062 1240.3499,745.5746 1240.2535,745.6219 L1240.4009,745.6701 C1240.3275,745.7129 1240.1449,745.8067 1240.1605,745.875 C1240.1826,745.9714 1240.2467,745.9039 1240.0157,746.0531 C1239.9666,746.0845 1239.9306,746.1004 1239.9233,746.1659 L1239.8816,746.2464 C1239.7838,746.3348 1239.6942,746.3844 1239.6163,746.4658 C1239.6747,746.5443 1239.652,746.4947 1239.7203,746.559 C1239.648,746.6415 1239.6049,746.6531 1239.5327,746.7223 C1239.3782,746.8694 1239.4473,746.8337 1239.4907,746.9553 C1239.3606,747.0205 1239.3073,747.1588 1239.203,747.2428 L1239.4434,747.2425 C1239.43,747.2654 1239.4156,747.2881 1239.4003,747.3108 C1239.1021,747.245 1238.8246,747.1209 1238.6193,746.9647 C1238.3855,746.7867 1238.1754,746.3839 1238.0584,746.127 C1237.8597,745.6894 1237.4461,745.1854 1236.9412,744.7539 Z" id="Stroke-322"></path>
        </g>
    </g>
</svg>