<?xml version="1.0" encoding="UTF-8"?>
<svg width="30px" height="15px" viewBox="0 0 30 15" version="1.1" xmlns="http://www.w3.org/2000/svg" xmlns:xlink="http://www.w3.org/1999/xlink">
    <!-- Generator: Sketch 47.1 (45422) - http://www.bohemiancoding.com/sketch -->
    <title>Stroke 324</title>
    <desc>Created with Sketch.</desc>
    <defs></defs>
    <g id="Page-1" stroke="none" stroke-width="1" fill="none" fill-rule="evenodd">
        <g id="CAT-PROFILE_2" transform="translate(-1227.000000, -706.000000)" stroke="#403F41" stroke-width="0.5">
            <path d="M1241.971,711.967 L1241.9693,711.9619 L1241.971,711.9576 L1241.973,711.9619 L1241.971,711.967 Z M1242.2553,711.266 C1242.3245,711.1169 1242.3976,710.9698 1242.4739,710.8241 C1242.4747,710.802 1242.4779,710.779 1242.4821,710.7617 C1242.5518,710.4726 1242.6301,710.1851 1242.7854,709.928 C1242.8424,709.8334 1242.8688,709.7466 1242.8475,709.6327 C1242.7778,709.2562 1242.7191,708.8784 1242.5881,708.5155 C1242.4804,708.2165 1242.4195,707.9067 1242.4189,707.5863 L1242.4249,707.4806 L1242.4073,707.4304 C1242.386,707.3808 1242.3665,707.3284 1242.3497,707.2686 C1242.2585,707.0197 1242.3679,706.7997 1242.5501,706.6645 C1242.6357,706.5191 1242.8311,706.4567 1243.0369,706.527 C1243.1483,706.5401 1243.2534,706.5863 1243.3351,706.6727 C1243.4717,706.7481 1243.6069,706.8267 1243.7506,706.8848 C1243.8464,706.9236 1243.9428,706.9619 1244.0392,706.9993 C1244.6761,707.2195 1245.344,707.344 1245.9302,707.579 C1246.3585,707.5759 1246.7862,707.5804 1247.2157,707.6291 C1247.6505,707.6782 1248.0791,707.7828 1248.5157,707.8202 C1248.6333,707.8199 1248.7509,707.8191 1248.8686,707.8171 C1248.9924,707.6858 1249.1733,707.6065 1249.4182,707.6291 C1249.6365,707.649 1249.8556,707.662 1250.0744,707.6719 C1250.2624,707.6657 1250.4517,707.6748 1250.6408,707.6935 C1250.7148,707.6963 1250.7885,707.6989 1250.8622,707.7017 C1250.9739,707.7062 1251.0722,707.7295 1251.1573,707.7666 L1251.2009,707.7743 C1251.2712,707.7868 1251.3273,707.7771 1251.3931,707.7491 C1251.6318,707.6484 1251.8843,707.5764 1252.1145,707.4605 C1252.938,707.0463 1253.8884,706.9505 1254.6691,706.4329 C1254.7456,706.4329 1254.8225,706.4329 1254.8996,706.4329 C1254.9214,706.4502 1254.9409,706.4723 1254.9653,706.4837 C1255.0798,706.5384 1255.2403,706.6177 1255.2355,706.7161 C1255.2309,706.8031 1255.1601,706.7907 1255.0849,706.7833 C1255.1306,706.8388 1255.1544,706.9108 1255.1382,706.9735 C1255.1419,706.9741 1255.1456,706.9749 1255.1499,706.9763 C1255.2066,706.9939 1255.1949,707.0529 1255.2046,707.0979 C1255.246,707.2867 1255.1045,707.4514 1255.1218,707.6286 C1255.1717,708.1425 1255.1096,708.6488 1255.0141,709.1465 C1254.931,709.5791 1255.056,710.0582 1254.7431,710.4434 C1254.7077,710.4873 1254.7513,710.5315 1254.7782,710.5707 C1255.2919,711.3131 1255.5745,712.1643 1255.9141,712.9889 C1256.0754,713.3804 1256.214,713.7795 1256.2792,714.1993 C1256.2931,714.2877 1256.3415,714.3833 1256.2712,714.4717 C1256.2041,714.4105 1256.2004,714.322 1256.1751,714.2435 C1256.1587,714.1908 1256.1624,714.1009 1256.1009,714.1074 C1256.0382,714.1142 1256.07,714.2016 1256.0666,714.252 C1256.0184,714.9797 1255.7477,715.6061 1255.2559,716.1342 C1255.2267,716.1824 1255.1963,716.2297 1255.1646,716.2765 C1255.132,716.3593 1255.0895,716.4372 1255.0345,716.5081 C1254.9744,716.768 1254.8185,716.9795 1254.6079,717.1314 C1254.2992,717.3542 1254.1081,717.6491 1253.9488,717.9807 C1253.8785,718.127 1253.7827,718.2613 1253.6971,718.4005 C1253.6713,718.4425 1253.6441,718.4824 1253.6152,718.5204 C1253.4085,718.8385 1253.0423,719.0584 1252.6361,719.1806 C1252.5964,719.1993 1252.5443,719.2285 1252.5088,719.2155 C1252.4161,719.2382 1252.322,719.2563 1252.2282,719.2691 C1252.2339,719.2756 1252.2387,719.2838 1252.2418,719.2943 C1252.2602,719.3575 1252.1891,719.3632 1252.1525,719.3841 C1251.7962,719.5877 1251.4081,719.6225 1250.977,719.5834 C1250.9223,719.5834 1250.8644,719.5837 1250.8049,719.5837 C1250.2975,719.6526 1249.7252,719.6959 1249.1642,719.6792 C1248.6622,719.7492 1248.1537,719.8771 1247.6664,719.5965 C1247.5598,719.5352 1247.3622,719.65 1247.3364,719.4967 C1247.3104,719.343 1247.2154,719.2498 1247.1233,719.1559 C1247.0966,719.135 1247.0708,719.1131 1247.0456,719.0908 C1247.0232,719.1055 1247,719.1197 1246.9762,719.133 C1246.93,719.2648 1246.7749,719.271 1246.6473,719.2691 C1246.6227,719.2688 1246.598,719.2676 1246.5734,719.2654 L1246.5717,719.2656 C1246.4747,719.2781 1246.3795,719.2869 1246.2859,719.2923 C1246.2769,719.2999 1246.2666,719.3068 1246.2553,719.313 C1245.8593,719.5287 1245.3363,719.4315 1244.9168,719.3201 C1244.5137,719.2132 1244.0774,719.0207 1243.9119,718.6179 C1243.9065,718.6046 1243.9031,718.591 1243.902,718.5774 C1243.7237,718.4578 1243.561,718.3126 1243.4224,718.1264 C1243.2744,717.928 1243.0743,717.7692 1242.909,717.5824 C1242.7321,717.382 1242.5113,717.1941 1242.4112,716.958 C1242.2939,716.6813 1242.1561,716.4316 1241.971,716.2048 C1241.7862,716.4316 1241.6484,716.6813 1241.5308,716.958 C1241.4307,717.1941 1241.2102,717.382 1241.033,717.5824 C1240.8678,717.7692 1240.6679,717.928 1240.52,718.1264 C1240.3814,718.3126 1240.2184,718.4578 1240.0403,718.5774 C1240.0389,718.591 1240.0358,718.6046 1240.0301,718.6179 C1239.8649,719.0207 1239.4283,719.2132 1239.0255,719.3201 C1238.6057,719.4315 1238.083,719.5287 1237.6867,719.313 C1237.6757,719.3068 1237.6655,719.2999 1237.6561,719.2923 C1237.5626,719.2869 1237.4676,719.2781 1237.3707,719.2656 L1237.369,719.2654 C1237.344,719.2676 1237.3194,719.2688 1237.2947,719.2691 C1237.1674,719.271 1237.0121,719.2648 1236.9659,719.133 C1236.9421,719.1197 1236.9191,719.1055 1236.8964,719.0908 C1236.8715,719.1131 1236.8454,719.135 1236.8191,719.1559 C1236.7266,719.2498 1236.632,719.343 1236.6059,719.4967 C1236.5801,719.65 1236.3825,719.5352 1236.2757,719.5965 C1235.7887,719.8771 1235.2798,719.7492 1234.7778,719.6792 C1234.2169,719.6959 1233.6448,719.6526 1233.1374,719.5837 C1233.0776,719.5837 1233.0201,719.5834 1232.9654,719.5834 C1232.5342,719.6225 1232.1459,719.5877 1231.7895,719.3841 C1231.753,719.3632 1231.6821,719.3575 1231.7005,719.2943 C1231.7037,719.2838 1231.7082,719.2756 1231.7141,719.2691 C1231.62,719.2563 1231.5259,719.2382 1231.4332,719.2155 C1231.3981,719.2285 1231.3459,719.1993 1231.306,719.1806 C1230.9,719.0584 1230.5335,718.8385 1230.3269,718.5204 C1230.2982,718.4824 1230.2707,718.4425 1230.2452,718.4005 C1230.1593,718.2613 1230.0638,718.127 1229.9935,717.9807 C1229.8342,717.6491 1229.6431,717.3542 1229.3342,717.1314 C1229.1238,716.9795 1228.9677,716.768 1228.9076,716.5081 C1228.8529,716.4372 1228.8103,716.3593 1228.7777,716.2765 C1228.746,716.2297 1228.7157,716.1824 1228.6862,716.1342 C1228.1946,715.6061 1227.9237,714.9797 1227.8755,714.252 C1227.8723,714.2016 1227.9041,714.1142 1227.8414,714.1074 C1227.7799,714.1009 1227.7833,714.1908 1227.7669,714.2435 C1227.7417,714.322 1227.738,714.4105 1227.6708,714.4717 C1227.6005,714.3833 1227.6493,714.2877 1227.6629,714.1993 C1227.7283,713.7795 1227.867,713.3804 1228.028,712.9889 C1228.3678,712.1643 1228.6502,711.3131 1229.1638,710.5707 C1229.191,710.5315 1229.2347,710.4873 1229.199,710.4434 C1228.886,710.0582 1229.0113,709.5791 1228.9283,709.1465 C1228.8324,708.6488 1228.7706,708.1425 1228.8205,707.6286 C1228.8375,707.4514 1228.6964,707.2867 1228.7375,707.0979 C1228.7471,707.0529 1228.7358,706.9939 1228.7922,706.9763 C1228.7964,706.9749 1228.8004,706.9741 1228.8041,706.9735 C1228.7877,706.9108 1228.8115,706.8388 1228.8571,706.7833 C1228.782,706.7907 1228.7111,706.8031 1228.7069,706.7161 C1228.702,706.6177 1228.8622,706.5384 1228.9767,706.4837 C1229.0014,706.4723 1229.0207,706.4502 1229.0428,706.4329 C1229.1196,706.4329 1229.1964,706.4329 1229.2732,706.4329 C1230.0539,706.9505 1231.0043,707.0463 1231.8275,707.4605 C1232.058,707.5764 1232.3106,707.6484 1232.5489,707.7491 C1232.6147,707.7771 1232.6711,707.7868 1232.7411,707.7743 L1232.7848,707.7666 C1232.8701,707.7295 1232.9685,707.7062 1233.0799,707.7017 C1233.1539,707.6989 1233.2276,707.6963 1233.3013,707.6935 C1233.4906,707.6748 1233.68,707.6657 1233.8676,707.6719 C1234.0867,707.662 1234.3056,707.649 1234.5241,707.6291 C1234.7688,707.6065 1234.9499,707.6858 1235.0738,707.8171 C1235.1914,707.8191 1235.309,707.8199 1235.4267,707.8202 C1235.8632,707.7828 1236.2915,707.6782 1236.7264,707.6291 C1237.1561,707.5804 1237.5838,707.5759 1238.0122,707.579 C1238.5984,707.344 1239.2659,707.2195 1239.9031,706.9993 C1239.9995,706.9619 1240.0956,706.9236 1240.1914,706.8848 C1240.3351,706.8267 1240.4704,706.7481 1240.6073,706.6727 C1240.6886,706.5863 1240.7938,706.5401 1240.9055,706.527 C1241.111,706.4567 1241.3063,706.5191 1241.3922,706.6645 C1241.5742,706.7997 1241.6839,707.0197 1241.5926,707.2686 C1241.5759,707.3284 1241.5563,707.3808 1241.5351,707.4304 L1241.5172,707.4806 L1241.5234,707.5863 C1241.5226,707.9067 1241.4619,708.2165 1241.3539,708.5155 C1241.2232,708.8784 1241.1646,709.2562 1241.0948,709.6327 C1241.0736,709.7466 1241.0999,709.8334 1241.1569,709.928 C1241.312,710.1851 1241.3905,710.4726 1241.4602,710.7617 C1241.4642,710.779 1241.4673,710.802 1241.4684,710.8241 C1241.5444,710.9698 1241.6178,711.1169 1241.687,711.266 C1241.7987,711.3692 1241.8908,711.4885 1241.971,711.6172 C1242.0515,711.4885 1242.1434,711.3692 1242.2553,711.266 Z M1253.6946,707.1249 C1253.722,707.1266 1253.7504,707.1288 1253.7796,707.1311 C1253.7991,707.1155 1253.8187,707.0999 1253.8386,707.0846 C1253.7906,707.0979 1253.7425,707.1113 1253.6946,707.1249 Z M1255.0084,707.107 C1254.9835,707.1266 1254.9585,707.1456 1254.9333,707.1637 C1254.9381,707.1767 1254.9426,707.1895 1254.9469,707.2025 C1254.9602,707.1694 1254.9798,707.1373 1255.0084,707.107 Z M1254.6671,709.8609 C1254.6155,710.036 1254.5586,710.2101 1254.4979,710.3819 C1254.6093,710.5817 1254.7045,710.7614 1254.7601,710.8822 C1254.7924,710.9165 1254.8236,710.9522 1254.8536,710.9891 C1254.7797,710.8468 1254.702,710.7062 1254.6201,710.5678 C1254.5699,710.4828 1254.5296,710.3977 1254.5586,710.2963 C1254.5999,710.152 1254.6359,710.0068 1254.6671,709.8609 Z M1255.4631,712.3389 C1255.4722,712.3783 1255.4809,712.418 1255.4892,712.458 C1255.6635,712.8114 1255.8069,713.1904 1255.8826,713.5652 L1255.884,713.4923 C1255.8852,713.4093 1255.8594,713.3208 1255.8276,713.2423 C1255.7049,712.9418 1255.5858,712.6394 1255.4631,712.3389 Z M1253.8394,717.7389 C1253.8215,717.7661 1253.804,717.7939 1253.7872,717.8222 L1253.7878,717.8308 C1253.8085,717.8021 1253.8366,717.7667 1253.8394,717.7389 Z M1230.2475,707.1249 C1230.2203,707.1266 1230.1919,707.1288 1230.1627,707.1311 C1230.1432,707.1155 1230.1233,707.0999 1230.1035,707.0846 C1230.1517,707.0979 1230.1996,707.1113 1230.2475,707.1249 Z M1228.9339,707.107 C1228.9586,707.1266 1228.9835,707.1456 1229.009,707.1637 C1229.0042,707.1767 1228.9997,707.1895 1228.9951,707.2025 C1228.9821,707.1694 1228.9623,707.1373 1228.9339,707.107 Z M1229.2752,709.8609 C1229.3268,710.036 1229.3838,710.2101 1229.4444,710.3819 C1229.3328,710.5817 1229.2375,710.7614 1229.182,710.8822 C1229.1499,710.9165 1229.1187,710.9522 1229.0887,710.9891 C1229.1627,710.8468 1229.2401,710.7062 1229.3223,710.5678 C1229.3724,710.4828 1229.4127,710.3977 1229.3835,710.2963 C1229.3421,710.152 1229.3064,710.0068 1229.2752,709.8609 Z M1228.479,712.3389 C1228.4699,712.3783 1228.4614,712.418 1228.4532,712.458 C1228.2786,712.8114 1228.1354,713.1904 1228.0597,713.5652 L1228.0583,713.4923 C1228.0572,713.4093 1228.0827,713.3208 1228.1147,713.2423 C1228.2374,712.9418 1228.3565,712.6394 1228.479,712.3389 Z M1230.1029,717.7389 C1230.1208,717.7661 1230.1381,717.7939 1230.1551,717.8222 L1230.1545,717.8308 C1230.1338,717.8021 1230.1058,717.7667 1230.1029,717.7389 Z" id="Stroke-324"></path>
        </g>
    </g>
</svg>