<?xml version="1.0" encoding="UTF-8"?>
<svg width="16px" height="18px" viewBox="0 0 16 18" version="1.1" xmlns="http://www.w3.org/2000/svg" xmlns:xlink="http://www.w3.org/1999/xlink">
    <!-- Generator: Sketch 47.1 (45422) - http://www.bohemiancoding.com/sketch -->
    <title>Group 1070</title>
    <desc>Created with Sketch.</desc>
    <defs></defs>
    <g id="Page-1" stroke="none" stroke-width="1" fill="none" fill-rule="evenodd">
        <g id="HOMEPAGE---POPUP-cat" transform="translate(-1357.000000, -1208.000000)">
            <g id="Group-1070" transform="translate(1357.000000, 1207.697400)">
                <polygon id="Fill-1068" fill="#D17E3D" points="9.9 12.6815 11.7995 15.9714 9.2233 15.2809 8.5331 17.8567 6.8884 15.0082 5.2438 17.8567 4.5538 15.2809 1.9777 15.9714 4.1635 12.1854 3.9455 11.7149 2.8522 11.6477 2.7037 10.5592 1.6784 10.1723 1.8567 9.088 0.9907 8.4151 1.4797 7.432 0.8501 6.5329 1.6064 5.738 1.269 4.6929 2.2254 4.1566 2.2101 3.0579 3.2816 2.8285 3.5898 1.7746 4.6811 1.8716 5.2854 0.9554 6.2997 1.371 7.1467 0.6742 7.9937 1.371 9.0082 0.9554 9.6125 1.8716 10.7039 1.7746 11.012 2.8285 12.0835 3.0579 12.0682 4.1566 13.0246 4.6929 12.6873 5.738 13.4433 6.5329 12.8137 7.432 13.3027 8.4151 12.437 9.088 12.615 10.1723 11.5897 10.5592 11.4414 11.6477 10.3478 11.7149"></polygon>
                <polygon id="Fill-1069" fill="#D1AA66" points="12.06 12.6815 13.9595 15.9714 11.3833 15.2809 10.6931 17.8567 9.0484 15.0082 7.4038 17.8567 6.7138 15.2809 4.1377 15.9714 6.3235 12.1854 6.1055 11.7149 5.0122 11.6477 4.8637 10.5592 3.8384 10.1723 4.0167 9.088 3.1507 8.4151 3.6397 7.432 3.0101 6.5329 3.7664 5.738 3.429 4.6929 4.3854 4.1566 4.3701 3.0579 5.4416 2.8285 5.7498 1.7746 6.8411 1.8716 7.4454 0.9554 8.4597 1.371 9.3067 0.6742 10.1537 1.371 11.1682 0.9554 11.7725 1.8716 12.8639 1.7746 13.172 2.8285 14.2435 3.0579 14.2282 4.1566 15.1846 4.6929 14.8473 5.738 15.6033 6.5329 14.9737 7.432 15.4627 8.4151 14.597 9.088 14.775 10.1723 13.7497 10.5592 13.6014 11.6477 12.5078 11.7149"></polygon>
            </g>
        </g>
    </g>
</svg>