<?xml version="1.0" encoding="UTF-8"?>
<svg width="25px" height="23px" viewBox="0 0 25 23" version="1.1" xmlns="http://www.w3.org/2000/svg" xmlns:xlink="http://www.w3.org/1999/xlink">
    <!-- Generator: Sketch 47.1 (45422) - http://www.bohemiancoding.com/sketch -->
    <title>Fill 3066</title>
    <desc>Created with Sketch.</desc>
    <defs></defs>
    <g id="Page-1" stroke="none" stroke-width="1" fill="none" fill-rule="evenodd">
        <g id="CAT-PROFILE" transform="translate(-1539.000000, -19.000000)" fill="#FEFEFE">
            <path d="M1548.6426,28.8654 C1548.0101,29.8978 1544.7146,33.5777 1543.7057,35.1407 C1543.0594,36.1416 1542.7026,37.0323 1542.9392,38.2991 C1543.486,40.1136 1544.7648,41.6766 1546.9058,41.3169 C1547.1218,41.2806 1551.0237,39.3734 1554.5774,40.9506 C1557.7483,42.3575 1560.4001,39.0333 1559.1923,35.8607 C1558.8702,35.0154 1555.0307,30.5676 1554.0117,29.3527 C1552.3182,27.3353 1548.9685,28.3333 1548.6426,28.8654 Z M1540.1848,30.4434 C1540.877,31.3931 1541.745,32.1743 1543.043,32.1142 C1544.8926,32.0283 1545.4275,29.8632 1544.9501,28.2542 C1544.5513,26.9081 1543.2916,25.5874 1541.9658,25.565 C1539.5615,25.5236 1538.8174,28.5666 1540.1848,30.4434 Z M1559.9114,32.1114 C1565.0106,32.917 1564.8647,27.0705 1562.2917,25.6727 C1559.7189,24.2753 1556.9183,31.6385 1559.9114,32.1114 Z M1554.9369,27.4464 C1556.9739,27.4124 1558.1565,24.4005 1558.0694,22.3738 C1558.0164,21.1348 1556.9764,19.5267 1555.5911,19.7999 C1550.5239,20.7994 1551.8137,27.4985 1554.9369,27.4464 Z M1544.3705,23.2582 C1544.3843,25.6237 1545.6169,27.0249 1546.5183,27.3106 C1549.5964,28.2868 1551.7848,24.6395 1549.9884,21.965 C1547.6615,18.5102 1544.3492,19.5522 1544.3705,23.2582 L1544.3705,23.2582 Z" id="Fill-3066"></path>
        </g>
    </g>
</svg>