<?xml version="1.0" encoding="UTF-8"?>
<svg width="16px" height="16px" viewBox="0 0 16 16" version="1.1" xmlns="http://www.w3.org/2000/svg" xmlns:xlink="http://www.w3.org/1999/xlink">
    <!-- Generator: Sketch 47.1 (45422) - http://www.bohemiancoding.com/sketch -->
    <title>Group 422</title>
    <desc>Created with Sketch.</desc>
    <defs></defs>
    <g id="Page-1" stroke="none" stroke-width="1" fill="none" fill-rule="evenodd">
        <g id="HOMEPAGE" transform="translate(-527.000000, -672.000000)">
            <g id="Group-422" transform="translate(527.000000, 672.452700)">
                <path d="M7.8678,15.5151 C12.0098,15.5151 15.3677,12.1569 15.3677,8.015 C15.3677,3.873 12.0098,0.5151 7.8678,0.5151 C3.7255,0.5151 0.3676,3.873 0.3676,8.015 C0.3676,12.1569 3.7255,15.5151 7.8678,15.5151" id="Fill-420" fill="#76B4D8"></path>
                <path d="M6.8675,7.0149 C7.4052,7.0149 7.9095,7.1861 8.3134,7.4775 L10.4428,5.3484 L8.5342,5.3484 L8.5342,4.515 L11.8678,4.515 L11.8678,7.8486 L11.0344,7.8486 L11.0344,5.936 L8.9053,8.0566 C9.197,8.4736 9.3676,8.9736 9.3676,9.5151 C9.3676,10.8955 8.2485,12.0149 6.8675,12.0149 C5.487,12.0149 4.3676,10.8955 4.3676,9.5151 C4.3676,8.1346 5.487,7.0149 6.8675,7.0149 Z M6.8675,7.8486 C5.9471,7.8486 5.201,8.5946 5.201,9.5151 C5.201,10.4355 5.9471,11.1815 6.8675,11.1815 C7.7879,11.1815 8.5342,10.4355 8.5342,9.5151 C8.5342,8.5946 7.7879,7.8486 6.8675,7.8486 L6.8675,7.8486 Z" id="Fill-421" fill="#FEFEFE"></path>
            </g>
        </g>
    </g>
</svg>