[{
	"title_en":"default",
	"title_ru":"default",
	"svg": "default"
},{
	"title_en":"Kitten 1",
	"title_ru":"Kitten 1",
	"svg": "KITTEN1"
},{
	"title_en":"Kitten 2",
	"title_ru":"Kitten 2",
	"svg": "KITTEN2"
},{
	"title_en":"Kitten 3",
	"title_ru":"Kitten 3",
	"svg": "KITTEN3"
}]