<?xml version="1.0" encoding="UTF-8"?>
<!DOCTYPE svg PUBLIC "-//W3C//DTD SVG 1.1//EN" "http://www.w3.org/Graphics/SVG/1.1/DTD/svg11.dtd">
<!-- Creator: CorelDRAW 2017 -->
<svg xmlns="http://www.w3.org/2000/svg" xml:space="preserve" width="8in" height="8in" version="1.1" style="shape-rendering:geometricPrecision; text-rendering:geometricPrecision; image-rendering:optimizeQuality; fill-rule:evenodd; clip-rule:evenodd"
viewBox="0 0 8000 8000"
 xmlns:xlink="http://www.w3.org/1999/xlink">
 <defs>
  <style type="text/css">
   <![CDATA[
    .eyes_2_1 {fill:none}
    .eyes_2_2 {fill:#FEFEFE}
    .eyes_2_3 {fill:#373435}
    .eyes_2_4 {fill:#FF8800}
    .eyes_2_5 {fill:url(#eyes_2id_16)}
    .eyes_2_6 {fill:url(#eyes_2id_17)}
    .eyes_2_7 {fill:url(#eyes_2id_18)}
    .eyes_2_8 {fill:url(#eyes_2id_19)}
   ]]>
  </style>
     <mask id="eyes_2id_0">
  <radialGradient id="eyes_2id_1" gradientUnits="userSpaceOnUse" cx="1444.16" cy="6454.88" r="82.96" fx="1444.16" fy="6454.88">
   <stop offset="0" style="stop-opacity:1; stop-color:white"/>
   <stop offset="0.768627" style="stop-opacity:-127.502; stop-color:white"/>
   <stop offset="1" style="stop-opacity:0; stop-color:white"/>
  </radialGradient>
      <rect style="fill:url(#eyes_2id_1)" x="1434" y="6329.54" width="143.09" height="217.94"/>
     </mask>
     <mask id="eyes_2id_1">
  <linearGradient id="eyes_2id_3" gradientUnits="userSpaceOnUse" x1="1543.61" y1="6342.92" x2="1502.45" y2="6448.55">
   <stop offset="0" style="stop-opacity:0.74902; stop-color:white"/>
   <stop offset="0.529412" style="stop-opacity:-34.5137; stop-color:white"/>
   <stop offset="1" style="stop-opacity:0; stop-color:white"/>
  </linearGradient>
      <rect style="fill:url(#eyes_2id_3)" x="1362.37" y="6321.01" width="301.62" height="196"/>
     </mask>
     <mask id="eyes_2id_4">
  <radialGradient id="eyes_2id_5" gradientUnits="userSpaceOnUse" cx="2272.73" cy="6454.95" r="82.96" fx="2272.73" fy="6454.95">
   <stop offset="0" style="stop-opacity:1; stop-color:white"/>
   <stop offset="0.768627" style="stop-opacity:-127.502; stop-color:white"/>
   <stop offset="1" style="stop-opacity:0; stop-color:white"/>
  </radialGradient>
      <rect style="fill:url(#eyes_2id_5)" x="2262.57" y="6329.61" width="143.09" height="217.94"/>
     </mask>
     <mask id="eyes_2id_6">
  <linearGradient id="eyes_2id_7" gradientUnits="userSpaceOnUse" x1="2296.05" y1="6342.99" x2="2337.21" y2="6448.62">
   <stop offset="0" style="stop-opacity:0.74902; stop-color:white"/>
   <stop offset="0.529412" style="stop-opacity:-34.5137; stop-color:white"/>
   <stop offset="1" style="stop-opacity:0; stop-color:white"/>
  </linearGradient>
      <rect style="fill:url(#eyes_2id_7)" x="2175.67" y="6321.08" width="301.62" height="196"/>
     </mask>
     <mask id="eyes_2id_8">
  <radialGradient id="eyes_2id_9" gradientUnits="userSpaceOnUse" cx="4621.69" cy="5255.2" r="82.96" fx="4621.69" fy="5255.2">
   <stop offset="0" style="stop-opacity:1; stop-color:white"/>
   <stop offset="0.768627" style="stop-opacity:-127.502; stop-color:white"/>
   <stop offset="1" style="stop-opacity:0; stop-color:white"/>
  </radialGradient>
      <rect style="fill:url(#eyes_2id_9)" x="4611.53" y="5129.86" width="450.69" height="694.65"/>
     </mask>
     <mask id="eyes_2id_10">
  <linearGradient id="eyes_2id_11" gradientUnits="userSpaceOnUse" x1="4960.95" y1="5165.64" x2="4826.78" y2="5509.92">
   <stop offset="0" style="stop-opacity:0.74902; stop-color:white"/>
   <stop offset="0.529412" style="stop-opacity:-34.5137; stop-color:white"/>
   <stop offset="1" style="stop-opacity:0; stop-color:white"/>
  </linearGradient>
      <rect style="fill:url(#eyes_2id_11)" x="4378.09" y="5102.08" width="967.37" height="623.11"/>
     </mask>
     <mask id="eyes_2id_12">
  <radialGradient id="eyes_2id_13" gradientUnits="userSpaceOnUse" cx="6478.69" cy="5255.2" r="82.96" fx="6478.69" fy="5255.2">
   <stop offset="0" style="stop-opacity:1; stop-color:white"/>
   <stop offset="0.768627" style="stop-opacity:-127.502; stop-color:white"/>
   <stop offset="1" style="stop-opacity:0; stop-color:white"/>
  </radialGradient>
      <rect style="fill:url(#eyes_2id_13)" x="6468.52" y="5129.86" width="450.69" height="694.65"/>
     </mask>
     <mask id="eyes_2id_14">
  <linearGradient id="eyes_2id_15" gradientUnits="userSpaceOnUse" x1="6569.79" y1="5165.64" x2="6703.96" y2="5509.92">
   <stop offset="0" style="stop-opacity:0.74902; stop-color:white"/>
   <stop offset="0.529412" style="stop-opacity:-34.5137; stop-color:white"/>
   <stop offset="1" style="stop-opacity:0; stop-color:white"/>
  </linearGradient>
      <rect style="fill:url(#eyes_2id_15)" x="6185.29" y="5102.08" width="967.37" height="623.11"/>
     </mask>
  <radialGradient id="eyes_2id_16" gradientUnits="userSpaceOnUse" gradientTransform="matrix(1.18555 -0.277148 0.211688 0.905531 -1797 1254)" cx="2327.64" cy="6449.5" r="130.68" fx="2327.64" fy="6449.5">
   <stop offset="0" style="stop-opacity:1; stop-color:#F18100"/>
   <stop offset="0.639216" style="stop-opacity:1; stop-color:#C96209"/>
   <stop offset="0.909804" style="stop-opacity:1; stop-color:#F18D00"/>
   <stop offset="0.054902" style="stop-opacity:1; stop-color:#EC8D14"/>
   <stop offset="1" style="stop-opacity:1; stop-color:#E89827"/>
  </radialGradient>
  <radialGradient id="eyes_2id_17" gradientUnits="userSpaceOnUse" gradientTransform="matrix(-1.18555 -0.277148 -0.211688 0.905531 4670 1028)" xlink:href="#eyes_2id_16" cx="1512.02" cy="6449.43" r="130.68" fx="1512.02" fy="6449.43">
  </radialGradient>
  <radialGradient id="eyes_2id_18" gradientUnits="userSpaceOnUse" gradientTransform="matrix(1.18556 -0.277149 0.211689 0.905537 -2405 2370)" xlink:href="#eyes_2id_16" cx="6672.76" cy="5512.78" r="425.93" fx="6672.76" fy="5512.78">
  </radialGradient>
  <radialGradient id="eyes_2id_19" gradientUnits="userSpaceOnUse" gradientTransform="matrix(-1.18556 -0.277149 -0.211689 0.905537 11784 1867)" xlink:href="#eyes_2id_16" cx="4857.98" cy="5512.78" r="425.93" fx="4857.98" fy="5512.78">
  </radialGradient>
 </defs>
 <g id="Layer_x0020_1">
  <metadata id="CorelCorpID_0Corel-Layer"/>
  <g id="_1778943790288">
   <g>
    <path class="eyes_2_6" d="M1461.6 6561.22c67.46,22.09 139.22,-2.29 198.92,-47.68 -51.86,-197.05 -151.81,-234.99 -294.67,-137.39 -10.35,83.57 12.48,157.8 95.76,185.07z"/>
    <path class="eyes_2_4" style="mask:url(#eyes_2id_0)" d="M1531.54 6338.5l-0.01 0c-12.78,-3.75 -26.17,-5.56 -40.13,-5.49 -22.98,14.37 -39.87,37.28 -48.93,74.74 -13.1,54.19 1.22,104.79 23.5,136.26 39.25,-15.87 82.38,-43.59 99.21,-96.24 12.37,-38.68 10.18,-69.39 -0.43,-94.31 -10.58,-6.57 -21.66,-11.56 -33.22,-14.95z"/>
    <path class="eyes_2_3" d="M1534.5 6329.29l-0 0c-9.6,-2.82 -19.66,-4.18 -30.15,-4.13 -17.27,10.8 -29.95,28.01 -36.76,56.15 -9.84,40.7 0.92,78.72 17.66,102.37 29.48,-11.92 61.89,-32.74 74.53,-72.3 9.3,-29.06 7.65,-52.13 -0.32,-70.85 -7.95,-4.94 -16.27,-8.68 -24.96,-11.23z"/>
    <circle class="eyes_2_2" transform="matrix(-0.715187 -0.16719 -0.16719 0.715186 1545.11 6396.9)" r="33.96"/>
    <circle class="eyes_2_2" transform="matrix(-0.288595 -0.0674651 -0.0674652 0.288594 1571.45 6426.76)" r="33.96"/>
    <path class="eyes_2_3" d="M1461.6 6561.22c67.46,22.09 139.22,-2.29 198.92,-47.68 -51.86,-197.05 -151.81,-234.99 -294.67,-137.39 -10.35,83.57 12.48,157.8 95.76,185.07zm3.54 -7.43c49.99,16.37 104.13,5.13 152.05,-21.63 1.1,-0.61 2.03,-0.91 3.31,-1.88 17.72,-11.85 26.01,-37.48 18.8,-59.87 -0.33,-1.02 -0.7,-2.02 -1.06,-3.01 -44.76,-125.72 -127.32,-179.41 -263.34,-86.48 -9.55,77.16 13.36,147.69 90.25,172.87z"/>
    <path class="eyes_2_3" style="mask:url(#eyes_2id_1)" d="M1528.76 6383.54c67.31,22.89 100.1,78.28 131.76,129.99 -51.86,-197.05 -151.81,-234.99 -294.67,-137.39 65.34,-5.76 101.38,-13.53 162.91,7.4z"/>
   </g>
   <g>
    <path class="eyes_2_5" d="M2378.06 6561.29c-67.46,22.09 -139.22,-2.29 -198.92,-47.68 51.87,-197.05 151.81,-234.99 294.67,-137.39 10.35,83.57 -12.48,157.8 -95.76,185.07z"/>
    <path class="eyes_2_4" style="mask:url(#eyes_2id_4)" d="M2308.12 6338.57l0 0c12.78,-3.75 26.17,-5.56 40.13,-5.49 22.98,14.37 39.87,37.28 48.93,74.74 13.1,54.19 -1.22,104.79 -23.5,136.26 -39.25,-15.87 -82.38,-43.59 -99.21,-96.24 -12.37,-38.68 -10.18,-69.39 0.43,-94.31 10.58,-6.57 21.66,-11.56 33.22,-14.95z"/>
    <path class="eyes_2_3" d="M2305.16 6329.36l0 0c9.6,-2.82 19.66,-4.18 30.15,-4.13 17.27,10.8 29.96,28.01 36.76,56.15 9.84,40.7 -0.92,78.72 -17.66,102.37 -29.48,-11.92 -61.89,-32.74 -74.53,-72.3 -9.29,-29.06 -7.65,-52.13 0.32,-70.85 7.95,-4.94 16.27,-8.68 24.96,-11.23z"/>
    <circle class="eyes_2_2" transform="matrix(0.715187 -0.16719 0.16719 0.715186 2294.55 6396.98)" r="33.96"/>
    <circle class="eyes_2_2" transform="matrix(0.288595 -0.0674651 0.0674652 0.288594 2268.21 6426.83)" r="33.96"/>
    <path class="eyes_2_3" d="M2378.06 6561.29c-67.46,22.09 -139.22,-2.29 -198.92,-47.68 51.87,-197.05 151.81,-234.99 294.67,-137.39 10.35,83.57 -12.48,157.8 -95.76,185.07zm-3.54 -7.43c-49.99,16.37 -104.13,5.13 -152.05,-21.63 -1.1,-0.61 -2.03,-0.91 -3.31,-1.88 -17.72,-11.85 -26.01,-37.48 -18.8,-59.87 0.33,-1.02 0.7,-2.02 1.06,-3.01 44.76,-125.72 127.32,-179.41 263.34,-86.48 9.56,77.16 -13.35,147.69 -90.25,172.87z"/>
    <path class="eyes_2_3" style="mask:url(#eyes_2id_6)" d="M2310.9 6383.61c-67.31,22.89 -100.1,78.28 -131.76,129.99 51.87,-197.05 151.81,-234.99 294.67,-137.39 -65.34,-5.76 -101.38,-13.53 -162.91,7.4z"/>
   </g>
   <rect class="eyes_2_1" x="0" y="0" width="8000" height="8000"/>
   <g>
    <path class="eyes_2_8" d="M4693.66 5877.13c219.85,71.99 453.76,-7.46 648.32,-155.41 -169.04,-642.23 -494.8,-765.91 -960.42,-447.8 -33.72,272.38 40.66,514.32 312.1,603.21z"/>
    <path class="eyes_2_4" style="mask:url(#eyes_2id_8)" d="M4921.59 5151.24l-0.02 -0c-41.67,-12.22 -85.29,-18.12 -130.81,-17.9 -74.91,46.83 -129.95,121.52 -159.46,243.59 -42.7,176.6 3.98,341.52 76.61,444.11 127.93,-51.72 268.49,-142.06 323.36,-313.67 40.31,-126.07 33.17,-226.18 -1.39,-307.39 -34.5,-21.42 -70.59,-37.67 -108.28,-48.73z"/>
    <path class="eyes_2_3" d="M4931.24 5121.2l-0.02 -0c-31.3,-9.18 -64.07,-13.61 -98.27,-13.44 -56.28,35.18 -97.63,91.29 -119.8,183 -32.08,132.67 2.99,256.57 57.55,333.64 96.11,-38.86 201.7,-106.72 242.93,-235.65 30.29,-94.71 24.93,-169.92 -1.05,-230.93 -25.91,-16.09 -53.03,-28.3 -81.35,-36.61z"/>
    <circle class="eyes_2_2" transform="matrix(-2.33099 -0.544919 -0.544919 2.33099 4965.82 5341.59)" r="33.96"/>
    <circle class="eyes_2_2" transform="matrix(-0.940609 -0.219888 -0.219888 0.940609 5051.68 5438.88)" r="33.96"/>
    <path class="eyes_2_3" d="M4693.66 5877.13c219.85,71.99 453.76,-7.46 648.32,-155.41 -169.04,-642.23 -494.8,-765.91 -960.42,-447.8 -33.72,272.38 40.66,514.32 312.1,603.21zm11.52 -24.23c162.94,53.34 339.39,16.7 495.57,-70.49 3.59,-2.01 6.62,-2.95 10.77,-6.11 57.76,-38.64 84.77,-122.18 61.28,-195.13 -1.07,-3.3 -2.3,-6.56 -3.46,-9.82 -145.87,-409.74 -414.97,-584.75 -858.3,-281.87 -31.14,251.49 43.53,481.37 294.14,563.42z"/>
    <path class="eyes_2_3" style="mask:url(#eyes_2id_10)" d="M4912.53 5298.04c219.39,74.6 326.26,255.14 429.45,423.69 -169.04,-642.23 -494.8,-765.91 -960.42,-447.8 212.96,-18.75 330.42,-44.08 530.97,24.11z"/>
   </g>
   <g>
    <path class="eyes_2_7" d="M6837.08 5877.13c-219.85,71.99 -453.76,-7.46 -648.32,-155.41 169.04,-642.23 494.8,-765.91 960.42,-447.8 33.72,272.38 -40.66,514.32 -312.1,603.21z"/>
    <path class="eyes_2_4" style="mask:url(#eyes_2id_12)" d="M6609.15 5151.24l0.02 -0c41.67,-12.22 85.29,-18.12 130.81,-17.9 74.91,46.83 129.95,121.52 159.46,243.59 42.7,176.6 -3.98,341.52 -76.61,444.11 -127.93,-51.72 -268.49,-142.06 -323.36,-313.67 -40.31,-126.07 -33.17,-226.18 1.39,-307.39 34.5,-21.42 70.59,-37.67 108.28,-48.73z"/>
    <path class="eyes_2_3" d="M6599.5 5121.2l0.02 -0c31.3,-9.18 64.07,-13.61 98.27,-13.44 56.28,35.18 97.63,91.29 119.8,183 32.08,132.67 -2.99,256.57 -57.55,333.64 -96.11,-38.86 -201.7,-106.72 -242.93,-235.65 -30.29,-94.71 -24.93,-169.92 1.05,-230.93 25.91,-16.09 53.03,-28.3 81.35,-36.61z"/>
    <circle class="eyes_2_2" transform="matrix(2.33099 -0.544919 0.544919 2.33099 6564.92 5341.59)" r="33.96"/>
    <circle class="eyes_2_2" transform="matrix(0.940609 -0.219888 0.219888 0.940609 6479.06 5438.88)" r="33.96"/>
    <path class="eyes_2_3" d="M6837.08 5877.13c-219.85,71.99 -453.76,-7.46 -648.32,-155.41 169.04,-642.23 494.8,-765.91 960.42,-447.8 33.72,272.38 -40.66,514.32 -312.1,603.21zm-11.52 -24.23c-162.94,53.34 -339.39,16.7 -495.57,-70.49 -3.59,-2.01 -6.62,-2.95 -10.77,-6.11 -57.76,-38.64 -84.77,-122.18 -61.28,-195.13 1.07,-3.3 2.3,-6.56 3.46,-9.82 145.87,-409.74 414.97,-584.75 858.3,-281.87 31.14,251.49 -43.53,481.37 -294.14,563.42z"/>
    <path class="eyes_2_3" style="mask:url(#eyes_2id_14)" d="M6618.21 5298.04c-219.39,74.6 -326.26,255.14 -429.45,423.69 169.04,-642.23 494.8,-765.91 960.42,-447.8 -212.96,-18.75 -330.42,-44.08 -530.97,24.11z"/>
   </g>
  </g>
 </g>
</svg>
