<?xml version="1.0" encoding="UTF-8"?>
<!DOCTYPE svg PUBLIC "-//W3C//DTD SVG 1.1//EN" "http://www.w3.org/Graphics/SVG/1.1/DTD/svg11.dtd">
<!-- Creator: CorelDRAW 2017 -->
<svg xmlns="http://www.w3.org/2000/svg" xml:space="preserve" width="8in" height="8in" version="1.1" style="shape-rendering:geometricPrecision; text-rendering:geometricPrecision; image-rendering:optimizeQuality; fill-rule:evenodd; clip-rule:evenodd"
viewBox="0 0 8000 8000"
 xmlns:xlink="http://www.w3.org/1999/xlink">
 <defs>
  <style type="text/css">
   <![CDATA[
    .colico_3_none {fill:none}
    .fil0 {fill:#373435}
   ]]>
  </style>
 </defs>
 <g id="Layer_x0020_1">
  <metadata id="CorelCorpID_0Corel-Layer"/>
  <g>
   <path class="fil0" d="M3082.49 2438.98c0,0 0,0 0,0l0 0zm-2167.49 4224.66c-57.98,18.14 -210.05,39.2 -196.06,128.85 14.15,90.12 162.21,53.51 219.88,48.28 134.25,-12.29 98.26,-215.42 -23.81,-177.13zm2371.1 -3425.94c1.77,51.28 16.46,91.73 51.05,74.08 16.43,-5.5 17.59,-30.91 13.19,-47.55 -3.8,-14.35 -7.09,-27.7 -9.41,-41.14 6.76,1.69 12.36,6.5 15.62,12.51 36.17,-17.11 71.91,-31.72 104.27,-43.95 1.39,-0.53 2.74,-0.93 4.06,-1.23 -2.11,18.61 -4.14,38.07 -5.46,57.77 -59.89,26.82 -116.22,59.01 -168.93,98.29 51.81,-28.33 110.59,-53.66 167.73,-75.02 -1.05,31.17 0.31,62.33 6.6,91.05 -20.41,13.14 -40.54,26.74 -60.47,40.61 -72.7,50.56 -164.63,107.65 -214.69,181.41 -8.78,12.87 -27.75,9.27 -36.1,-1.38 -30.64,-39.21 -30.18,-77.75 -9.6,-114.28 -5.04,3.27 -9.65,7.13 -14.88,10.1 -7.07,3.97 -14.75,3.3 -20.35,-0.26 0.76,-1.25 1.5,-2.54 2.2,-3.86 38.7,-29.35 61.89,-70.38 53.98,-132.44 -1.62,-12.17 -14.38,-10.9 -18.93,-3.04 -18.9,32.43 -39.17,58.81 -61,80.7 -4.54,-6.33 -10.87,-10.85 -17.59,-12.01 -15.1,-2.53 -26.41,8.83 -31.68,25.8 -0.73,2.32 -1.26,4.69 -1.61,7.07 -6.04,-4.42 -9.81,-11.47 -7.77,-19.86 23.27,-96.99 161.1,-150.09 259.78,-183.35zm-1233.33 -1378.52c-0.03,2.24 0.38,4.24 1.11,5.95 -11.6,14.91 -26.74,26.59 -45.09,31.43 13.29,-34.37 15.89,-73.55 14.97,-112.43 -0.46,-19.83 -25.25,-19.91 -24.64,0 0.9,39.84 -6.32,77.76 -11.95,116.43l-5.43 0.91c-3.84,-7.28 -14.31,-8.22 -15.78,2.37l-0 0.02c-22.67,3.04 -45,3.9 -68.56,-2.19 -22.42,-5.75 -38.96,-17.82 -50.55,-32.98 -28.96,11.38 -59.06,12.75 -91.8,7.12 -35.61,-6.09 -60.78,-46.54 -61,-80.09 0,-15.73 3.88,-28.26 11.37,-41.93 13.91,-25.16 43.2,-41.47 71.69,-41.11 8.61,0.1 10.91,0.46 11.72,0.68l1.15 -1.38c34.57,-19.41 67.44,-12.53 90.54,6.66 21.02,-12.18 42.51,-15.95 66.75,-20.21 43.67,-7.46 86.97,6.44 111.32,41.12 3.23,-1.42 6.45,-2.85 9.7,-4.2 0.11,9.07 -0.2,18.19 -0.97,27.36 -2.64,32.82 -14.09,63.47 -14.52,96.48zm17.33 9.41l0.26 -0.29c17.02,-20.26 25.22,-48.85 27.85,-79.8 1.63,4.28 3.4,8.51 5.57,12.64 3.54,7.24 13.36,6.44 14.96,-2.47 3.54,-18.09 3.54,-35.54 2.06,-52.87 2.49,-1.96 4.26,-5.24 4.12,-8.69 -0.24,-7.1 -1.59,-13.35 -3.45,-19.34l2.06 -3.97c0.64,0.75 1.3,1.5 1.97,2.22 3.39,3.69 10.27,3.04 11.16,-3.69 1.15,-8.67 1.13,-16.72 0.34,-24.51l2.24 -4.1c2.11,-3.81 4.4,-7.28 6.82,-10.44 5.38,6.02 11.62,10.55 19.47,12.2 6.9,1.41 11.59,-3.36 12.46,-11.8 0.83,-8.21 -0.22,-15.64 -2.39,-22.59 35.8,-13.01 79.39,8.79 94.3,45.68 -11.1,31.95 -18.37,75.74 -13.28,112.21 -1.28,5.53 -2.48,11.11 -3.85,16.67 -7.73,-23.46 -40.35,-20.93 -37.68,7.44 1.19,13.18 3.4,28.28 7.01,43.23 -23.49,18.67 -56.32,24.45 -86.1,11.91 -9.2,-3.8 -15.74,-9.78 -22.29,-15.64 -15.06,0.93 -29.69,-0.3 -43.62,-4zm275.94 723.04c6.31,-5.28 14.24,-8.83 21.7,-10.38 3.67,-0.77 7.2,-0.07 10.7,0.51 6.04,0.91 10.7,0.54 16.44,-0.44 7.04,-1.2 9.68,-11.73 8.67,-19 -2.81,-19.54 -18.93,-29.97 -33.31,-34.49 -17.16,-5.44 -34.03,-0.94 -48.7,11.57 -5.72,4.96 -9.65,12.27 -11.13,20.23 -8.06,-3.36 -17.74,-0.15 -20.52,12.88l-0.5 2.61c-15.98,-4.73 -28.19,-20.26 -34.41,-34.47 -17.06,-39.22 15.22,-62.48 49.46,-77.17 -19.39,-13.46 -28.51,-42.35 -17.77,-63.33 19.72,-38.24 56.65,-59.56 94.54,-77.72 35.54,-17.19 89.72,-37.68 128.66,-26.43 32.46,9.44 50.01,32.65 51.01,59.59 11.38,-7.11 22.86,-13.72 34.15,-21.75 7.36,-5.24 14.77,-8.54 22.02,-10.24 -13.6,20.66 -26.05,42.16 -36.66,64.85 -3.94,8.17 3.83,18.35 10.55,13.2 18.03,-13.96 35.04,-30.24 51.34,-47.91 -9.25,12.41 -18.64,24.78 -27.86,37.2 -19.65,26.16 -44.3,51.54 -55.28,85.12 -1.19,3.66 -0.44,6.83 1.16,9.19 -13.91,15.12 -27.71,33.23 -38.56,53.02 -3.69,-1.16 -7.62,-0.48 -11.02,3.83 -16.69,20.7 -33.86,42.26 -45.89,67.71 -3.5,7.2 3.37,15.7 9.08,11.47 9.97,-7.39 19.22,-16.36 28.03,-25.99 -1.13,8.28 -1.48,16.66 -0.86,25.07 -3.28,1.04 -6.57,2.06 -9.87,3.06l3.25 -3.91c2.78,-3.48 -1.63,-8.94 -4.41,-5.46l-10.63 12.79c-49.25,13.68 -99.37,19.26 -143.55,-9.46 -7.82,-5.12 -10.21,-14.35 -8.94,-23.07 6.37,2.59 13.41,2.14 19.11,-2.7zm60.15 312.25c1.6,0.11 2.17,0.07 1.75,-0.11 0.57,0.15 1.19,0.26 1.76,0.37 1.45,0.36 6.43,3.15 5.85,2.41 2.2,1.59 4.12,3.31 6.17,5.07 16.41,14.52 42.38,-9.84 35.19,-33.8 -11.16,-36.63 -42.67,-55.48 -72.73,-44.48 -4.01,1.45 -7.57,3.81 -10.62,6.83 -8.54,-8.03 -15.28,-17.67 -18.17,-30.6 -1.91,-8.57 -2.36,-16.29 -1.59,-23.23 33.56,-11.25 55.98,-55.65 77.57,-86.87 1.47,-2.09 2.06,-4.52 2.48,-7.02l39.16 -47.13c43.12,-12.5 94.49,-11.34 138.3,-18.87 3.72,-0.63 7.43,-1.28 11.14,-1.96 -13.8,18.06 -26.34,37.89 -39.44,56.58 -6.89,9.74 4.98,21.5 11.28,10.93 13.68,-23.04 28.72,-45.52 40.94,-69.9 53.95,-10.37 107.12,-24.52 159.34,-41.63 -46.63,43.62 -91.47,106.93 -100.54,176.82 -1.63,12.62 8.64,26.63 19.04,18.16 26.85,-22.04 48.41,-55.95 68.79,-86.63 20.23,-30.59 38.7,-62.14 56.44,-94.83 11.02,10.76 27.85,11.88 35.19,-7.44 5.54,-14.72 11.38,-28.53 18.07,-41.53l2.74 -1.11c-0.27,11.29 0.44,22.73 2.64,34.23 6.61,34.42 44.44,23.74 46.65,-7.88 1.2,-16.8 2.41,-33.38 5.22,-49.47l4.84 -2.15c37.41,-16.79 61.42,38.41 31.69,61.13 -18.24,14.04 -37.02,26.46 -55.81,39.22 14.84,10.66 23.97,29.29 24.93,48.58 -9.06,-4.56 -20.03,-1.43 -22,13.87 -1.47,12.04 -2.95,25.4 -3.97,39.3 -6.15,0.31 -11.85,5.32 -11.43,15.37 1.69,37.98 -3.81,76.12 -5.26,113.91l-10.08 4.94c1.8,-20.19 4.29,-39.96 8.31,-60.07 9.68,-47.48 -49.58,-67.75 -58.67,-20.2 -3.95,21.28 -9.07,47.37 -11.13,73.43 -8.81,-6.47 -20.81,-5.97 -27.14,8.25 -4.37,10.13 -8.95,20.24 -13.33,30.37 -7.19,-4.44 -16.59,-3.54 -23.05,7.97 -14.5,25.72 -29.02,51.39 -43.54,77.08 -7.91,13.94 9.39,29.74 18.64,17.95 13.19,-16.76 26.38,-33.52 39.57,-50.27 4.11,5.8 11.45,9.09 16.72,6.44 11.74,-5.9 16.58,-16.65 22.87,-29.75 3.54,-7.06 6.9,-14.11 10.41,-21.17 2.93,20.09 9.83,37.96 23.48,50.81 4.55,4.3 12.46,2.28 16.26,-2.65 14.38,-18.78 17.16,-39.34 18.78,-64.52l0.17 -2.51c23.7,29.18 21.76,81.06 -23.84,101.61 -6.96,3.09 -14.02,5.91 -21.04,8.93 0.43,8.94 -2.63,17.75 -11.77,23.04 -52.64,30.36 -111.59,58.73 -172.57,73.57 -0.28,-2.48 -0.86,-4.97 -1.78,-7.41 -4.09,-10.79 -12.32,-17.59 -16.41,-28.67 -3.37,-9 -4.55,-18.09 -4.41,-27.79 18.93,-0.61 37.83,-1.23 56.91,-1.85 3.21,-0.14 3.36,-6.41 0,-6.48 -19.22,-0.28 -38.27,-0.61 -57.48,-0.94 -4.56,-27.03 -42.09,-25.01 -41.8,6.65 0.15,19 3.82,37.17 10.87,53.96 2.87,6.77 6.6,14.08 11.08,20.54 -17.29,2.21 -34.66,3.15 -52.02,2.56 -13.93,-6.96 -29.02,-11.48 -38.55,-15.5 -12.98,-5.38 -27.38,3.89 -33.78,18.25 -55.27,11.12 -110.48,13.27 -155.94,-25.13 -21.96,-18.4 -26.7,-53.88 -7.37,-76.15 5.82,-6.65 11.98,-12.23 18.3,-17.28 13.61,10.18 35.07,4.08 39.33,-18.36 3.22,-16.94 1.76,-35.72 0.72,-53.56 2.21,-0.5 4.26,-1.27 6.32,-2.21 0.15,-0.03 0.29,-0.03 0.44,-0.03 -1.02,0.58 -0.73,0.55 0.89,-0.04zm-35.95 -59.85c-4.7,6.3 -7.56,14.44 -8.05,23.05 -7.91,4.23 -14.23,13.39 -14.67,27.68 -0.58,20.99 -3.65,44.45 0.29,64.97 0.7,3.75 1.88,7.04 3.43,9.87 -7.58,-7.81 -14,-16.9 -18.49,-27.22 -6.37,-14.69 -7.49,-26.21 -3.52,-41.76 6.28,-25.08 20.53,-44.82 41.01,-56.59zm163.97 -90.77c2.49,-9.12 2.03,-19.73 2.17,-29.36 0.61,-17.51 -12.58,-34.23 -26.67,-33.47 -14.23,0.8 -27.28,14.73 -26.84,33.47 0.3,9.63 -0.29,20.24 2.2,29.36 8.35,30.11 40.76,30.14 49.14,0zm283.65 -958.68c6.41,-8.1 12.94,-16.07 19.59,-23.92 -5.27,19.11 7.34,44.55 25.66,36.16 16.12,-7.42 30.06,-19.69 43.1,-33.45 -0.15,0.15 -0.15,0.26 -0.15,0.41 -8.78,18.85 -20.81,37.13 -21.54,59.41 -0.29,9.53 5.57,17.52 12.61,19.99 -12.03,22.08 -19.36,46.07 -7.93,63.65 23.04,35.47 56.46,-21.53 70.41,-41.76 1.45,-2.13 2.93,-4.13 4.41,-6.19 -10,21.31 -18.64,43.61 -24.5,67.49 -2.35,8.83 -0.14,21.25 5.71,27.35 3.22,3.35 5.85,5.84 9.97,7.25 7.04,2.5 17.02,0.33 22.01,-7.25 29.16,-45.55 51.3,-96.8 80.2,-142.8 12.46,-19.72 4.52,-44.4 -8.67,-54.32 4.26,-4.26 8.52,-8.72 12.76,-12.85 29.77,-28.08 0.75,-91.74 -29.6,-63.33 -31.54,29.46 -61.31,61.38 -88.58,96.7 7.48,-17.4 14.96,-34.78 22.58,-52.15 9.97,-23.41 -14.67,-44.07 -28,-27.93 -4.55,-3.91 -10.7,-5.39 -16.44,-2 -23.31,13.98 -49.69,25.08 -70.23,45.67 10.69,-28.48 -17.31,-61.7 -41.34,-47.52 -5.42,-18.2 -28.76,-26.86 -40.93,-11.47 -1.59,1.88 -2.93,3.87 -4.38,5.79 -12.53,2.31 -23.39,8.71 -33.08,20.16 -16.24,0.61 -32.51,0.89 -48.73,0.17 -12.97,-0.56 -26.61,-5.88 -30.85,-19.79l-4.9 -16.12c-9.65,-31.4 4.65,-59.15 33.65,-72.62 9.81,-4.5 20.22,-8.17 30.55,-11.94 -57.02,13.79 -106.22,32.78 -129.79,60.26 -11.84,13.87 -33.43,13.08 -44.35,-1.62 -161.06,-216.94 710.3,-209.9 815.64,-195.69 29.61,4.01 25.84,48.15 -2.44,50.96 -106.98,10.7 -213.67,24.35 -320.04,39.88 16.85,-0.85 33.43,-1.77 49.41,-2.84 109.17,-7.26 215,-13.98 318.71,23.53 15.71,5.65 18.63,25.31 11.79,38.73 -4.48,-5.66 -11.67,-8.04 -19.58,-3.45 -7.31,4.25 -13.46,9.72 -18.71,16.17 -57.32,-0.59 -114.56,5.58 -171.75,15.02 1.14,-3.62 2.34,-7.25 3.63,-10.92 9.83,-27.61 -19.07,-50.08 -32.85,-24.03 -8.49,15.98 -18.57,30.21 -27.28,45.22 -33.92,6.66 -67.82,14.08 -101.7,21.52 30.25,-0.41 60.36,-0.05 90.4,1.05 -4.17,10.2 -7.24,21.17 -8.5,33.55 -2.92,29.03 27.43,36.16 41.52,21.5 11.57,-12.02 19.65,-29.81 23.89,-47.73l1.07 -4.28 8.94 0.63c-6.63,11.1 -12.55,22.84 -17.61,35.2 -5.8,14.33 -12.39,29.87 -12.85,45.39 -10.66,0.56 -21.33,1.16 -31.99,1.79 10.74,1.07 21.43,2.3 32.09,3.69 0.4,5.83 1.78,11.65 4.52,17.37 3.08,6.37 9.69,8.44 14.81,4.85 6.49,-4.46 10.72,-10.49 14.01,-17.34 4.59,0.75 9.19,1.53 13.77,2.33 -3.74,14.44 -7.18,28.93 -10.04,43.49 -5.56,28.37 -11.13,80.81 18.49,92.31 3.37,1.31 6.73,1.82 9.98,1.57 -4.11,20.38 -6.17,40.78 -4.55,60.76 0.87,9.62 11.42,18.86 17.6,9.12 9.07,-14.22 15.25,-28.3 20.67,-43.03 -10.84,33.44 -20.81,67.28 -29.62,101.73 -10.85,42.48 -25.65,87.65 -16.27,132.21 0.58,3.15 2.35,5.67 4.38,7.48l-8.06 49.11c-3.5,21.83 -8.64,40.53 3.4,59.13 3.36,5.32 9.94,4.96 14.35,2.29 16.28,-9.81 17.74,-32.86 21.7,-52.84 4.85,-24.8 9.54,-49.56 14.38,-74.33 2.78,-13.86 -2.93,-24.29 -11.01,-29.39 2.06,-6.84 3.69,-13.97 5.45,-21.07 1.3,5 2.64,9.99 4.38,14.8 3.54,10.02 17.89,10.2 21.43,0 14.37,-41.98 13.19,-88.3 18.31,-133.22 3.51,-31.55 9.25,-62.28 16.3,-92.53 19.48,-24.86 32.09,-50.74 36.78,-87.47l0.44 -3.51c37.43,15.3 28.74,70 -13.12,68.42 9.05,2.07 18.22,3.56 27.24,5.94 58,15.39 61.56,86.69 25.64,114.22 28.49,24.49 30.74,72.43 1.02,93.6 28.35,26.63 23.1,80.78 -27.63,86.33 -6.24,0.7 -12.61,1.43 -19.07,2.18l0.06 -0.7c0.9,-10.12 -3.07,-16.5 -8.63,-19.25 2.93,-46.76 2.93,-94.67 7.33,-139.18 2.5,-23.78 -27.42,-23.56 -29.92,0 -6.02,60.83 -16.44,131.52 -9.83,195.07 -6.46,-5.9 -17.45,-5.04 -19.94,7.3 -7.76,37.28 -10.88,74.38 -4.13,111.33 -6.28,2.82 -13.43,4.73 -21.48,5.48 -29.08,2.73 -58.32,7.12 -87.5,11.03 -3.04,7.66 -9.09,14.25 -19.13,17.92 -17.5,6.41 -28.77,9.21 -46.57,2.43 -8.2,-3.07 -13.68,-11.54 -15.54,-20.63 -18.15,-7.74 -32.31,-22.94 -37.21,-43.67 -3.99,-16.78 0.34,-36.5 10.78,-51.49 -9.27,-19.21 -3.31,-43.08 9.26,-60.84 -27.97,-11.67 -47.43,-39.74 -36.58,-71.28 8.24,15.39 31.14,15.55 35.31,-6.49 6.14,-32.35 10.84,-63.45 22.29,-93.88 13.19,-35.27 -27.42,-57.03 -39.6,-20.85 -11.31,33.59 -20.7,71.51 -20.96,108.28 -0.03,2.19 0.17,4.23 0.55,6.14 -19.43,-1.64 -37.83,-5.48 -53.33,-13.2 -36.41,-18.13 -41.74,-58.79 -21.31,-88.1 -13.83,1.74 -27.59,3.62 -41.41,5.37 -61.2,8.02 -98.11,-81.7 -47.51,-117.2 -17.4,0.26 -34.34,-1.5 -50.3,-6.72 -1.49,-0.71 -3.03,-1.25 -4.59,-1.61 -5,-1.87 -9.9,-4.1 -14.67,-6.74 10.39,-17.94 20.74,-35.94 31.08,-53.95 9.83,-17.13 -12.46,-38.61 -23.62,-22.63 -10.98,15.97 -21.98,31.92 -32.94,47.93 -1.47,-7.34 -0.73,-15.16 2.32,-21.8 7.57,-16.54 19.41,-28.94 32.91,-39.35 -1.96,0.15 -3.93,0.29 -5.89,0.41zm-294.49 818.49c7.3,-15.82 12.69,-32.53 20.52,-48.87 13.04,-27.32 30.49,-50.59 51.02,-69.26 1.62,-1.46 2.88,-3.15 3.81,-4.95 73.92,-19.4 146.21,-43.27 217.39,-72.2 17.06,-6.9 30.5,-0.8 37.95,10.23 -0.32,0.6 -0.63,1.22 -0.93,1.87 -3.79,8.55 -7.77,17.13 -11.6,25.62 -1.3,-15.51 -18.46,-29.31 -31.36,-15.45 -7.77,8.22 -16.58,19.33 -24.79,32.04 3.8,-15.71 -13.8,-29.6 -23.16,-12.81 -14.23,25.51 -30.63,50.32 -40.49,78.91 -9.91,4.31 -19.84,8.54 -29.81,12.7l6.21 -7.29c4.99,-5.72 -1.31,-14.51 -6.87,-11.11 -10.44,6.47 -20.98,12.93 -31.54,19.39 -5.09,3.11 -6.22,8.9 -5,14.15 -35.24,13.96 -70.87,26.96 -106.88,38.81 -8.05,2.66 -16.22,5.44 -24.48,8.22zm77.22 -136.71c-0.63,-3.7 -2.08,-7.16 -4.06,-9.77 14.81,-17.19 27.86,-38.5 40.91,-56.13l41.94 -56.72c13.72,23.99 13,56.46 -15.46,78.15 -20.02,15.31 -41.25,30.24 -63.33,44.46zm-139.85 173.02l-27.57 33.2c-1.91,-6.3 -6.48,-11.1 -11.83,-10.07 11.46,-10.33 24.82,-17.72 39.41,-23.13zm291.85 -124.86c7.65,-10.67 14.76,-22.06 21.96,-33.28 -4.66,9.17 -8.63,18.78 -11.39,28.47l-10.57 4.8zm64.58 -30.22c4.74,-6.77 9.92,-13.07 15.45,-19.02 -2.28,4.94 -4.5,9.86 -6.72,14.78l-8.73 4.24zm159.2 310.66c-0.65,-8.83 -1.65,-17.68 -2.41,-26.48 2.06,4.46 4.15,8.88 6.3,13.26 -0.69,4.56 -1.96,9 -3.89,13.23zm93.37 -968.72c-23.63,36.37 -44.87,74.63 -62.04,116.38 -14.38,34.9 -32.26,75.78 -22.29,115.49 2.06,8.29 10.84,14.8 17.45,8.87 23.45,-21.54 31.54,-55.95 44.58,-87.37 15.97,-38.87 35.48,-75.17 58.07,-108.75 20.67,-31.06 -15.39,-76 -35.77,-44.63zm52.06 355.49c5.11,-14.48 5.56,-29.6 8.64,-44.91 3.07,-15.48 7.62,-30 13.48,-44.15 12.76,-30.07 -24.18,-56.84 -36.5,-26.59 -12.32,30.26 -28.04,76 -19.36,110.17 4.41,17.01 26.98,24.81 33.74,5.49zm42.5 120.15c4.26,-14.55 6.76,-27.07 9.24,-42.2 2.35,-14.87 7.34,-29.06 14.82,-40.97 17.59,-27.46 -13.78,-58.18 -30.79,-29.63 -10.73,18.02 -17.89,38.94 -20.81,61.11 -2.96,23.24 0.14,38.8 12.15,56.78 4.83,7.28 13.36,2.32 15.39,-5.09zm144.15 8.33c1.56,-29.94 4.67,-59.5 11.89,-88.33 0.43,2.96 1.16,5.82 1.62,8.72 0.43,7.07 0.87,14.14 1.59,21.23 0.84,8.26 1.45,17.49 2.87,26.29 -2.66,12.17 -8.6,23.52 -17.98,32.09zm159.73 1055.76c2.61,9.2 5.8,18.09 9.65,26.58 5.42,11.87 18.32,7.88 21.69,-3.52 4.25,-14.33 7.25,-29.35 9.43,-44.78 56.49,-29.59 114.04,-53.81 172.89,-74.11 2.63,8.84 6.09,17 10.53,24.22 0.44,0.72 1.02,1.37 1.6,2.03 -2.05,25.12 -0.71,49.24 7.06,67.23 -68.7,33.59 -137.18,70.94 -201.34,112.27 -11.57,-16.69 -40.42,-9.65 -42.84,19.53 -0.21,2.63 -0.39,5.83 -0.52,9.5 -53.03,36.94 -102.2,76.83 -144.94,119.82 -12.68,12.72 -28.92,14.51 -43.66,4.2 -4.31,-2.98 -8.61,-5.96 -12.85,-8.98 -13.45,-9.35 -19.96,-29.68 -16.76,-45.35 19.87,-98.96 141.65,-162.03 230.06,-208.67zm43.22 -42.29c2.68,-27.15 3.52,-55.19 4.77,-82.78 46.82,-15.76 90.28,-28.38 125.09,-37.27 3.15,14.34 9.32,26.78 21.93,26.78 4.99,0 8.82,-2.02 12.04,-5.17 0.22,6.52 0.69,12.93 1.44,19.16 -57.78,20.64 -112.53,48.05 -165.25,79.28zm-192.54 -1633.94c-1.8,16.96 -3.7,33.84 -5.7,50.68l-7.13 0.11c4.2,-17.02 8.35,-33.98 12.83,-50.78zm-111.74 53.85c2.26,-6.43 4.38,-13.17 7.17,-19.72 6.18,-14.51 13.66,-27.58 22.3,-39.7 -5.46,19.55 -11.22,39.17 -16.59,58.87l-12.89 0.56zm160.83 -3.41c-0.07,-7.33 -0.39,-14.65 -1,-21.99 5.94,-7.3 9.57,-18.84 12.83,-29.33 2.02,1.38 3.79,3.03 5.29,4.88 -1.03,11.09 0.1,22.3 3.97,31.93 -3.48,8.03 -10.54,14.12 -21.09,14.52zm-45.87 -62.41c-1.19,2.65 -2.09,5.6 -2.61,8.82 0.69,-3.09 1.13,-6.09 1.36,-8.99l1.25 0.17zm559.96 13.33c3.22,-5.69 6.52,-11.32 9.89,-16.89 4.4,-7.31 3.09,-15.17 -0.73,-20.98 6.32,-11.7 13.04,-22.76 20.67,-32.26 14.38,-18.02 -4.99,-52.26 -22.58,-36.36 -12.9,11.64 -30.06,28.62 -45.46,48.41 0.29,-3.8 0.58,-7.53 0.89,-11.28 8.21,-10.28 16.7,-20.2 25.66,-29.43 10.41,-10.71 6.15,-27.26 -2.78,-35.5 1.73,-16.1 -8.38,-31.08 -24.35,-27.43 -18.2,4.13 -35.34,21.31 -49.13,39.63 -12.32,3.25 -24.35,8.76 -35.34,17.16 -6.35,4.86 -14.63,11.7 -21.55,19.86 -58.83,-33.33 -99.78,-59.24 -73.74,-67.28 -4.71,-18.23 282.68,-90.42 292.69,-110.41 39.04,-77.99 276.93,19.48 358.07,-19.56 61.27,-29.53 136.07,-17.3 172.55,44.44 36.93,-16.44 73.5,-29.74 112.68,-42.09 76.68,-23.99 147.26,58.09 132.67,127.28 9.18,-1.55 18.45,-2.13 27.74,-4 51.17,-8.48 83.17,32.57 75.52,71.97 24.85,-1.28 49.7,-2.34 74.56,-3.26 -27.78,28.1 -53.68,79.63 -42.45,121.87 2.33,8.54 8.28,15.02 15,17.33 -49.92,4.89 -102.27,5.55 -155.87,4.33 2.26,-5.29 4.46,-10.62 6.57,-16.01 13.19,-33.66 -20.99,-72.75 -43.72,-42.14 -12.3,16.6 -24.75,35.48 -36.6,55.55l-1.57 -0.07c11.5,-42.59 20.81,-86.95 23.21,-128.14 1.33,-23.92 -26.98,-39.73 -39.57,-20.44 -10.44,15.99 -19.97,34.08 -28.9,53.13 0.72,-22.65 -0.15,-44.95 -3.51,-65.69 -2.08,-13 -8.81,-19.94 -16.72,-22.08 -7.91,-12.07 -20.41,-20.37 -31.83,-19.72 -23.92,1.33 -37.69,22.15 -40.32,50.2 -1.62,18.52 -3.37,37.06 -5.13,55.59 -1.63,18.27 8.96,35.86 22.29,44.54l-12.08 46.34c-21.07,-0.85 -42.09,-1.55 -63.02,-1.95 -27.42,9.76 -55.16,14.57 -82.94,11.04 -5.17,-0.69 -10.27,-1.55 -15.29,-2.59 0.54,-1.01 1.07,-2.02 1.59,-3.05 10.41,-20.76 -7.48,-54.46 -27.42,-44.44 -14.81,7.46 -28.58,19.52 -41.34,33.04 0.73,-2.61 1.75,-5.17 2.79,-7.7 7.78,-19.39 18.61,-35.04 31.94,-48.75 17.45,-17.95 -1.89,-53.89 -21.11,-46.8 3.66,-4.95 7.34,-10.02 11.16,-14.83 31.37,-39.48 -17.48,-100.5 -48.84,-60.98 -22.44,28.19 -47.81,61.67 -65.41,98.33 2.93,-17.08 2.06,-35.4 -1.19,-52.11 -1.44,-8.18 -5.57,-12.93 -10.55,-15.02 -4.55,-16.87 -19.94,-31.16 -34.76,-24.35 -17.01,7.78 -31.97,21.6 -40.17,42.33 -6.29,15.89 -7.05,36.23 5.28,48.1 4.84,4.63 11.44,9.49 17.89,6.01 6.02,-1.23 11.3,-4.45 16,-9.84 2.35,-2.75 4.23,-6.41 6,-9.73 0.9,-1.77 3.97,-5.29 0.28,-0.94 1.05,-1.28 2.07,-2.65 3.08,-3.95 0.17,-0.17 0.17,-0.25 0.32,-0.43 0,-0.03 0,0 0.14,-0.07 0.87,-0.54 1.91,-1.27 2.78,-1.99 0.29,-0.07 0.58,-0.23 1.02,-0.37 0.75,8.25 0.75,16.5 0.29,25.7 -0.58,12.13 -3.8,25.67 -1.92,37.59 0.61,4.02 4.12,5.54 6.9,4.93 5.89,-1.22 11.16,-6.26 15.57,-12.62 -1.33,4.34 -2.64,8.61 -3.68,12.98 -8.64,37.39 30.67,66.6 52.5,38.58 -0.79,5.37 -1.1,10.72 -0.7,15.91 -67.07,12.24 -129.81,33.92 -185.33,70.8 -3.93,-2.67 -8.28,-4.19 -12.52,-4.37 3.37,-23.53 8.21,-46.44 14.21,-69.13 10.72,-40.72 -37.37,-58.78 -51.75,-23.82 2.21,-9.04 4.38,-18.06 7.02,-27.03 9.68,-34.42 -34.14,-49.26 -43.83,-15.05 -6.35,22.46 -11.39,45.28 -15.01,68.46 -4.41,-6.63 -10.39,-13.48 -17.72,-20.47l0.03 -0.22c5.42,-38.18 12.75,-74.85 23.59,-111.25 4.26,-14.34 -14.2,-24 -19.77,-10.43 -11.33,27.57 -24.48,61.96 -33.33,97.6 -6.19,-4.56 -12.72,-9.13 -19.55,-13.72zm170 1055.64c-1.61,-12.96 -12.12,-20.71 -21.67,-19.95 5.71,-39.7 14.52,-77.7 21.68,-117.11 3.4,-19.07 -10.26,-32.96 -22.73,-31.08 -1.3,-15.24 -10.84,-27.46 -21.54,-30.41 2.19,-12.49 -3.37,-23.1 -11.41,-28.27 19.89,-21.33 54.88,-26.28 75.83,-5.11l-3.76 -9.27c-5.15,-13.15 -2.25,-23.94 4.72,-31.44 2.04,9.75 5.29,19.04 9.99,27.59 0.29,0.33 0.43,0.58 0.72,0.87 -10.12,67.97 -11.28,136.29 10.26,202.48 3.53,10.86 17.16,13.5 19.8,0 15.24,-76.63 12.95,-154.73 14.24,-233.21 2,1.79 3.83,3.84 5.43,6.18 19.13,27.85 39.69,54.94 61.11,81.43 -4.2,18.69 -7.71,37.5 -7.15,56.59 0.14,5.85 2.46,10.24 5.71,12.88 -1.63,15.88 -2.2,31.92 -1.48,48.09 0.44,8.69 10.87,14.22 14.38,4.85 9.66,-25.75 17.33,-52.35 24.67,-79.12 4.88,5.69 9.8,11.36 14.73,17 -7.35,42.35 -10.06,87.81 4,125.74 4.7,12.27 17.59,6.66 20.84,-3.37 7.96,-25.04 11.78,-52.12 15.51,-79.34 6.5,0.28 13.17,0.39 19.75,0.61 -6.11,-20.81 15.55,-36.74 33.52,-34.46 4.13,8.29 9.87,15.26 17.58,20.22 1.99,1.3 3.97,2.22 5.95,2.89 0.68,1.1 1.37,2.2 2.06,3.29 -6.18,47.99 -8.05,100.75 13.99,137.94 3.98,6.65 13.33,9.11 16.87,0 0.15,-0.26 0.15,-0.55 0.29,-0.77 -4.94,30.61 -9.89,62.31 -8.2,93 -82.69,-15.97 -162.41,-41.02 -229.2,-78.89 3.41,-39.16 3.65,-79.62 5.85,-117 0.15,-2.86 -3.65,-3.55 -4.08,-0.7 -5.13,34.86 -12.52,71.78 -17.2,108.57 -21,-12.94 -40.55,-27.24 -58.31,-43.07l-9.15 0c-8.76,-1.78 -16.58,-4.37 -23.6,-7.66zm-174.48 469.44c3.01,9.44 7.46,17.57 13.79,23.13 4.7,4.09 10.41,1.56 14.38,-2.31 3.97,-3.8 7.05,-9.01 9.68,-15.02 -2.27,16.26 -3.08,32.57 -1.31,47.68l-0.42 0.18c-39.51,15.86 -80.56,33.05 -122.21,51.6 -11.22,-4.8 -26.26,-0.12 -32.35,14.65l-10.77 4.98c0.39,-8.2 0.37,-16.58 0.61,-24.92 0.65,-24.28 3.4,-47.48 9.16,-70.04 39.19,-11.24 78.98,-21.09 119.44,-29.93zm127.89 108.87c0.87,0 0.87,-1.81 0,-1.81 -1.04,0 -1.04,1.81 0,1.81zm-104.13 243.67c-7.62,-16.86 -19.51,-23.56 -31.4,-23.16 -0.87,-1.56 -1.59,-3.11 -2.63,-4.67 -10.7,-17.26 -34.44,-14.15 -45.89,0 -1.91,2.42 -3.36,4.96 -4.69,7.53 0,-9.66 -0.14,-19.32 -0.14,-29 0,-9.91 -4.7,-16.1 -10.41,-18.59 1.05,-1.52 1.91,-3.44 1.91,-5.97 0.23,-6.44 0.26,-12.86 0.15,-19.26 78.91,-28.02 159.79,-52.59 229.65,-71.84 1.83,4.64 3.87,9.08 6.14,13.29 3.39,6.08 8.67,7.85 13.33,6.15 -1.44,19.44 -2.09,38.77 -1.56,57.65 -39.79,16.41 -79.43,33.15 -118.95,50.18 16.05,-5.19 31.83,-10.36 46.99,-15.54 24.25,-8.26 48.33,-16.43 72.39,-24 0.22,4.05 0.5,8.08 0.83,12.08 1.48,15.7 7.47,26.24 19.37,31.74 5.13,2.31 8.96,2.53 14.09,0 2.02,-1.05 3.65,-2.35 5.27,-3.63 -3.07,18.39 -7.66,37.52 -3.78,54.21 -37.97,18.13 -75.56,37.55 -113.11,57 48.26,-13.64 96.69,-25.13 145.57,-34.69 3.06,10.66 6.8,21.07 11.5,31.19 6.39,13.83 15.5,28.37 26.37,40.64 -23.13,7.3 -46.22,14.8 -69.25,22.45 27.17,-4.46 54.35,-7.83 81.67,-10.16 14.48,12.38 30.96,19.91 47.71,17.35 11.29,-1.71 20.56,-8.61 24.16,-21.16 24.58,-0.54 49.38,-0.32 74.53,0.6 43.82,1.69 51.39,60.2 9.18,69.82 9.28,-0.35 18.52,-1.27 27.85,-1.31 60,-0.14 81.9,67.81 54.33,103.7 33.86,16.28 48.44,62.01 25.21,90.15 5.37,2.88 10.11,6.62 14.12,10.96 -7.18,11.33 -9.67,27.43 -2.51,40.13 3.68,6.44 7.4,12.09 11.57,16.87 -5.11,9.28 -14.05,17.34 -27.52,22.58 -14.19,5.56 -29.02,11.47 -44.12,17.5 20.59,17.75 27.76,49.43 14.74,73.85 17.96,31.08 12.98,76.52 -30.64,92.69 -27.39,10.16 -54.5,21.97 -81.67,33.3 -0.96,8.19 -5.09,16.12 -13.84,22.26 -15.24,10.72 -25.41,16.34 -44.35,14.4 -8.71,-0.85 -16.2,-7.6 -20.35,-15.9 -19.53,-2.78 -37.15,-13.8 -47.25,-32.55 -8.2,-15.17 -9.12,-35.35 -2.91,-52.53 -13.92,-16.15 -14.35,-40.76 -6.8,-61.16 -32.06,-4.3 -59.6,-29.17 -52.92,-66.27 -20.9,4.17 -41.44,5.72 -59.87,1.98 -39.86,-8.09 -55.54,-45.98 -43.39,-79.58 -12.91,5.26 -25.72,10.64 -38.61,15.91 -57.04,23.59 -115.91,-53.52 -76.22,-100.92 -28.9,8.22 -58.03,10.24 -86.73,-1.72 -14.19,-5.85 -22.3,-22.81 -19.79,-37.56 3.03,-17.93 11.26,-32.98 21.61,-46.53 -28.83,10.12 -57.84,17.69 -86.94,19.26 -14.87,0.82 -30.96,-13.02 -26.74,-29.13 4.8,-18.04 13.5,-32.8 23.75,-46.09 -21.79,6.93 -43.69,13.83 -66.01,18.74 -12.67,2.81 -27.22,1.2 -34.92,-11.13l-8.91 -14.3c-17.44,-27.83 -10.81,-58.34 13.71,-78.85 8.31,-6.89 17.42,-13.13 26.41,-19.44 -51.5,28.08 -94.11,59.15 -109.77,91.8 -7.85,16.46 -28.91,21.28 -43.26,9.91 -49.61,-39.33 -41.28,-81.46 1.9,-123.07 4.24,1.43 8.97,1.42 14.29,-0.37 9.54,-3.19 13.94,-13.1 15.08,-24.1 61.33,-45.22 159.03,-89.06 262.81,-127.21 3.66,5.61 7.79,10.82 12.45,15.56 -5.86,2.46 -10.55,8.65 -10.55,18.67 -0.15,30.05 -0.15,60.08 -0.29,90.17 -0.15,23.99 -3.37,46.35 9.54,65.38 3.36,5.03 11.13,4.99 14.52,0 6,-8.69 8.35,-18.1 9.36,-27.98 7.04,22.12 22.15,37.75 42.24,37.63 0.44,0 0.76,-0.21 1.19,-0.21 6.44,22.08 6.01,47.56 20.82,63.88 9.97,11 24.35,11.91 34.31,0 18.33,-21.92 13.77,-57.4 11.89,-86.39 -2.24,-33.98 -12.32,-63.66 -25.83,-93.19zm-94.94 -130.56c-1.87,-27.24 -4.18,-54.4 -2.2,-82.12 64.2,-20.78 130.13,-36.5 199.13,-46.35 8.37,-1.18 15.01,2.06 19.44,7.35 0.46,10.55 1.2,21.02 2.37,31.2 -2.54,3.8 -6.39,6.85 -11.67,8.45 -71.8,21.58 -140.56,49.34 -207.07,81.48zm-50.58 -65.41c0.04,28.75 3.12,58.63 12.3,84.49 -85.91,44.14 -168.26,95.17 -248.93,149.03 0.01,-6.05 -0.82,-12.11 -2.2,-17.32 -8.5,-32.11 -14.5,-59.22 -12.59,-93.52 0.11,-2.34 0.05,-4.52 -0.17,-6.57 24.6,-13.39 50.21,-25.58 74.36,-37.9 46.78,-23.88 93.62,-45.46 141.1,-64.38 0.52,0.33 1.04,0.66 1.58,0.97 4.7,2.76 11.16,3 14.96,-2.43 1.48,-2.11 2.78,-4.28 3.93,-6.51 5.22,-1.98 10.44,-3.93 15.67,-5.85zm491.44 -3.11c0.92,2.4 2.01,4.66 3.24,6.78 3.93,12.31 -0.34,27.78 -14.85,33.26 -29.1,11 -58.11,22.24 -87.05,33.68 0.74,-7.24 1.47,-14.48 2.17,-21.71 2.2,-22.25 -23.05,-30.07 -33.45,-16.33 0.59,-7.63 1.23,-15.26 1.93,-22.89 50.06,-12.41 88.04,-20.35 105.56,-22.6 10.3,-1.31 17.95,3.09 22.44,9.82zm35.53 85.07c-5.27,15 -9,30.28 -6.49,46.98 0.83,5.5 3.34,9.15 6.58,11.26 -31.83,8.3 -63.06,18.72 -93.87,30.64 -0.33,-7.56 0.08,-15.33 1.37,-23.31 4.75,-29.46 -11.18,-50.32 -29.31,-56.16 39.75,-7.61 80.09,-11.54 121.72,-9.43zm26.15 50.75c3.64,-3.87 6.89,-8.54 9.84,-13.69 -1.55,5.61 -4.79,10.57 -9.84,13.69zm-2562.15 -1993.39c-3.09,11.48 -4.56,23.6 -3.14,37.06 0.91,7.6 8.96,14.91 14.99,14.19 16.26,-1.99 30.11,-12.32 41.91,-27.67 6.7,7.65 11.68,17.17 14.12,28.56l2.54 12.07c7.12,33.2 -4.49,68.25 -34.93,85.95l-5.65 3.21c-20.09,11.72 -45.37,11.72 -65.59,0l-5.51 -3.21c-22.29,-12.98 -34.36,-35.51 -36.54,-59.51 -9.99,3.1 -21.02,2.29 -31.6,-5.17 -13.9,-10.11 -26.3,-19.65 -37.78,-30 -40.57,18.03 -85.14,-10.45 -97.88,-49.28 -18.41,17.22 -34.03,25.84 -64.34,28.13 -287.46,21.97 123.82,-243.76 231.05,-83.39 14.46,21.83 21.72,41.82 27.91,64.91 14,-11.01 32.34,-16.31 50.45,-15.84zm-239.59 226.96c3.79,0.57 7.53,-0.14 10.49,-3.78l0.26 -0.39c1.41,-0.51 2.83,-1.01 4.25,-1.5 3.53,1.98 7.01,3.95 10.59,5.94 7.34,4.16 13.94,9.53 22,4.89 2.49,-1.52 3.36,-5.57 2.78,-8.72 -0.8,-4.91 -3.2,-8.3 -6.22,-11 18.07,-4.93 34.85,-8.74 46.52,-12.39 45.03,-14.13 74.37,15.72 80.48,50.66 -5.52,-4.88 -12.14,-7.71 -19.15,-7.32 -17.89,1.02 -32.99,17.47 -34.32,40.06 -0.15,-0.95 -0.29,-1.89 -0.44,-2.79 -3.5,-19.54 -10.55,-37.74 -19.94,-53.81 -3.97,-6.66 -10.12,-7.2 -14.96,-4.52 -9.11,-6.96 -24.06,-2.04 -24.06,15.38 0,8.46 -0.87,17.69 1.47,25.76 4.7,17.19 23.16,17.23 28,0 0,-0.18 0,-0.36 0.15,-0.5 2.93,8.07 5.28,16.47 6.76,25.44 2.49,14.88 0.43,27.8 8.49,40.09 2.35,3.59 7.05,2.87 9.54,0 2.06,-2.49 3.51,-5.31 4.69,-8.24l0 10.89c-2.85,0.55 -5.83,0.96 -8.92,1.25 -31.96,2.9 -101.07,18.69 -138.96,-0.83 -0.72,-2.11 -1.45,-4.24 -2.13,-6.43 -3.36,-10.24 -6.61,-20.52 -9.97,-30.77 3.07,-7.37 2.78,-16.46 -2.93,-22.8 -1.99,-2.17 -3.93,-3.52 -5.98,-4.88 8.9,-17.7 28.74,-30.26 51.49,-39.69zm2944.22 1156.95c-2.09,-4.43 -5.46,-7.68 -9.42,-9.56 10.72,-32.09 15.1,-68.06 21.13,-101.65 7.77,-43.75 -38,-65.33 -56.03,-39.34 2.74,-20.16 3.84,-41.15 5.18,-61.95 46.95,26.06 91.49,68.81 130.42,105.74 9.66,-28.8 54.11,-42.2 76.46,-9.27 9.65,14.1 20.69,23.04 32.58,30.93 17.4,2.7 34.69,6.34 51.99,10.46 4.7,-30.56 59.28,-41.05 70.67,-2.7 4.25,14.36 10.7,22.59 22.95,31.42l8.59 9.04 6.58 3.17c21.41,11.89 10.12,41.77 -11.88,43.53l-6.35 0.24c-7.06,3.51 -15.63,4.33 -25.18,1.17 -15.97,0.94 -31.14,2 -48.43,2.47 -7.18,9.3 -18.02,15.65 -32.58,15.18 -18.95,-0.6 -36.71,-6.35 -53.64,-14.95 -18,-0.36 -36.37,-1 -54.99,-1.96 -11.73,-19.57 -34.39,-28.33 -51.08,-4.96l-1.02 1.43c-25.17,-2.13 -50.58,-4.89 -75.95,-8.41zm68.24 -541.03c-1.76,15.72 -3.5,31.43 -5.21,47.14 -3.22,29.03 -10.99,56.97 6.03,80.49 4.38,6.08 12.58,6.91 18.03,2.89 12.6,-9.19 17.59,-23.31 20.23,-39.09 -3.04,21.91 -3.87,44.26 -1.65,67.11 -27.53,0.7 -55.06,1.5 -82.6,2.49 -87.28,3.17 -101.73,-127.38 -20.22,-149.61 22.19,-6.05 43.94,-9.61 65.39,-11.43zm86.78 157.39c0.17,-0.94 0.3,-1.9 0.39,-2.87 2.78,-30.65 5.85,-60.58 13.65,-89.6l-4.3 92.26 -9.74 0.21zm68.58 -1.45c1.57,-49.11 3.23,-98.19 4.87,-147.28 33.85,4.15 67.95,8.21 102.95,9.21l-4.71 49.94c-2.64,28.59 -8.38,53.42 11.43,72.45 3.54,3.37 8.96,2.32 12.46,0 21.72,-14 18.36,-45.81 19.37,-72.45l1.98 -50.3c11.02,-0.54 22.14,-1.48 33.39,-2.91 66.23,-8.41 137.22,-8.5 210.07,-5.99 -18.31,36.52 -34.22,74.66 -45.13,116.88 -7.63,29.71 7.34,49.59 25.8,54.4 -3.07,9.05 -5.7,18.19 -7.33,27.57 -0.14,0.76 -0.14,1.52 -0.14,2.24 -2.06,0.7 -3.94,1.92 -5.42,4.06 -2.29,3.56 -4.28,7.29 -5.99,11.17 0.32,-3.01 0.78,-6 1.41,-8.97 -9.18,1.55 -18.45,2.13 -27.74,4 -51.17,8.48 -83.17,-32.57 -75.52,-71.97 -18.82,0.97 -37.65,1.82 -56.47,2.57 3.27,-19.84 6.91,-40.15 6.68,-60.09 -0.14,-24.61 -29.91,-38.01 -39.28,-13.35 -8.52,22.26 -12.03,46.87 -17.05,70.61 -0.32,1.54 -0.65,3.09 -1,4.64 -48.18,1.53 -96.38,2.58 -144.6,3.58zm-51.52 -153.78c-0.1,0.96 -0.18,1.93 -0.22,2.93 -0.15,2.21 -0.15,4.39 -0.29,6.56 -2.26,-4.06 -5.11,-7.57 -8.3,-10.32l8.81 0.83zm-36.75 -2.85c-3.25,2.88 -6.08,7.17 -8.2,13.13 -8.06,22.77 -14.38,45.89 -18.36,69.49 1.05,-8.15 1.77,-16.54 2.96,-24.86l8.11 -58.38c5.17,0.14 10.33,0.35 15.48,0.62zm868.34 1099.7c-2.23,-3.98 -3.26,-7.76 -4.17,-14.01 -2.2,-14.54 -16.44,-21.09 -26.41,-15.84 -9.3,4.88 -13.08,16.03 -11.4,27.15 -61.56,-11.4 -30.54,-56.17 31.89,-90.8 44.11,-0.74 87.89,-14.57 127.47,-41.38 55.27,-5.96 108.61,5.67 138.42,50.26 14.46,21.83 21.72,41.82 27.91,64.91 19.09,-15.01 46.23,-19.4 69.87,-13.04 -35.63,34.25 -76.57,64.79 -109.65,61.97 -6.75,-10.99 -18.17,-16.36 -30.06,-6.55 -4.04,3.09 -8.24,6.25 -12.52,9.48 -4.97,-4 -9.75,-8.05 -14.38,-12.22 -12.89,5.73 -26.17,6.76 -38.72,4.26 -0.15,-0.27 -0.32,-0.53 -0.53,-0.79 -19.94,-24.54 -40.91,-46.29 -62.61,-68.26 -13.92,-14.19 -30.21,12.74 -14.96,24.28l4.36 3.3c-13.29,9.33 -27.59,14.39 -49.76,16.06 -8.92,0.68 -17.15,1.08 -24.76,1.23zm116.13 183.53c4.56,5.87 11.12,9.46 17.98,10.35 25.28,3.25 46.33,-10.78 63.8,-32.32 80.85,-11.5 100.65,126.5 5.15,135.24 -12.37,1.12 -30.32,4.18 -49.87,6.37l5.25 -5.6c18.63,-19.65 33.74,-43.22 49.85,-66.03 14.09,-20.12 -4.52,-56.66 -24.32,-39.4 -20.52,17.84 -41.94,34.48 -60.26,55.91 -14.3,16.77 -28.81,32.37 -29.54,56.35 -28.03,-3.39 -50.87,-14.86 -55.4,-43.67 -6.48,-41.55 34.77,-63.37 77.37,-77.2zm164.71 -77.73c7.92,-1.62 15.67,-3.71 23.22,-6.27 -0.29,0.44 -0.61,0.9 -0.9,1.37 -1.59,2.43 -2.35,4.89 -2.79,7.35l-8.09 5.98c-4.18,-2.49 -7.99,-5.32 -11.44,-8.43zm110.89 -10.97c-2.28,-14.46 -11.26,-26.89 -25.49,-25.99 -2.06,0.15 -3.98,0.26 -6.03,0.4 6.46,-5.03 12.75,-10.43 18.93,-16.54 8.61,-8.54 17.22,-17.81 24.57,-28.19l0.87 4.13c5.01,23.37 0.74,47.67 -12.85,66.18zm-39 171.39c3.54,17.51 5.42,36.81 13.65,51.97 0.59,1.11 1.22,2.09 1.89,2.95 -8.45,-0.44 -17.06,-1.45 -25.86,-2.96 -35.61,-6.09 -60.78,-46.54 -61,-80.09 0,-15.73 3.88,-28.26 11.37,-41.93 13.91,-25.16 43.2,-41.47 71.69,-41.11 8.61,0.1 10.91,0.46 11.72,0.68l1.15 -1.38c34.57,-19.41 67.44,-12.53 90.54,6.66 21.02,-12.18 42.51,-15.95 66.75,-20.21 43.67,-7.46 86.97,6.44 111.32,41.12 8.87,-3.91 17.7,-7.81 26.9,-10.2 11.14,-2.89 22.28,-4.61 33.43,-6.69 6.9,-12.96 13.21,-26.05 20.34,-38.93 26.13,-47.19 78.41,-44.07 109.98,-16.01 -8.06,1.6 -15,8.46 -16.82,21.95 -5.28,38.62 3.07,75.79 23.31,104.95 0.71,2.99 1.45,5.94 2.24,8.87 -2.43,9.81 -4.33,19.8 -7.16,29.7 -2.2,7.77 -5.4,14.94 -9.4,21.44 -0.5,-2.19 -1.4,-4.37 -2.69,-6.44 -5.57,-8.87 -12.61,-15.35 -19.92,-21.29 -1.19,-14.76 -8.81,-28.66 -21.13,-32.17 -4.56,-1.34 -9.68,-1.08 -14.67,0.4 -10.84,-13.62 -19.05,-29.96 -26.7,-46.83 -7.16,-15.99 -24.9,-7.52 -25.94,8.76 -2.06,32.53 10.12,63.07 27.57,86.71 -2.57,16.75 -4.73,33.95 -2.4,50.07 -6.56,-1.06 -13.09,-2.9 -19.49,-5.59 -9.2,-3.8 -15.74,-9.78 -22.29,-15.64 -7.02,0.43 -13.95,0.4 -20.76,-0.14 4.95,-16 3.13,-34 -7.94,-44.88 1.17,-8.25 2.64,-16.46 4.55,-24.74 8.5,-36.81 -33.74,-48.94 -44.72,-15.43 -9.08,27.85 -18.28,66.43 -16.98,101.14 -7.78,4.6 -16.35,7.89 -25.69,9.44 -35.75,6.09 -68.85,12.98 -104.79,3.69 -22.42,-5.75 -38.96,-17.82 -50.55,-32.98 -15.31,6.02 -30.94,9.23 -47.12,10.1 2.24,-2.81 3.82,-6.69 4.2,-11.4 1.45,-18.17 -4.26,-36.62 -7.76,-54.14 -5.02,-24.9 -35.81,-14.37 -30.81,10.61zm-1358.63 -2004.82c23.77,11.19 25.94,-26.71 25.37,-45.74 -1.31,-42.74 5.42,-80.91 22.87,-118.02 10.57,-22.58 -15.83,-40.56 -27.57,-20.12 -26.38,45.5 -41.48,102.68 -35.92,158.95 1.33,12.45 5.71,20.48 15.25,24.93zm482.22 21.91c5.46,-16.75 11.95,-32.9 19.31,-48.65 8.2,-17.62 -3.11,-34.09 -15.43,-36.19 4.26,-9.27 8.96,-18.38 13.22,-27.61 3.72,-7.88 3.15,-16.3 0.1,-23.01 31.59,-0.98 63.19,-1.75 94.8,-2.46 -6.3,9.02 -8.51,21.3 -6.48,33.6 1.16,6.85 3.07,11.48 7.48,15.92 7.48,7.46 18.18,14.48 28.15,9.27 16,-8.33 32.98,-14.08 50.44,-17.56 -0.26,0.44 -0.58,0.8 -1.02,1.31 -2.2,3.55 -4.11,7.28 -6.29,10.89 -2.06,0.48 -4.11,1.02 -5.88,1.82 -9.53,3.94 -18.03,11.5 -25.65,19.26 -16.26,16.31 -28.48,42.03 -28.5,68.65 -40.46,-4.64 -81.51,-8.06 -124.24,-5.25zm232.71 960.47c-5.83,-10.72 -10.24,-22.3 -16.49,-32.82 -10.56,-17.63 -34.3,-12.99 -34.59,11.65 -0.18,5.26 0.44,10.64 1.16,16.11 -2.5,-2.9 -4.99,-5.83 -7.33,-8.72 1.59,-8.51 2.93,-17.19 4.56,-25.66 5.13,-28.3 10.4,-56.6 15.54,-84.9 5.7,-31.42 -32.7,-44.83 -38.88,-13.35 -4.52,23.74 -9.07,47.44 -13.62,71.18 -7.33,-19.24 -12.32,-39.48 -19.65,-59.27 0,-0.18 -0.14,-0.27 -0.29,-0.44 9.69,-12.67 17.45,-28.06 24.35,-44.15 5.72,-5.07 10.7,-12.49 13.77,-22.47 13.93,-45.36 24.57,-92.68 37.63,-138.64 58.56,2.8 117.74,6.2 176.12,7.31 27.42,-9.76 55.16,-14.57 82.94,-11.04 13.16,1.77 25.88,4.58 37.88,8.8 117.02,-7.53 225.94,-33.41 313.54,-103.96 35.88,-28.94 101.98,9.98 69.65,53.62 -56.94,76.82 -120.8,118.56 -190.91,140.21 4.71,18.23 3.77,38.34 -6.23,58.34 -39.04,77.98 -84.22,141.97 -165.37,181.01 -61.27,29.53 -136.07,17.3 -172.55,-44.44 -36.47,16.24 -72.6,29.41 -111.23,41.64zm168.14 -86.59c-5.28,-11.84 -13.19,-21.57 -18.33,-33.88 -5.27,-12.88 -7.04,-27.61 -4.69,-41.82 3.36,-21.04 -22.44,-30.05 -25.8,-8.87 -5.89,36.26 5.57,96.26 41.63,100.06 6.61,0.69 9.97,-9.16 7.19,-15.48zm153.98 -82.52c8.78,6.94 23.89,8.29 32.7,0 8.64,-8.07 15.98,-15.96 19.19,-27.69 2.96,-6.08 4.87,-12.09 4.7,-19.44 -0.15,-7.06 -3.8,-13.67 -9.51,-15.52 0,-0.03 -0.17,-0.03 -0.17,-0.03 -9.83,-31.17 -38.26,-57.72 -61.43,-64.24 -6.33,-1.74 -12.47,-1.41 -18.33,0.51 -12.78,-6.66 -26.26,0.29 -34.03,14.19 -8.78,15.49 -15.54,41.66 -15.83,66.11 -2.78,-4.77 -6.17,-8.97 -10.41,-12.07 -15.71,-11.52 -38.29,-5.03 -47.22,15.49 -14.09,32.31 -19.07,72.99 -5.59,106.86 14.67,36.88 61.6,18.54 61.02,-20.63 -0.15,-12.3 -2.2,-15.77 -1.05,-26.87 0.15,0.43 1.34,-5.19 1.92,-7.69 0.29,-0.51 3.37,-8.39 3.22,-8.18 1.77,-3.65 2.93,-7.6 3.68,-11.65 4.52,11.55 12.18,20.27 24.22,23.43 8.78,2.35 19.48,-1.46 24.02,-12.24 4.41,-10.65 7.04,-19.69 4.98,-31.89 -0.43,-2.31 -1.01,-4.44 -1.59,-6.66 0.26,0.22 0.43,0.37 0.87,0.62 2.64,2.54 2.92,2.36 3.65,3.69 0.29,1.17 5.13,12.56 2.63,6.06 4.85,12.59 8.53,20.26 18.35,27.86zm-347.93 -776.46c5.73,-21.05 14.13,-40.81 25.32,-58.41 12.61,-19.98 6,-44.47 -6.31,-56.74 36.82,-0.76 74.2,8.54 106.76,28.78 23.02,14.28 49.43,-22.3 28.73,-46.48 -6.44,-7.71 -12.9,-14.55 -19.19,-20.98 1.02,-0.44 2.06,-0.65 3.07,-1.3 0.87,-0.53 2.66,-1.79 5.05,-3.5l5.94 -0.21c11.23,-0.41 21.24,1.41 30.01,4.91 -5.02,13.33 -10.96,26.69 -12.28,29.51 -15.97,34.93 15.4,85.09 45.02,66.41 -0.14,1.31 -0.43,2.57 -0.57,3.91 -0.83,5.44 -1.13,10.69 -0.96,15.71 -8.88,13.42 -22.44,24.09 -40.99,29.15 -58.69,15.99 -114.28,14.71 -169.59,9.24zm-174.84 -149.79c-0.9,0 -0.9,1.81 0,1.81 0.88,0 0.88,-1.81 0,-1.81zm781.31 1.46c-5.51,0.09 -11.01,1.43 -16.09,4.01 -1.31,0.13 -2.63,0.21 -3.94,0.24 -7.76,-6.16 -17.39,-8.65 -26.04,-6.67 -3.12,-1.89 -6.06,-4.17 -8.77,-6.91l3.54 8.74c-8.06,3.86 -14.55,12.31 -16.61,26.16 -0.74,4.93 -1.51,9.93 -2.3,14.98 -3.45,1.22 -7.12,2.01 -10.86,2.33 0.63,-12.99 2.36,-26.02 5.54,-39.35 3.8,-15.88 -15.4,-26.45 -21.71,-11.4 -5.13,12.28 -9.98,26.46 -13.65,41.43 -1.96,-1.77 -3.76,-3.79 -5.35,-6.09 -44.69,-65.04 -97.15,-125.98 -150.2,-184.65 -7.17,-0.36 -14.58,-0.47 -21.87,-0.71 8.7,29.65 -38.94,49.39 -52,20.7 -4.11,-9.07 -10.23,-16.82 -15.17,-25.4l-16.35 -4.13c-55.39,-23.28 -108.22,-74.09 -153.48,-117.02 -9.66,28.8 -54.11,42.2 -76.46,9.27 -9.65,-14.1 -20.69,-23.04 -32.58,-30.93 -17.4,-2.7 -34.69,-6.34 -51.99,-10.46 -4.7,30.56 -59.28,41.05 -70.67,2.7 -4.25,-14.36 -10.7,-22.59 -22.95,-31.42l-8.59 -9.04 -6.58 -3.17c-21.41,-11.89 -10.12,-41.77 11.88,-43.53l6.35 -0.24c7.06,-3.51 15.63,-4.33 25.18,-1.17 15.97,-0.94 31.14,-2 48.43,-2.47 7.18,-9.3 18.02,-15.65 32.58,-15.18 18.95,0.6 36.71,6.35 53.64,14.95 188.91,3.74 418.12,38.34 549.65,155.49l9.15 0c89.41,18.1 82.09,120.89 93.52,186.06 4.69,30.87 -12.97,53.79 -35.25,62.87zm325.48 1333.31c1.35,20.54 2.93,41.02 7.52,60.91 2.78,12.26 17.01,12.26 19.79,0 5.78,-25.01 6.91,-51.06 8.71,-76.88 44.34,-18.33 88.67,-32.34 122.54,-43.65 12.17,-4.04 23.11,2.48 28.24,11.94 23.24,-11 46.3,-20.95 68.4,-29.91 -2.39,6.39 -3.23,14.01 -1.74,22.61 1.85,10.97 4.06,22.28 6.69,33.69 -48.96,23.89 -95.44,51.72 -139.4,84.48 44.67,-24.43 94.52,-46.62 144.04,-65.96 1.83,6.72 3.8,13.43 5.95,20.07 -1.92,4.38 -3.07,9.56 -2.78,15.82 0.31,7.64 1.19,15.2 2.2,22.65 -7.33,16.25 -14.38,27.04 -19.22,23.12 0.29,-11.18 0.44,-22.4 0.61,-33.58 0.58,-30.22 -37.39,-30.65 -38,-1.3 -16.84,-7.64 -37.36,-0.94 -41.77,27.03 -4.9,30.07 -4.85,60.91 2.8,90.1 -5.83,4.06 -11.68,8.17 -17.52,12.33 -15.72,-26.39 -49.77,-15.44 -53.02,21.28 -0.52,6.07 -1.85,13.63 -3.86,22.03 -8.57,7.09 -16.91,14.35 -24.96,21.8 -6.14,-4.45 -14.24,-5.27 -23.1,0.11 -20.76,12.75 -36.13,40.55 -42.19,69.93 -9.13,2.73 -20.22,-1.27 -26.09,-8.75 -4.48,-5.74 -8.3,-11.46 -11.48,-17.17 -1.24,-6.31 -3.86,-11.7 -7.32,-15.97 -9.96,-27.75 -5.55,-54.96 9.2,-81.15 -5.04,3.27 -9.65,7.13 -14.88,10.1 -15.51,8.71 -33.99,-4.89 -26.88,-22.41 4.5,-11.46 11.14,-21.97 17.42,-32.63 -21.83,12.78 -44.91,22.02 -70.67,21.94 -12.79,-0.12 -26.1,-10.54 -22.63,-24.81 14.76,-61.54 75.67,-105.42 143.42,-137.76zm126.31 361.05c6.82,-22.61 9.39,-46.4 13.76,-69.83 5.13,4.16 10.73,8.07 17.02,11.44 18.62,10.06 38.12,6.5 49.86,-16.29 9.82,-19.41 17.74,-39.26 24.17,-59.61 0.46,0 1.04,0.22 1.48,0.19 10.7,-0.79 17.74,-9.99 18.61,-23.15 0.75,-12.27 -1.16,-23.85 -3.94,-35.29 18.61,4.12 38.99,-0.32 56.91,-14.37 2.78,-2.2 5.56,-4.7 8.06,-7.24 17.02,16.61 39.45,28.27 59.69,20.45 7.33,-2.86 9.07,-13.5 4.26,-20.45 -3.68,-5.32 -7.65,-10.09 -11.89,-14.76 4.99,-3.08 8.06,-10.17 6.43,-17.2 -2.93,-12.52 -6.72,-24.45 -10.84,-36.22 28.44,24.76 63.8,40.13 89.17,11.47 5.13,-5.9 6.3,-17.52 2.49,-24.98 0,-0.04 0,-0.07 0,-0.11 2.21,-4.15 3.22,-9.51 2.64,-15.26 -1.17,-9.76 -3.4,-19.41 -6.48,-28.94l2.37 -0.95c20.26,31.02 45.85,58.3 71.58,50.87 36.19,-10.45 15.67,-50.71 -1.85,-76.6l0.91 -0.31c19.54,12.54 40.69,19.31 62.94,17.28 5.74,-0.5 11.02,-2.93 15.57,-6.56 17.35,15.49 36.66,26.42 57.73,28.09 -181.85,78.42 -380.56,183.2 -515.31,318.75 -4.7,4.72 -9.9,7.93 -15.33,9.58zm548.83 -336.11c0.26,-0.41 0.52,-0.84 0.76,-1.28l0.99 0.53 -1.75 0.74zm72.07 -29.96c-20.65,-16.35 -42.11,-31.17 -63.22,-46.75 15.62,-3.59 31.33,-7.03 47.16,-10.33 33.7,-7.04 42.3,42.51 16.07,57.07zm-572.97 170.2c-2.57,8.63 -5.29,17.15 -8.48,25.57l-3.83 -5.8c-0.9,-3.07 -1.98,-5.85 -3.2,-8.36 5.07,-3.89 10.25,-7.7 15.51,-11.42zm-82.85 81.05c-1.55,4.4 -3.21,8.83 -4.97,13.21 -0.17,-1.3 -0.41,-2.59 -0.7,-3.83 1.79,-3.17 3.69,-6.3 5.68,-9.38zm1074 495.63c-1.91,1.67 -3.68,3.48 -5.28,5.42 -5.56,-5.64 -10.98,-11.43 -16.73,-16.86 7.49,3.59 14.67,7.42 22.01,11.44zm84.93 -214.42c-3.91,12.06 -4.3,25.8 0.7,38.89 -24.93,10.28 -43.1,54.54 -21.1,88.92 4.99,7.82 10.12,15.46 15.24,23.16 -3.22,5.72 -5.71,12.35 -6.75,19.44 -34.15,-22.97 -70.09,-41.8 -107.78,-56.49 -25.65,-10.02 -41.34,19.51 -37.98,45.16 -97.95,-76.25 -212.34,-119.89 -323.63,-118.08 -8.23,0.15 -7.77,14.44 0,15.45 89.61,11.76 168.78,53.38 241.65,112.94 -2.35,12.38 0,26.46 10.11,35.9 32.41,30.15 63.66,63.59 95.02,97.1 -17.16,-2.32 -33.85,11.14 -43.54,29.97 -11.16,-13.37 -22.3,-26.56 -33,-39.82 -18.64,-22.8 -47.82,14.15 -28.46,35.47 38.23,42.42 76.8,89.67 119.25,127.19l-8.15 3.41c-0.44,3.8 -1.57,7.54 -3.53,11.07 -28.88,-19.35 -57.12,-40.35 -84.7,-62.92 -2.93,-3.48 -6,-6.85 -9.07,-10.39 -5.74,-6.94 -12.03,-10.63 -18.21,-12.09 -8.01,-6.67 -15.84,-9.72 -23.21,-10.05 -3.18,-13.2 -1.62,-28.02 3.23,-41.11 -32.06,-4.3 -59.6,-29.17 -52.92,-66.27 -20.9,4.17 -41.44,5.72 -59.87,1.98 -39.86,-8.09 -55.54,-45.98 -43.39,-79.58 -12.91,5.26 -25.72,10.64 -38.61,15.91 -57.04,23.59 -115.91,-53.52 -76.22,-100.92 -28.9,8.22 -58.03,10.24 -86.73,-1.72 -7.59,-3.13 -13.44,-9.43 -16.85,-16.88 26.74,16.26 55.6,25.57 82.85,16.71 7.19,-2.35 10.98,-11.04 10.26,-19.37 1.3,0.99 2.64,2.11 3.97,3.06 6.72,4.63 14.49,-4.74 10.55,-13.21 -24.93,-53.46 -75.98,-89.42 -118.8,-116.97 -7.33,-4.67 -14.06,-0.76 -17.89,5.71 -8.67,-6.26 -17.74,-11.94 -26.99,-17.32 11.89,-12.49 24.21,-24.83 36.81,-35.65 -6.31,16.83 -0.72,39.33 15.4,44.08 19.65,5.72 39.6,9.8 59.25,11.11 25.94,23.45 53.37,42.09 82.13,51.26 9.8,3.09 17.45,-12.35 10.11,-21.54 -3.83,-4.6 -7.62,-8.98 -11.59,-13.25 31.25,11.97 64.39,20.16 94.3,6.51 20.38,5.51 40.9,5.91 59.98,-3.61 13.48,-6.84 19.33,-26.34 8.64,-40.89 -6.15,-8.26 -13.33,-14.96 -20.95,-20.95 25.94,1.23 49.71,-4.7 68.03,-20.99 27.14,8.12 54.39,9.24 70.65,-10.49 40.35,-2.58 81.13,-2.98 122.84,-1.45 43.82,1.69 51.39,60.2 9.18,69.82 9.28,-0.35 18.52,-1.27 27.85,-1.31 32.19,-0.07 53.41,19.45 61.91,43.1zm-114.8 -162.43c1.62,-9.65 1.34,-19.96 -0.77,-29.62 8.73,3.13 17.57,6.22 26.42,8.99 -1.67,8.46 -7.26,15.82 -17.65,18.52l-8 2.11zm-115.75 -272.11c-2.35,9.86 0.66,21.44 11.29,25.57 9.25,3.55 18.5,7.5 27.6,11.76 -32.42,-8.91 -65.11,-16.61 -97.81,-23.9 22.81,-5.55 42.73,-10.07 58.92,-13.43zm-179.43 45.33c-5.88,24.69 1.28,55.86 25.89,68.15l10.23 5.13 -5.04 2.09c-9.96,-6.98 -19.78,-14.38 -29.51,-22.16 -19.08,-15.27 -37.4,-11.22 -50.61,2 -0.44,-0.61 -0.87,-1.17 -1.45,-1.74 -35.94,-45.48 -91.81,24.28 -56.18,70.06 2.06,2.57 4.11,4.96 6.17,7.46 -28.9,-24.03 -56.18,8.37 -57.77,43.72 -7.04,-7.16 -14.09,-14.22 -20.81,-21.82 -27.46,-30.94 -67.17,17.81 -40.79,50.95 8.67,10.87 17.59,21.21 26.84,31.35 -1.33,1.12 -2.64,2.39 -3.83,3.55 -11.71,-6.45 -23.45,-13.04 -35.05,-20.13 -3.94,-2.39 -7.77,-3.54 -11.42,-3.94 -7.19,-9.41 -14.09,-18.96 -20.98,-28.67 -13.62,-19.43 -35.78,8.79 -22.58,28.19 4.56,6.67 9.39,13.54 14.23,20.48 -7.62,16 -6.61,37.43 10.55,48.39 3.68,2.36 7.48,4.38 11.16,6.66 -4.69,4.52 -9.53,8.96 -14.08,13.35 -3.37,3.08 -6.61,6.3 -9.97,9.52 1.19,-13.34 -5.28,-28.26 -15.39,-34.89 -4.26,-12.42 -9.98,-24.31 -14.82,-36.05 -10.55,-25.94 -21.1,-51.85 -31.65,-77.8 -8.23,-19.98 -32.01,-2.42 -24.06,17.51l31.08 78.24c2.2,5.68 4.41,11.44 6.61,17.16 -1.33,0.4 -2.64,0.87 -3.83,1.3 -8.06,-14.9 -15.54,-30.39 -22.12,-46.57 -14.88,-36.07 -56.72,-6.08 -45.44,29.65 -39.92,24.16 -71.59,50.22 -84.61,77.37 -7.85,16.46 -28.91,21.28 -43.26,9.91 -153.96,-122.07 250.06,-271.02 522.49,-348.41zm48.09 79.34c35.37,18.07 70.95,37.15 106.71,55.47 -7.91,-2 -15.83,-4.2 -23.77,-6.95 -31.87,-11.19 -61.83,-26.87 -90.61,-46.1l7.66 -2.42zm-441.61 184.88c6.58,16.73 13.85,32.83 21.87,48.35 -10.41,12.09 -20.52,25.62 -31.22,38.58l-1.65 1.98 -5.07 -8.14c-17.44,-27.83 -10.81,-58.34 13.71,-78.85l2.35 -1.92zm-264.49 441.02c0.46,-1.84 0.88,-3.7 1.29,-5.58 2.71,0.14 5.4,0.04 8.04,-0.36 -2.98,2.19 -6.1,4.17 -9.33,5.94zm-2010.66 -124.72c-4.41,-8.02 -10.37,-15.18 -15.2,-21.59 -9.09,-12.15 -17.72,-25.37 -24.43,-39.63 32.77,-5.02 65.83,-9.24 99.24,-12.72 31.05,-3.19 42.7,46.18 11.74,54.25 -23.85,6.23 -47.63,12.81 -71.35,19.69zm-785.79 -137.56c0.08,36.5 4.95,94.72 25.17,113.5 -21.89,14.92 -43.68,30.01 -65.4,45.18 -14.81,10.33 -38.73,0.91 -39.21,-18.35 -1.66,-64.63 32.76,-107.19 79.43,-140.33zm-1841.23 2189.28c7.9,-10.92 12.04,-21.69 27.94,-20.5 13.87,1.06 16.78,-21.03 3.32,-24.3 -23.81,-5.82 -58.56,9.37 -58.15,37.52 0.2,15.22 18.82,18.33 26.89,7.28zm180.13 156.57c-7.28,9.12 -9.54,22.14 -2.7,32.57l20.45 31.39c9.33,14.4 30.65,8.43 31.71,-8.6 0.62,-12.48 1.44,-25 2.05,-37.48 1.02,-18.94 -19.02,-32.57 -36.42,-28.11 2.09,-2.74 3.93,-5.77 4.95,-9.2 0.85,-2.42 1.27,-4.79 1.88,-7.16 0,-0.41 0.21,-1.52 0.61,-2.54 0,-0.28 0.21,-0.53 0.21,-0.78 2.3,-2.05 6.43,-5.16 0.41,-0.98 20.91,-14.53 27.13,-43.7 8.06,-62.86 -9.7,-9.61 -24.84,-13.09 -38.3,-10.23 3.93,-13.54 8.51,-26.92 14.07,-39.81 5.81,-12.93 1.27,-26.72 -7.65,-34.58 -0.61,-18.13 -19.03,-34.74 -40.76,-23.85 -11.78,5.85 -22.58,12.85 -33.14,20.33 -0.41,-3.48 -1.84,-6.91 -5.15,-9.81 -12.65,-11.5 -28.57,-16.04 -45.34,-11.66 -11.78,3.11 -13.46,18.66 -6.63,26.06 -4.33,2.86 -8.67,5.86 -13.01,9.29 -18.05,14.49 4.34,40.11 23.16,31.31 -4.13,7.45 -6.42,15.63 -5.81,24.67 1.28,16.46 14.53,29.31 31.07,27.3 -1.24,9.65 0.2,19.72 5.19,30.73 8.68,18.91 33.11,20.46 49.48,12.97 0,0 0,-0.04 0.2,-0.04 0.41,10.27 2.91,20.17 9.13,28.44 6.99,9.41 16.32,15.55 28.56,13.7 1.23,-0.2 2.46,-0.73 3.73,-1.06zm44.48 93.05c-14.89,4.09 -25.86,21.36 -20.7,36.71 5.6,17.02 9.13,35.68 26.52,44.48 11.37,5.65 27.74,3.69 33.93,-8.88 4.99,-9.86 7.28,-19.15 4.13,-30.12 -1.84,-7.2 -4.74,-14.28 -7.03,-21.36 -5.16,-15.26 -20.67,-25.25 -36.83,-20.83zm175.43 -98.24l0.12 -0.54c3.93,-18.54 3.52,-31.75 11.58,-50.7 3.52,-8.35 2.3,-16.25 -1.43,-22.96 5.5,-13.31 7.77,-26.93 6.78,-40.5 33.79,25.23 46.6,81.35 2.15,104.74 -6.39,3.36 -12.79,6.68 -19.2,9.95zm12.71 -136.26c-1.4,-4.2 -3.11,-8.39 -5.14,-12.54 -8.27,-17.19 -26.31,-18.09 -39.93,-10.76 -6.84,-8.46 -17.6,-13.63 -29.83,-11.58 -11.99,1.96 -21.33,9.5 -23.81,21.53 -1.64,9.37 0.86,20.63 9.53,25.65 4.99,2.83 10.96,1.03 14.08,-3.64 1.02,-1.8 1.64,-2.46 2.29,-2.98 1.44,8.35 8.68,13.87 16.13,15.06 5.2,8.79 5.81,16.2 1.88,27.37 -0.62,1.63 -0.62,3.31 -0.82,4.95 0,0.04 0,0.08 -0.2,0.13 -24.87,29.22 -62.32,90.93 -13.67,117.44 0.2,0.17 0.41,0.17 0.82,0.29 -3.93,4.95 -6.22,11.3 -6.22,19.23 0.14,28.47 5.95,55.07 10.27,82.09 -1.6,0.87 -3.26,1.69 -4.99,2.46 -6.96,3.09 -14.02,5.91 -21.04,8.93 0.43,8.94 -2.63,17.75 -11.77,23.04 -91.28,52.64 -201.54,99.32 -308.45,79.81 -65.39,15.94 -133.32,27.68 -187.42,-18.03 -21.96,-18.4 -26.7,-53.88 -7.37,-76.15 6.13,-7.01 12.65,-12.83 19.33,-18.09 -11.18,-9.31 -20.73,-20.98 -26.78,-34.89 -6.37,-14.69 -7.49,-26.21 -3.52,-41.76 3.11,-12.41 8.17,-23.52 14.97,-33 5.85,-1.91 11.65,-3.35 17.75,-5.39 0,0 0.21,0.04 0.21,0 -15.96,9.46 -24.84,33.64 -25.05,50.58 -0.2,30.57 36.42,37.85 53.81,22.1 13.46,19.27 27.95,41.28 49.88,51.89 13.67,6.62 29.63,2.66 37.49,-8.52 -2.5,9.61 -1.43,20.09 3.93,29.75 3.73,6.67 7.04,13.87 11.17,20.22 5.6,8.35 13.05,13.79 20.7,19.84 10.77,8.39 22.55,12.44 36.01,6.8 5.61,-2.42 10.97,-6.96 14.9,-12.53 3.96,11.55 8.51,23.12 17.59,31.06 11.17,9.82 25.09,14.57 39.78,10.52 13.22,-3.6 25.86,-14.89 28.57,-28.6 2.45,-11.22 2.24,-21.04 -1.03,-32.04l-5.39 -17.6c-6.63,-21.85 -30.85,-37.89 -53.61,-30.48 -10.14,3.24 -19.47,10.56 -25.49,19.72 -0.41,-0.74 -0.41,-1.56 -0.78,-2.33 -3.77,-8.64 -8.71,-16.73 -13.26,-24.96 -10.15,-18.33 -36.87,-25.91 -54.67,-14.37 -6.22,3.89 -10.76,9.04 -14.08,14.82 0.41,-1.85 0.82,-3.69 0.82,-5.78 0.2,-24.67 -11.99,-47.02 -23.57,-68.01 -6.83,-12.48 -21.32,-19.72 -35.64,-19.65 4.17,-16.44 0.45,-33.76 -10.72,-47.13 -16.5,-19.83 -37.49,-24.96 -58.95,-22.28 -6.27,-36.66 15.11,-56.78 45.1,-68.52 -5.58,-9.86 -7.31,-22.3 -2.21,-32.53 38.85,-77.83 137.77,-64.66 213.88,-77.75 118.28,-20.17 232.97,-58.91 342.35,-107.8 37.41,-16.79 61.42,38.41 31.69,61.13 -18.24,14.04 -37.02,26.46 -55.81,39.22 24.2,17.38 33.24,55.96 16.33,84.06zm523.31 298.91c5.4,1.31 11,1.84 16.36,1.56 19.07,-0.24 32.9,-11.95 39.33,-26.84 10.15,11.54 23.2,20.34 39.13,25.04 20.5,5.97 38.91,-2.09 51.35,-16.49 14.69,-11.13 22.14,-28.28 17.39,-47.27 -1.88,-7.4 -7.86,-14.11 -14.9,-17.27 -5.4,-6.18 -12.44,-11.17 -19.47,-14.44 -7.82,-11.2 -19.31,-19.79 -32.35,-22.62 93.29,-10.09 183.31,9.49 233.63,84.74 24.39,36.81 36.62,70.53 47.07,109.46 63.54,-49.97 180.01,-30.21 199.57,61.21l4.28 20.36c12,55.99 -7.57,115.11 -58.91,144.96l-9.52 5.42c-5.3,3.09 -10.81,5.7 -16.48,7.82 -2.97,-10.64 -7.44,-21.09 -13.54,-31.31 -19.43,-32.57 -45.75,-60.28 -72.43,-86.88 -8.31,-8.18 -16.99,-11.45 -25.49,-11.41 -9.91,-10.84 -26.69,-16.45 -40.15,-12.04 -15.33,4.94 -25.2,16.59 -27.85,30.76 -12.73,0.87 -26.01,-2.37 -38.91,-11.45 -23.44,-17.05 -44.35,-33.14 -63.72,-50.59 -68.41,30.41 -143.59,-17.62 -165.07,-83.11 -31.04,29.04 -57.39,43.58 -108.51,47.44 -251.13,19.2 -186.03,-91.81 -39.81,-165.67 -37.09,26.56 -74.04,70.61 -41.99,106.7 8.11,8.96 20.34,8.14 30.24,3.93 -3.31,1.76 -6.02,4.99 -7.24,10.11 -1.85,8.71 -6.02,18.78 -2.66,27.46 1.85,4.43 5.77,7.45 10.72,6.1 9.12,-2.37 14.08,-10.43 19.89,-17.27 15.1,-17.68 -7.44,-33.15 -20.5,-26.52 15.55,-6.8 20.3,-21.65 25.7,-36.09 1.85,1.55 3.72,3.02 5.77,4.25 20.91,12.11 42.64,3.11 55.89,-14.61 -1.68,2.25 -0.81,1.6 1.84,-1.23 0.66,-0.41 1.48,-0.98 2.91,-1.88 1.07,-0.53 1.68,-0.9 2.3,-1.23 2.09,-0.69 4.13,-1.26 6.43,-1.68 0,-0.08 0,-0.08 0.21,-0.08 2.24,-0.12 4.33,-0.08 6.62,0 0.62,0.17 1.64,0.37 2.87,0.66zm66.3 -114.01c-13.35,6.78 -24.2,19.26 -28.41,33.6 -26.48,-14.97 -58.56,-11.29 -85.69,2.71 -1.51,-0.84 -3.13,-1.49 -4.87,-1.87 37.52,-15.16 78.16,-27.35 118.97,-34.44zm-1144.97 869.49l-18.82 22.67c-4.14,5.11 2.04,11.38 7.24,7.25 7.65,-6.22 15.3,-12.4 22.75,-18.58 8.11,-6.55 -4.74,-19.36 -11.17,-11.33zm220.64 -7.41c-6.79,-12.76 -20.26,-22.34 -38.26,-19.11 -21.52,3.85 -49.07,13.67 -73.7,28.32 -4.75,-4.67 -11.82,-6.43 -19.27,-1.27 -16.74,11.67 -33.52,23.32 -50.29,34.99 -15.1,10.39 -31.67,17.84 -35.8,36.87 -1.68,7.57 3.31,12.97 10.35,13.83 14.08,1.63 24.84,-5.44 35.39,-13.42l-0.01 0.03c-16.87,19.87 -38.78,34.7 -65.24,39.09 -47.85,8.15 -92.14,17.38 -140.25,4.94 -2.01,-0.52 -3.99,-1.07 -5.93,-1.66 6.8,-4.65 12.57,-8.83 16.85,-12 7.24,-5.53 11.38,-12.69 12.65,-20.02 2.87,-1.71 5.56,-3.23 8.67,-5.15 21.52,-14.11 37.28,-35.51 62.73,-41.74 26.07,-6.38 21.11,-48.49 -6.22,-47.18 -31.26,1.43 -61.46,-5.07 -91.91,5.15 -32.69,10.97 -59.83,35.72 -66.05,69.73 -0.38,3.09 -0.41,6.25 -0.24,9.41 -38.21,14.59 -77.92,16.25 -121.06,8.83 -47.67,-8.15 -81.34,-62.28 -81.64,-107.19 0,-21.05 5.19,-37.82 15.21,-56.11 18.62,-33.67 57.82,-55.5 95.94,-55.02 11.52,0.14 14.6,0.61 15.68,0.91l1.54 -1.85c46.27,-25.98 90.26,-16.76 121.17,8.92 28.13,-16.3 56.89,-21.35 89.33,-27.05 58.45,-9.98 116.4,8.62 148.99,55.03 11.87,-5.22 23.69,-10.45 36,-13.66 14.91,-3.86 29.81,-6.17 44.74,-8.95 9.23,-17.35 17.68,-34.87 27.22,-52.11 56.11,-101.33 202.34,-29.36 179.59,75.8 -4.15,18.15 -9.09,36.28 -13.38,54.44 -0.94,9.67 -3.08,18.76 -6.78,27.82 -3.53,13.83 -6.14,27.97 -10.14,41.96 -13.66,48.2 -55.83,79.22 -101.86,82.35 1.16,-1.03 2.33,-2.03 3.51,-2.98 13.05,-10.72 5.97,-28.77 -6.43,-35.76 3.72,-2 7.24,-4.22 11.17,-6.02 19.48,-9.17 24.64,-37.33 14.28,-54.75 -4.13,-7.33 -10.15,-12.36 -16.57,-15.43zm-481.74 -275.91l-0.96 0.89c-4.74,4.54 -3.93,11.74 0,16.44l0.17 0.19c-3.75,30.72 -19.94,58.91 -48.62,75.59l-7.56 4.3c-26.89,15.69 -60.73,15.69 -87.78,0l-7.37 -4.3c-14.41,-8.4 -25.63,-19.78 -33.71,-32.92 6.41,0.64 12.94,-0.75 18.65,-4.84 12.19,-8.72 21.94,-18.87 32.29,-29.55 10.56,-10.72 22.13,-18.87 34.37,-27.42 11.37,-7.94 4.95,-29.22 -10.15,-23.93 -13.46,4.74 -26.27,9.9 -40.39,12.15 -14.08,2.25 -28.36,3.24 -41.79,7.74 -10.81,3.64 -18.97,11.63 -22.47,21.4 -9.22,0.06 -18.74,-2.67 -28,-9.2 -18.6,-13.53 -35.2,-26.3 -50.57,-40.15 -54.29,24.13 -113.95,-13.98 -131,-65.95 -24.63,23.05 -45.54,34.59 -86.11,37.65 -324.59,24.81 16.5,-224.48 217.24,-174.1 -45.43,39.98 -90.48,94.09 -81.67,152.97 3.52,24.14 36.01,33.34 54.63,22.26 26.93,-16.17 38.3,-44.4 54.47,-69.98 8.88,-13.87 17.8,-27.86 27.08,-41.57 4.59,20.79 15.76,40.47 38.1,44.93 7.7,1.56 15.71,0.83 22.72,-2.03 5.63,13.79 9.98,27.8 14,42.78 42.66,-33.55 115.37,-27.49 146.16,19.1 -3.63,-1.06 -7.75,-1.19 -12.28,-0.06 -12.44,3.11 -25.08,6.18 -37.69,9.29 -7.04,1.76 -15.1,8.71 -16.17,16.28 -0.81,6.35 -1.43,12.36 2.3,17.97 6.02,8.75 15.71,13.3 26.27,10.68l37.69 -9.33c6.35,-1.57 10.74,-4.93 13.4,-9.15l2.09 9.95c1.56,7.28 2.44,14.62 2.66,21.92zm1627.52 -0.18c4.99,-38.75 -52.37,-51.68 -72.47,-24.96 -2.25,-3.63 -4.74,-7.07 -7.04,-10.1 -14.04,-19.07 -36.83,-28.44 -57.94,-18.58 -5.42,-4.07 -11.1,-7.73 -17.01,-11.04 30.39,-8.28 58.58,-14.69 78.21,-20.83 93.94,-29.46 147.43,54.52 136.3,127.9 -9.24,-29.19 -54.13,-16.02 -47.4,14.49 3.89,17.35 8.13,34.57 12.82,51.66 -1.69,1.52 -3.44,2.98 -5.25,4.41 -5.02,-11.85 -10.76,-23.49 -14.82,-36.31 -7.85,-25.32 -8.52,-50.45 -5.4,-76.65zm-286.36 -8c7.39,9.59 18.79,16.73 32.57,21.59 23,8.06 48.86,13.42 70.59,-0.49 0.81,-0.45 1.27,-0.98 1.88,-1.48 11.58,5.81 23.16,11.26 35.19,16.25 16.53,25.74 36.63,79.02 68.5,73.04 3.05,13.77 7.42,26.96 13.43,38.82 -81.48,10.52 -242.61,42.26 -259.12,-62.87 -5.66,-36.3 10.3,-63.67 36.96,-84.86zm450.94 100.4c4.74,-40.83 -59.42,-40.51 -64.17,0 -0.2,1.7 -0.38,3.42 -0.54,5.16 -8.85,-19.16 -13.83,-39.69 -13.95,-58.89 0,-26.52 6.55,-47.66 19.17,-70.7 8.56,-15.48 20.59,-28.98 34.73,-39.85l2.62 3.92c16.74,24.92 52.95,20.46 62.69,-8.19 2.74,-8.22 4.8,-16.41 6.16,-24.54 4.9,-0.51 9.81,-0.75 14.7,-0.69 14.52,0.18 18.4,0.77 19.76,1.14l1.94 -2.33c58.3,-32.74 113.74,-21.13 152.69,11.24 117.4,88.75 142.14,214.78 28.48,308.69 -30.09,24.85 -65.7,-30.06 -85.24,-55.63 -29.78,11.7 -60.27,17.13 -92.05,17.43l5.52 -0.79c13.88,-1.96 13.88,-26.1 0,-28.07 -6.62,-0.94 -13.25,-1.84 -20.09,-2.78 -6.43,-0.94 -11.37,0.78 -14.89,3.6 0,-0.9 -0.21,-1.84 -0.41,-2.75 -1.68,-11.25 -15.76,-17.51 -25.86,-14.73 -11.42,3.11 -17.39,14.85 -14.74,25.94 1.04,4.42 2.1,8.83 3.17,13.25 -3.29,-0.73 -6.52,-1.63 -9.7,-2.7 -10.15,-25.28 -13.26,-50.15 -10,-77.75zm-547.13 -5066.52c-4.52,18.72 16.15,34.02 33.13,27.87 213.62,-77.48 430.53,-147.84 660.09,-154.76 27.22,-0.89 29.65,-44.69 2.36,-48.02 -152.07,-18.34 -297.17,-5.41 -446.83,26.52 -100.75,21.48 -221.63,35.63 -248.75,148.39zm-112.11 -117.04c-7.15,14.31 -6.12,35.63 4.45,48.14 3.32,4.01 6.7,8 10.09,12 11.57,13.77 27.72,16.25 43.26,7.24 192.11,-111.67 456.93,-160.8 673.63,-186.94 32.27,-3.88 38.57,-57.95 2.83,-59.96 -145.99,-8.26 -286.73,-3.37 -429.76,30.96 -97.79,23.4 -255.17,48.98 -304.5,148.56zm-146.8 -183c24.85,6.74 49.54,3.79 73.94,-2.9 -8.82,8.68 -17.96,17.11 -25.27,27.01 -11.4,15.08 2.93,33 20.17,28.6 5.82,-1.51 11.28,-4.05 16.99,-5.91 -29.33,29.96 -39.75,67.07 -20.31,112.87 5.31,12.45 22.71,20.84 34.52,10.68 67.44,-58.28 171.01,-89.65 254.32,-119.66 109.65,-39.58 222.24,-71.77 339.23,-75.3 24.57,-0.75 26.93,-40.77 2.11,-43.44 -62.1,-6.81 -273.52,-5.14 -436.66,34.56 67.4,-26.81 136.82,-44.15 208.81,-54.26 32.52,-4.43 28.93,-54.58 -4.22,-51.21 -34.42,3.44 -72.72,8.3 -112.09,15.47 -2.51,-10.46 -11.39,-19.59 -24.19,-18.84 -100.76,6.11 -287.88,11.36 -342.78,112.5 -7.05,12.88 3.11,26.39 15.43,29.81zm4079.94 2103.05c0.48,19.26 24.4,28.68 39.21,18.35 186.29,-130.13 377.6,-254.23 597.55,-320.33 26.06,-7.91 17.07,-50.83 -10.15,-46.99 -151.64,21.64 -288.44,71.69 -424.74,141.26 -91.76,46.82 -204.85,91.78 -201.87,207.71zm-4531.51 2129.06c61.15,-46.59 -5.71,-142.99 -68.89,-98.04 -11.29,8.03 -22.76,14.64 -34.15,21.75 -1,-26.95 -18.55,-50.15 -51.01,-59.59 -38.94,-11.25 -93.12,9.24 -128.66,26.43 -37.89,18.16 -74.81,39.48 -94.54,77.72 -10.74,20.98 -1.61,49.86 17.77,63.33 -34.24,14.7 -66.52,37.95 -49.46,77.17 7.26,16.57 22.66,34.96 42.7,35.89 13.21,0.64 26.45,-0.1 39.52,-0.92l-4.79 5.05c-7.72,10.4 -8.86,28.66 3.46,36.72 65.03,42.28 142.93,10.24 211.97,-12.55 100.17,-32.96 197.32,-74.83 291.67,-121.49 39.18,-19.41 19.03,-82.75 -23.41,-65.57 -82.22,33.41 -165.93,60.09 -251.92,80.91 35.2,-20.56 68.91,-43.23 99.72,-66.8z"/>
  </g>
  <rect class="colico_3_none" width="8000" height="8000"/>
 </g>
</svg>
