<?xml version="1.0" encoding="UTF-8"?>
<!DOCTYPE svg PUBLIC "-//W3C//DTD SVG 1.1//EN" "http://www.w3.org/Graphics/SVG/1.1/DTD/svg11.dtd">
<!-- Creator: CorelDRAW 2017 -->
<svg xmlns="http://www.w3.org/2000/svg" xml:space="preserve" width="8in" height="8in" version="1.1" style="shape-rendering:geometricPrecision; text-rendering:geometricPrecision; image-rendering:optimizeQuality; fill-rule:evenodd; clip-rule:evenodd"
viewBox="0 0 8000 8000"
 xmlns:xlink="http://www.w3.org/1999/xlink">
 <defs>
  <style type="text/css">
   <![CDATA[
    .darktone_1 {fill:none}
    .darktone_2 {fill:#373435;fill-rule:nonzero;fill-opacity:0.501961}
   ]]>
  </style>
 </defs>
 <g id="Layer_x0020_1">
  <metadata id="CorelCorpID_0Corel-Layer"/>
  <g id="_1778948140608">
   <rect class="darktone_1" x="0" y="0" width="8000" height="8000"/>
   <path class="darktone_2" d="M5279.87 4254.93c-19.26,1.09 -37.37,5.28 -54.85,13.54 -7.96,3.76 -15.34,10.61 -23.2,13.68l-0.33 0.21c-2.59,-2.57 -5.3,-5.07 -8.26,-7.24 -16.7,-15.79 -39.91,-19.83 -62.2,-17 -17.27,-2.05 -31.97,3.41 -44.96,17.33 -28.69,30.74 8.41,84.26 46.38,60.13 20.85,-13.26 30.32,10.82 50.18,14.89 22.45,4.58 33.45,-8.44 48.31,-21.79 20.1,-18.11 90.23,-21.78 70.37,-61.44 -3.68,-7.32 -13.29,-12.75 -21.43,-12.3zm-2982.55 1423.4c3.7,2.2 8.08,3.57 12.66,4.2 41.2,46.31 117.5,-15.5 138.56,-55.48 7.52,-14.24 7.38,-30.22 1.93,-43.87 39.45,-17.66 81.36,-28.96 122.18,-43.26 -17.87,20.18 -36,40.22 -55.2,59.39 -42.98,42.85 -90.94,86.43 -117.5,141.94 -7.8,16.34 -7.13,35.5 6.3,48.87 3.88,3.88 7.98,6.02 12.42,8.02 1.5,10.53 3.99,22.24 7.56,34.03 -6.79,9.66 -13.26,19.56 -19.03,30.02 -13.29,24.13 17.7,47.82 37.78,29.17 2.69,-2.48 5.6,-4.65 8.36,-7.03 10.81,12.63 24.27,21.97 41.17,24.52 8.61,1.3 17.14,0.07 24.49,-3.25 8.33,9.8 21.37,15.63 37.92,11.75 31.58,-7.42 63.63,-12.04 94.83,-20.78 24.72,-6.93 54.77,-10.88 68.56,-34.87 4.51,-7.83 2.55,-16.41 -2.94,-22.98 -11.57,-13.72 -29.8,-17.7 -48.27,-18.37 4.16,-4.58 8.36,-9.06 12.2,-14.2 5.59,-7.45 0.07,-21.69 -9.34,-23.02 -18.43,-2.52 -35.85,-2.44 -52.89,0.32 5.35,-3.43 10.77,-6.75 15.99,-10.39 10.18,-7.13 7.28,-24.76 -6.65,-24.55 -22.04,0.24 -42.57,3.91 -61.98,10.11 4.79,-18.57 -13.92,-40.82 -34.07,-27.42 -7.41,4.93 -14.59,10.07 -21.69,15.43l0.04 -4.62c30.57,-33.06 59.74,-67.93 89.23,-101.2 40.72,-45.89 81.01,-91.61 101.93,-149.92 11.44,-31.94 -33.93,-56.32 -56.14,-32.71 -16.02,17.07 -31.44,34.56 -46.8,52.08 -57.33,5.6 -104.31,34.21 -151.15,67.02 -10.25,-19.03 -31.38,-31.56 -55.96,-24.07 -25.01,7.56 -44.88,22.67 -64.05,39.87 -10.31,0.35 -19.34,3.81 -27.59,13.33 -6.23,7.17 -11.69,14.76 -15.56,23.47 -7.8,17.42 -5.04,38.06 12.73,48.44zm-880.33 1071.34c14.76,9.52 26.44,-5.74 29.18,-18.89 3.71,-17.77 7.56,-32.26 20.35,-45.86 20.67,-21.93 -14.17,-55.34 -32.63,-32.64l-0.11 0.21c1.57,-12.56 -17.87,-21.72 -24.41,-8.33 -9.24,18.75 -17.77,43.55 -7.03,63.1l4.41 3.04c-2.48,14.38 -2.52,31.13 10.25,39.35zm-91.72 -144.01c3.57,7.24 6.79,14.91 10.95,21.86 3.78,6.33 9.83,11.12 15.08,16.27 3.91,3.78 11.65,1.22 11.26,-4.65 -0.49,-8.11 -0.32,-16.16 -3.08,-23.82 -2.86,-8.08 -6.71,-15.92 -10.03,-23.82 -6.86,-16.23 -32.36,-2.28 -24.18,14.16zm1451.81 -333.35c13.54,44.57 27.56,88.85 51.17,129.15 2.84,4.83 10.49,1.65 9.02,-3.81 -12.1,-44.07 -29.42,-86.36 -42.74,-130.16 -3.36,-11.09 -20.85,-6.37 -17.46,4.83zm114.98 481.07c10.6,-39.31 17.31,-78.21 21.72,-109.9 2.83,-20.36 -27.46,-30.01 -31.8,-8.78 -11.51,56.59 -28.72,111.02 -54.75,162.72 -2.2,4.33 -4.58,8.67 -6.96,13.01 1.85,-13.72 3.54,-27.46 5.04,-41.38 13.5,-55.72 19.03,-113.02 15.32,-171.12 0.42,7.21 1.19,14.38 2.72,21.44 2.52,11.79 20.01,13.64 25.65,3.35 33.4,-61.17 13.07,-152.19 -2.63,-216.52 -4.65,-19.03 -31.24,-10.43 -28.61,7.87 5.42,37.82 6.96,75.31 5.49,113.37 -0.87,22.35 -3.77,45.23 -2.8,67.65 -1.64,-23.4 -4.62,-46.91 -9.44,-70.56 -3.04,-14.97 -25.54,-10.98 -25.88,3.5 -1.19,47.36 -5.11,93.15 -12.63,137.46 -22.84,-3.91 -48.55,6.02 -54.92,32.6 -11.82,49.53 -23.19,99.13 -35.12,148.63 -2.7,2.17 -5.35,4.37 -8.01,6.58 2.83,-38.65 -52.08,-68.53 -79.93,-35.61 -7.03,8.36 -14.41,15.88 -21.97,23.05 -6.47,-2.62 -13.6,-3.46 -20.95,-1.02 -27.04,9.02 -50.09,21.55 -69.15,39.35 -4.13,-6.22 -8.61,-12.24 -13.19,-18.05l-0.14 -1.36c13.11,-13.05 18.46,-34.21 18.64,-51.91 0.32,-31.03 -7.31,-67.3 -22.39,-94.48 -9.72,-17.56 -28.4,-21.69 -44.39,-16.58 -2.38,-11.75 -4.79,-23.47 -7.17,-35.19 -7.7,-37.81 -47.36,-41.17 -71.92,-23.33 -9.8,-24.24 -54.56,-25.85 -61.31,4.48 -4.69,20.92 -7.35,45.3 -6.19,69.4 -3.36,-9.7 -3.46,-19.66 -0.63,-29.74 8.29,-29.2 -26.65,-44.5 -45.75,-29.94 -0.03,-14.59 0.35,-29.1 0.28,-42.85 -0.14,-24.13 -40.09,-31.52 -43.72,-5.94 -4.41,31.38 -9.37,63.13 -10.88,94.79 -1.12,23.37 5.56,43.38 24.69,57.44 9.87,7.28 22.11,4.13 30.47,-3.43 10.11,16.09 25.64,29.52 45.65,23.47 4.47,-1.4 8.81,-4.37 11.72,-8.29 6.01,13.85 14.38,26.3 26.09,36.13 13.89,11.68 30.05,10.74 41.34,2.56l3.81 4.06c3.36,5.31 6.51,11.02 9.69,16.55l-0.42 0.52c-7.31,12.14 -3.57,25.54 4.62,35.96 11.82,14.94 21.33,32.11 32.28,47.75 11.06,15.81 18.37,33.19 33.58,44.42 -7.8,31.76 -7.1,64.81 -24.56,96.33 -16.3,29.56 -38.58,49.81 -64.15,66.28 -9.41,-16.65 -27.81,-26.76 -53.2,-18.46 -40.65,13.29 -67.44,31.9 -97.04,62.4 -27.7,28.51 -18.02,85.45 24.81,93.95 23.78,4.76 44.98,5.53 64.74,2.8 1.99,7.87 6.47,15.07 14.34,19.34 59.54,32.43 138.14,17.84 201.2,1.08 60.58,-16.06 126.17,-44.98 151.04,-105.53 3.08,-7.49 1.47,-15.5 -2.55,-22.28 35.75,-34.84 63.1,-73.67 84.33,-115.43 39.57,-14.48 66.67,-56.5 88.74,-91.02 31.8,-49.74 55.9,-103.68 74.19,-159.69 5.91,-18.15 -11.23,-32.21 -27.07,-31.94zm-1232.39 428.15c-12.24,5.56 -25.32,7.28 -38.72,6.19 -3.54,-30.33 -25.96,-57.96 -65.17,-58.56 -19.06,-3.78 -37.88,-8.54 -56.56,-13.82 -8.5,-9.41 -15.88,-18.75 -21.51,-27.43 -11.58,-17.66 -34.7,-23.85 -54.04,-19.38 0.14,-28.86 -4.44,-61.24 -13.61,-90.14 17.63,-3.5 28.33,-26.09 34.91,-42.61 1.61,-4.02 3,-8.11 4.51,-12.13 25.19,-8.65 31.06,-29.98 40.82,-53.24 7.45,-17.77 13.99,-35.54 21.51,-53.07 2.83,5.59 9.09,10.15 15.29,9.65 29.8,-2.17 42.32,-17.21 59.36,-40.3 11.57,-15.71 20.57,-33.82 29.56,-51.59 1.89,-1.99 3.6,-4.27 4.72,-7.07 1.09,-2.69 2.07,-5.31 3.05,-7.97l3.07 -5.95c1.65,-2.97 2.52,-6.01 2.8,-8.99 3.63,-8.47 8.01,-16.51 15.07,-23.68 6.3,-6.3 8.19,-13.57 7.28,-20.47 3.68,-1.15 6.86,-2.94 9.8,-5.04 -8.08,20.78 -13.78,45.51 -0.67,61.81 3.64,4.51 11.2,5.91 16.52,4.37 9.48,-2.84 17.83,-13.12 11.65,-22.78l-0.77 -0.56 -0.74 -1.65 0.81 -2.48c0.11,-4.06 1.65,-8.57 2.66,-12.45 2.48,-9.55 5.94,-18.61 10.35,-27.43 7.45,-14.79 -6.41,-28.05 -18.61,-27.21 1.3,-2.8 2.59,-5.64 3.81,-8.43l2.17 -5.66c8.43,-14.49 14.87,-30.37 25.75,-43.59 9.09,-11.02 4.86,-22.74 -3.54,-28.33 1.75,-25.07 -36.59,-34.84 -42.99,-8.22 -5.5,22.73 -12.52,44.98 -22.43,66.18 -5.46,11.72 -13.08,24.17 -14.79,37.11 -7.98,-2.34 -16.72,-0.73 -23.54,7.52 -11.4,13.85 -21.48,30.71 -25.6,48.45 -6.27,6.15 -12.59,12.27 -18.96,18.46 10.63,-18.96 21.79,-37.36 34.63,-55.02 14.09,-19.45 -16.02,-40.61 -32.35,-24.98 -12.67,12.07 -26.52,25.93 -39.6,40.93 -5.53,-11.33 -20.36,-17.88 -30.75,-5.7 -17.24,20.15 -32.35,41.7 -43.94,65.58 -8.78,18.12 -18.96,37.71 -16.26,57.69 -2.67,2.31 -5.22,5 -7.49,8.54 -18.3,28.96 -37,60.76 -46.77,93.81 -1.85,6.16 -3.88,13.68 -5.49,21.66 -2.07,-5.85 -4.62,-11.17 -7.87,-15.54 22,-26.65 -2.24,-70.41 -36.09,-70.55 -33.06,2.72 -65.13,-2.35 -96.27,-15.11 -1.82,-3.43 -3.53,-6.82 -5.49,-10.25 -3.46,-6.15 -8.05,-10.56 -13.08,-13.74 -12.77,-35.16 -69.47,-31.87 -85.74,-1.23 -13.22,-11.19 -35.47,-10.7 -49.25,-0.42 -4.2,-18.5 -6.65,-37.89 -5.56,-59.5 1.02,-20.35 -19.55,-30.22 -36.03,-26.27 -3.78,-24.41 -6.09,-49.01 -7.9,-73.81 -1.99,-27.42 -47.47,-38.37 -51.77,-7.03 -2.45,17.8 -5.21,37.14 -7.31,57.09 -8.82,-33.72 -14.63,-67.9 -17.67,-102.74 -2.06,-23.89 -38.26,-24.76 -37.88,0 1.02,68 2.8,172.94 57.58,221.7l0.8 0.42c7.69,33.41 23.57,63.31 52.82,85.03 8.99,23.3 21.86,44.68 40.75,61.6 9.02,8.08 21.69,10.11 33.13,7.63 1.23,2.31 2.27,4.65 3.61,6.89 17.67,30.33 50.62,63.28 87.73,61.11l2.44 3.11c-1.82,6.23 -3.22,12.31 -4.09,18.11 -25.92,169.96 175.91,247.87 322.89,233.77 60.69,38.86 134.46,51.2 209.11,17.21 74.26,-33.76 9.79,-143.17 -64.05,-109.56zm452.95 -82.17c-34.21,-11.33 -65.44,-28.44 -99.27,-40.47 -8.85,-3.15 -16.87,-5.49 -24.45,-7.28 -3.64,-16.69 -16.83,-30.29 -40.76,-29.63 -37.28,1.05 -65.79,9.37 -95.91,31.86 -32.43,24.14 -68.32,87.03 -113.06,87 -5.94,0 -9.44,9.48 -3.29,12.1 14.38,6.12 28.13,9.76 41.98,11.76l0.46 0.17c15.25,5.81 31.58,4.23 48.2,-0.87 2.91,-0.46 5.63,-0.56 8.61,-1.15 39.53,-7.77 90.15,-55.31 121.52,-52.79 19.44,1.57 42.92,28.33 58.73,37.78 19.59,11.71 41.17,24.34 63.56,30.08 38.75,9.94 63.48,6.57 86.54,-25.89 5.42,-7.62 2.97,-19.69 -3.32,-25.96 -16.3,-16.16 -27.78,-19.52 -49.53,-26.72zm-379.81 -762.86c-2.2,4.2 -3.57,9.24 -3.32,15.43 0.98,30.29 -2.62,60.02 -2.9,90.21 -0.17,20.61 2.31,52.58 29.74,53.66l2.94 -0.42c-13.3,36.34 -20.64,78.53 0.56,112.07 13.47,21.34 54.35,21.44 59.11,-7.73 5.49,-33.51 -2.41,-65.72 6.82,-99 6.19,-22.39 -14.8,-40.78 -34.14,-40.99 3.32,-14.45 4.23,-31.48 3.81,-48.13 3.81,-3.54 7.09,-7.74 8.7,-13.05 5.22,-17.14 6.54,-34.8 5.14,-52.26 2.42,4.96 5.22,9.76 8.85,14.2 5.07,6.19 15.81,3.88 19.42,-2.52 4.55,-8.11 6.82,-16.82 7.56,-25.88 5.8,18.54 14.37,35.5 28.23,47.15 8.53,7.2 22.25,2.69 22.49,-9.34 0.39,-20.22 -7.56,-37.53 -14.37,-56.1 -7.2,-19.63 -12.73,-39.67 -17.14,-60.07 -3.85,-17.8 -34.67,-14.23 -32.36,4.37 0.81,6.78 1.72,14.17 2.66,21.69 -14.97,-34.14 -42.21,-66.74 -62.5,-85.98 -2.31,-2.17 -4.76,-3.43 -7.24,-4.16 -3.26,-6.83 -6.54,-13.65 -9.8,-20.54 -6.22,-13.26 -27.18,-1.54 -19.9,11.65 3.25,5.94 6.47,11.96 9.72,17.94 -3.04,5.81 -3.07,13.19 2.73,19.59 9.58,10.56 18.08,21.89 25.46,33.93 -19.1,-22.49 -58.34,-7.31 -50.48,24.48 4.93,19.76 7.77,39.74 10.21,59.78zm-333.63 -20.53c6.3,-1.68 10.67,-6.79 12.73,-12.7 4.17,2.52 8.82,4.37 14.55,4.37 17.91,0 27.98,-13.85 30.02,-29.98 0.48,-2.59 0.63,-5.21 0.48,-7.83 0,-39.25 -60.96,-39.32 -60.96,0l0.39 6.12 -0.77 -0.56 -0.49 -0.67c0,-3.99 -0.56,-8.01 -1.5,-11.89l-0.31 -1.16 0.2 -0.73c4.62,-16.73 -5.73,-34.91 -22.45,-39.49 -16.79,-4.62 -34.91,5.63 -39.53,22.42 -1.64,5.91 -2.48,12.17 -2.44,18.36 -2.17,-3.32 -3.81,-6.75 -4.72,-11.82 -3.81,-21.65 -0.2,-42.64 -8.67,-63.63 -5.7,-14.17 -18.65,-23.75 -34.46,-19.59 -4.48,1.19 -8.54,3.85 -11.96,7.2 7.27,-39.42 -39.25,-60.37 -63.25,-43.16 -4.09,-20.47 -26.3,-34.98 -45.05,-30.82 -0.2,-21.76 1.54,-43.37 5.42,-64.85 5.56,-30.4 -41.62,-42.74 -46.1,-12.7 -5.35,36.28 -16.19,96.33 7.94,129.49 -3.57,16.09 -4.65,32.6 -2.1,49.74 4.13,27.91 17.87,62.68 50.55,65.02 7.59,0.52 13.32,-1.5 17.74,-4.9l1.11 4.17c9.8,29.77 35.12,61.28 70.31,50.2 8.92,-2.76 15.04,-8.57 18.4,-15.63 15.53,18.4 40.05,25.95 58.52,3.77l2.87 -5.21 3.6 2.72c13.99,11.48 31.8,18.61 49.95,13.72zm616.75 41.87c16.09,7.94 32.85,-9.34 38.17,-22.81 8.25,-20.95 15.5,-41.42 25.99,-61.43 18.5,-35.37 -37.22,-66.04 -52.64,-30.78 -8.96,20.39 -16.96,40.99 -22.94,62.44 -4.79,17.24 -8.57,42.71 11.43,52.57zm19.63 139.56l2.24 3.57c-1.43,6.37 -2.55,12.87 -3.01,19.63 -1.43,21.65 6.26,48.8 29.56,55.69 22.46,6.68 39.78,-10.39 43.41,-31.27 1.15,-6.54 1.15,-11.79 1.5,-18.15l0.39 -4.17c-0.17,2.41 0,2.27 0.49,-0.31l1.4 -5.78c1.47,-3.46 3.6,-6.71 5.59,-9.86 5.04,-7.91 6.12,-17.28 4.41,-26.2 7.94,-16.72 11.48,-36.09 15.36,-53.94 6.05,-27.95 14.23,-54.99 24.55,-81.67 16.27,-42.3 -46.52,-62.58 -69.29,-29.24 -34.35,50.33 -83.7,119.7 -56.59,181.71zm-117.39 -100.39c2.98,4.65 11.65,6.02 14.24,0 6.02,-14.06 4.47,-26.31 3.5,-41.35 -1.15,-16.9 -2.27,-33.76 -3.39,-50.65 -1.22,-17.97 -29.59,-17.91 -28.02,0 1.47,16.9 2.97,33.76 4.44,50.65 1.33,14.83 1.13,28.47 9.24,41.35zm546.24 -132.4c-4.48,5.25 -8.99,10.5 -13.54,15.74 -11.86,13.81 6.15,31.87 19.97,19.97 5.24,-4.51 10.49,-9.06 15.74,-13.57 15.32,-13.19 -8.92,-37.46 -22.17,-22.14zm243.74 -22.94l-2.94 0.42 -1.11 0.56 -1.12 0c-4.37,0.1 -7.13,0.14 -11.12,1.95 0.67,-3.63 0.14,-6.75 -0.95,-9.55 2.17,-5.35 3.92,-10.77 5.5,-16.23 5.18,-7.31 9.34,-15.53 12.63,-24.35 -1.68,13.01 -2.69,26.17 -2.06,39.52 0.14,2.76 0.56,5.28 1.19,7.66zm-90.95 16.93c-1.47,-7.7 -6.86,-14 -13.71,-17.7 8.56,-10.77 15.53,-22.94 22.35,-35.15 -1.05,9.76 -1.26,19.48 0.6,29.1l1.43 3.08c-3.11,7.1 -6.61,14.06 -10.67,20.67zm94.34 -263.29c9.06,25.11 16.33,53.83 22.18,80.03 2.48,10.98 3.18,21.61 4.58,31.83 -2.21,2.07 -4.23,4.54 -5.7,7.73 -5.7,12.07 -10.25,24.56 -14.2,37.19 0.31,-3.36 0.59,-6.75 0.77,-10.11l0.87 -0.8c23.76,-36.38 4.94,-91.06 -10.81,-127.19 -8.12,-18.61 -40.65,-5.18 -33.13,13.96 3.88,9.9 7.17,19.9 9.72,30.11 -5.53,2.24 -10.29,6.44 -12.07,12.91 -8.36,30.19 -26.52,62.33 -38.24,94.76 -8.81,-17.14 -36.2,-24.8 -47.92,-2.97 -15.04,28.09 -34.35,56.18 -33.41,89.33 0.1,4.02 2.03,7.24 4.58,9.86 -5.73,6.82 -11.89,13.26 -18.96,18.58 -12.13,9.2 -25.54,13.81 -35.75,25.5 -13.99,15.99 -4.9,42.26 17.67,42.54 20.22,0.31 39.39,-10.88 55.69,-25.99 1.22,3.25 3.43,6.33 7.91,8.92 23.26,13.5 46.06,-20.92 57.01,-36.45 7.28,-10.24 13.33,-21.33 18.33,-32.81 4.76,9.97 13.78,17.81 25.68,19.59 17.98,2.73 32.35,-8.36 32.25,-24.03 19.59,15.7 56.7,7.56 54.01,-23.79 -2.91,-34.04 0.49,-64.85 12.7,-96.89 2.63,-6.93 1.92,-13.36 -0.77,-18.85 1.93,-15.68 -2.69,-31.94 -8.43,-48.38 7.31,-13.92 14.59,-27.78 21.86,-41.7 12.48,-23.82 -24.98,-44.6 -35.58,-20.78l-8.15 18.3c-9.06,-12.59 -20.08,-23.68 -34.46,-35.19 -3.39,-2.8 -10.11,-0.39 -8.25,4.79zm-1519.35 97.28c18.19,-7.06 28.26,-21.72 38.16,-37.88 10.7,-17.46 21.41,-34.95 32.11,-52.44 17.77,-29.03 -29.03,-56.35 -45.55,-26.62 -9.96,17.91 -19.9,35.85 -29.83,53.76 -9.3,16.79 -16.93,32.74 -14.17,52.22 1.12,7.83 12.14,13.72 19.28,10.95zm-86.89 -174.3c28.82,7.21 59.15,-8.98 85.24,-19.94 32.01,-13.4 62.69,-29.38 95.67,-40.37 5.7,-1.89 9.76,-5.56 12.67,-9.9 19.41,0.98 38.65,1.96 57.09,4.33 26.16,3.39 39.46,-20.74 37.11,-42.92 7.87,1.68 14.83,0.74 20.6,-2.27l4.31 2.84c5.87,3.04 11.85,2.69 17.13,-0.25l0.81 2.8c9.87,31.8 52.3,30.01 62.86,0 9.37,-26.62 10.88,-53.17 6.79,-78.88 9.06,-4.23 17.18,-7.7 22.56,-16.93 7.1,-12.07 7,-27.08 4.86,-40.33 -2.98,-18.89 -10.18,-37.08 -20.22,-53.34 -16.37,-26.51 -49.07,-20.88 -64.67,-2.8 -18.89,-21.2 -40.72,-39.7 -63.52,-54.19 -11.83,-7.52 -27.08,2.03 -29.49,14.06l-5.77 1.43c-13.85,-17.39 -30.54,-32.89 -47.92,-47.15 -36.31,-29.84 -74.93,-58.94 -120.57,-71.47 -19.06,-5.21 -35.92,20.5 -20.04,34.45 33.4,29.39 71.84,51.63 104.8,81.82 28.65,26.23 53.87,54.88 87.45,74.16 0.91,2.62 1.64,5.28 2.48,7.9 -45.26,-39.14 -105.04,-76.61 -156.08,-33.09 -8.53,7.27 -3,20.32 6.19,23.43 14,4.72 27.53,9.38 40.76,14.28 -4.59,0.42 -9.35,0.74 -13.54,1.5 -12.77,2.42 -17.49,12.25 -16.79,22.29 -11.12,20.04 -5.84,47.25 15.84,63 2.73,1.99 5.63,3.53 8.46,5.31 -30.29,1.65 -59.46,9.9 -85.1,29.94 -10,7.8 -5.45,24.04 3.85,29.77 5.25,3.25 10.8,5.77 16.33,8.28 -2.62,1.02 -5.38,1.65 -7.97,2.76 -29.17,12.7 -68.38,32.67 -74.78,67.13 -1.79,9.48 2.48,19.76 12.63,22.31zm3262.72 -3233.09c-10.4,-8.65 -25.44,5.94 -15.07,15.07 38.87,34.24 76.09,70.13 111.09,108.29 34.87,38 65.03,80.73 104.03,114.67 6.18,5.39 14.64,-1.26 11.15,-8.61 -13.3,-27.87 -31.15,-54.25 -51.69,-79.27 3.56,4.19 9.28,-1.84 6,-6.08 -19.68,-25.13 -39.39,-50.3 -59.07,-75.46 -4.43,-5.7 -12.72,2.38 -8.04,8.02l56.44 67.92c-45.81,-54.28 -103.88,-102.05 -154.84,-144.53zm2560.13 1084.78c-4.16,-34.72 -35.11,-55.69 -68.23,-39.15 -18.77,9.4 -29.44,26.13 -50.12,32.09 -28.05,8.08 -57.95,-2.68 -84.89,-10.45 -14.71,-4.25 -26.58,1.26 -33.73,10.67 -46.32,-25.01 -85.47,-57.89 -120.03,-97.37 -24.56,-28.03 -70.59,8.22 -51.33,39.6 5.61,9.1 11.97,18.69 18.74,28.45 -57.62,-51.26 -105.87,-113.44 -158.22,-177.39 -4.52,-5.54 -9.64,-8.02 -14.65,-8.47 -19.47,-33.6 -37.49,-67.87 -54.52,-101.93 -6.15,-12.32 -24.26,-1.53 -18.39,10.73 16.46,34.39 34.45,67.9 53.35,100.84 -6.24,7.78 -9.17,18.96 -4.85,28.93 5.04,11.63 10.64,23.57 16.7,35.65 -35.98,-39.54 -68.44,-82.78 -96.11,-128.17 -5.6,-9.22 -20.04,-6.42 -23.41,1.81 -9.52,-18.74 -18.02,-37.85 -24.71,-57.38l-1.87 0.78c8.77,20.13 17.15,39.93 25.8,59.43 -0.15,1.63 0.06,3.34 0.85,5.21 16.03,38.58 36.46,78.2 61.09,115.52 -60.15,-56.87 -121.3,-112.68 -131.09,-201.29 -1.45,-12.96 -13.74,-18.38 -23.51,-16.33 -22.06,-52.62 -40.02,-106.77 -50.87,-162.74 -4.04,-20.94 -34.45,-11.67 -31.46,8.65 13.71,94.93 41.44,181.46 91.95,256.95 31.88,75.22 94.99,138.03 169.73,170.19 5.45,2.32 11.06,0.52 14.34,-3.07 36.19,43.13 78.99,79.98 128.11,103.8 51.65,50 114.19,83.75 185.01,78.44 42.46,31.31 89.84,51.62 138.12,47.1 20.74,-1.93 40.05,-21.09 42.26,-41.11l4.09 -0.12c43.34,-4.37 97.7,-40.98 91.86,-89.87zm-935.09 -768.97c0.15,-28.6 -42.07,-28 -44.03,0 -4.01,57.17 -4.16,118.19 2.5,178.5 -38.82,-120.96 -76.76,-240.25 -82.73,-373.73 -1.02,-22.87 -34.26,-22.81 -35.5,0 -1.63,29.87 -2.35,60.63 -2.14,91.8 -14.71,-79.17 -24.62,-158.49 -27.33,-239.86 -0.09,-3.41 -1.35,-5.91 -3.02,-7.89 -1.41,-37.79 -2.92,-75.58 -4.4,-113.4 -0.48,-12.18 -14.65,-15.34 -21.67,-9.38 -7.44,-35.47 -16.28,-70.85 -25.86,-105.87 -4.13,-23.87 -11.18,-47.49 -20.1,-70.55 -10.09,-34.66 -20.25,-68.71 -29.56,-101.81 -3.49,-12.47 -17,-12.87 -24.32,-6.2 -14.5,-24.56 -29.78,-48.7 -46.17,-72 -7.84,-11.15 -30.71,-32.94 -40.2,-49.12l-1.3 -5.34c-2.29,-3.5 -4.07,-6.45 -6.93,-9.31 -9.7,-9.76 -28.51,-5.75 -31.68,8.35 -10.52,46.62 49.49,102.91 71.03,140.8 28.27,49.76 50.48,104.81 78.3,155.62 14.23,91.46 27.91,184.17 53.91,270.86 -11.5,-21.39 -47.85,-21.21 -56.49,6.31 -43.28,137.79 -51.02,288.17 -63.98,431.26 -12.75,140.95 2.5,278.92 50.69,411.8 -0.43,2.35 -1.08,4.52 -1.36,6.96 -18.74,160.9 -40.89,321.2 -58.56,482.22 -56.3,21.46 -99.27,55.81 -126.28,112.17 -13.17,27.57 -12.9,54.81 -3.25,77.24 -4.73,33.03 6.57,66.63 42.73,82.85 148.85,66.63 306.43,-8.68 364.54,-159.33 9.56,-24.8 16.54,-50.75 21.67,-77.39 5.7,-7.71 10.16,-17.24 12.69,-29.08 20.83,-96.77 28.42,-193.21 15.85,-291.67 -7.02,-54.94 -12.35,-139.87 -56.3,-182.84 -1.3,-11.15 -2.53,-22.18 -3.56,-33.04 -2.23,-33.6 -21.91,-55.42 -46.26,-65.64 -3.02,-11.24 -6.45,-22.66 -10.1,-34.14 -8.11,-141.52 -22.78,-287.09 -64.94,-419.63 -5.21,-16.39 -18.65,-28.26 -34.26,-34.5 6.87,-89.74 21.31,-179.19 20.67,-269.13 -0.01,-1.29 -0.09,-2.53 -0.23,-3.74 4.44,14.18 9.23,28.18 14.43,41.98 0.87,2.38 2.29,4.1 3.92,5.48 -6.91,174.86 8.5,379.09 115.63,513.63 3.01,3.8 7.9,4.25 12.21,2.74 21.79,45.48 49.63,87.64 85.02,124.62 6.96,7.26 17.48,3.13 20.73,-4.61 20.34,39.42 46.71,75.46 80.77,106 10.61,9.49 29.38,0.45 24.92,-14.53 -47.76,-159.97 -120.57,-295.46 -119.7,-467.45zm-3923.31 -941.48c-37.34,10.97 -66.87,38.72 -103.7,51.93 -28.18,10.09 -16.04,55.39 12.45,45.18 41.56,-14.86 91.25,-36.28 107.83,-80.5 3.67,-9.76 -7.35,-19.29 -16.57,-16.6zm2796.59 1407.09c-23.15,-10.16 -46.23,-20.28 -67.72,-32.51 -2.83,-2.57 -5.64,-5.09 -8.41,-7.69 24.47,12.23 50.15,20.43 76.79,23.27l1.41 1c-2.44,4.76 -3.31,10.45 -2.08,15.94zm-2376.48 -201.5c18.83,28.24 35.05,56.48 60.58,79.08 5.22,4.61 16.24,0.24 13.05,-7.59 -25.5,-62.57 -79.5,-117.51 -119.95,-171.54 -6.42,-8.56 -20.91,-0.69 -14.74,8.62 20.38,30.47 40.72,60.96 61.06,91.43zm23.33 40.27c-11.06,-26.01 -32.31,-40.3 -51.87,-60.61 -25.52,-26.52 -49.43,-54.37 -70.76,-84.41 -37.94,-53.37 -68.74,-111.48 -99.43,-169.22 -11.24,-21.15 -42.13,-2.53 -31.88,18.66 28,57.86 56.72,115.72 91.53,169.82 -22.72,-20.43 -46.2,-40.14 -66.21,-63.68 -34.11,-40.14 -60.81,-85.07 -81.79,-133.33 -3.65,-8.43 -17.84,-2.83 -15.7,5.7 -24.08,-42.28 -47.98,-84.68 -69.8,-128.29 -6.96,-13.89 -27.91,-1.66 -20.85,12.2 40.53,79.59 83.81,157.74 140.35,227.2 1.62,2.02 3.74,1.93 5.57,1.12 35.32,56.35 81.43,107.1 138.09,130.46 2.17,0.91 4.1,0.76 5.69,-0.03 29.62,39.81 69.2,86.61 117.87,90.44 8.98,0.73 12.06,-9.37 9.19,-16.03zm219.67 85.98c-7.56,41.26 -19.92,83.09 -33.91,125.22 2.05,-82.87 -7.08,-168.1 -13.59,-246.25 -0.12,-1.78 -2.86,-1.84 -2.8,0 1.42,64.37 -3.98,129.04 -8.92,193.54 -2.8,-27.93 -8.23,-55.99 -12.09,-83.51 -10.61,-75.31 -24.32,-149.96 -40.26,-224.31 -6.72,-31.28 -54.49,-18.02 -47.95,13.23 13.53,64.22 25.25,128.78 34.81,193.66 -19.89,-62.54 -49.58,-122.54 -75.26,-182.45 -8.2,-19.2 -36.58,-2.65 -28.21,16.48 32.37,73.74 60.3,151.89 106.24,218.49l4.04 2.42c4.43,48.64 7.66,98.88 29.93,141.49 3.77,7.15 12.36,7.23 17.81,3.01 0.85,18.11 1.45,36.23 1.78,54.4 -6.44,18.8 -12.74,37.64 -18.6,56.5 -4.47,-81.08 -19.76,-161.8 -46.85,-240.28 -7.41,-21.55 -24.38,-31.61 -41.71,-32.58 -14.8,-31.8 -37.7,-50.6 -73.35,-47.16 -20.02,1.92 -25.77,24.68 -9.89,36.49 6.48,4.79 12.99,9.61 19.46,14.46 32.61,52.53 11.72,248.78 7.39,286.52 -4.97,43.61 -12.05,82.87 -7.47,121.69 -14.04,36.59 -28.15,73.41 -41.62,110.54 -22.96,54.52 -42.04,110.78 -53.4,168.56 -21.61,41.47 -48.31,78.87 -83.09,107.2 -58.04,47.28 -140.77,65.13 -92.97,157.8 9.94,19.32 38.03,31.08 58.86,23.96 79.68,-27.3 144.9,-68.59 195.68,-128.41 17.09,4.64 36.89,1.11 49.72,-11.48 54.67,-53.5 83.54,-120.94 65.76,-195.05 14.44,-41.98 26.14,-84.69 34.98,-127.84 4.43,0.11 8.98,-1.96 12.19,-6.81 19.41,-29.26 33.63,-61.26 44.48,-95.02l1.96 -3.82c0.7,-2.93 1.21,-5.85 1.84,-8.77 38.15,-130.44 27.24,-284.92 47.77,-411.13l-2.74 -0.79zm-26.91 816.08c-18.14,-1.29 -33.24,0.33 -49.27,9.31 -4.28,2.41 -23.96,14.76 -32.34,23.72 -11.69,-2.69 -22.42,-0.73 -33.06,5.81 -2.78,1.72 -4.91,3.92 -7.11,6.09 -34.69,8.56 -69.43,17.69 -95.59,43.28 -11.09,10.85 -5.15,28.72 8.77,33.24 34.87,11.24 71.13,3.31 106.47,-4.7 13.23,4.7 28.87,3.98 43.34,-3.13 35.8,-17.61 70.34,-49.4 77.3,-89.36 2.2,-12.84 -5.21,-23.3 -18.5,-24.26zm567.75 -1939.4c-40.5,-71.57 -101.69,-129.26 -156.56,-189.93 -14.22,-15.73 -36.49,7.23 -23.09,23.11 27.54,32.52 54.07,66.39 82.4,98.46 44.15,53.55 82.69,111.11 121.33,168.7 3.07,4.61 9.64,0.67 7.35,-4.31 -14.07,-30.41 -30.59,-59.19 -48.52,-87.07l4.46 3.65c7.75,5.91 16.82,-5.21 12.63,-12.62zm1488.82 1143.85c-23.81,-15.55 -46.32,-32.16 -67.44,-50.3 -4.65,-6.51 -9.35,-12.96 -13.96,-19.49l0.97 -1.06c24.86,27.46 52.74,51.95 82.73,70.94l-2.3 -0.09zm484.81 267.58c8.77,-0.33 17.36,-1.08 25.5,-2.95 8.61,-1.96 7.54,-13.93 0,-16.39 -21.4,-7.15 -45.11,-7.75 -67.87,-10.49 -12.41,-7.2 -24.92,-13.3 -37.04,-17.81l-0.24 -0.06 -0.3 -0.42c-9.43,-8.53 -20.01,-15.4 -31.1,-21.52 29.2,5.24 58.65,6.93 87.91,3.59 10.25,-1.18 18.44,-17.12 6.09,-22.48 -39.33,-17.12 -78.75,-31.16 -117.83,-45.17 3.62,-0.12 7.23,-0.21 10.82,-0.52 15.46,-1.36 23.11,-21.76 8.28,-30.44 -55.06,-32.28 -121.12,-43.13 -178.74,-71.16 -6.02,-2.92 -11.75,-6.32 -17.69,-9.4 0.33,-4.31 -0.87,-8.74 -4.22,-11.97 -38.78,-37.43 -94.2,-58.49 -138.96,-88.54l-4.46 -3.13c-47.04,-51.02 -96.37,-99.12 -138.81,-154.33 -10.55,-13.69 -29.93,0.87 -18.98,14.64 8.13,10.19 16.43,20.35 24.86,30.38 -3.62,-3.58 -7.36,-6.99 -10.88,-10.64 -2.47,-2.56 -5.09,-3.76 -7.71,-4.46 -6.72,-11.28 -13.3,-22.61 -19.23,-34.41 -5.72,-11.39 -16.81,-11.76 -25.01,-6.55 -13.59,-54.57 -69.43,-98.91 -107.14,-137.12 -13.02,-17.81 -26.1,-35.44 -38.42,-53.1 -10.88,-15.64 -36.77,-0.76 -25.77,15.04 8.11,11.63 16.07,23.57 23.99,35.59 -11.66,8.41 -17.96,23.48 -7.56,37.64 10.91,14.92 21.61,30.05 32.64,44.91 -23.72,-4.67 -47.89,-3.68 -71.81,-7.24 -2.77,-0.42 -5.49,-1.2 -8.23,-1.72 -1.09,-1.87 -2.65,-3.53 -5.07,-4.46 -73.35,-28.54 -167.11,-17.21 -244.83,-19.65 -22.22,-0.69 -27.49,25.53 -15.92,38.43 -7.26,0.2 -14.52,0.27 -21.82,0.08 -62.08,-1.59 -121.33,-16.96 -181.78,-29.69 -17.33,-3.67 -29.63,20.59 -12.57,29.84 6.33,3.41 12.93,6.75 19.8,9.94 -16.28,4.79 -32.55,10.19 -48.61,14.1 -12.5,-2.68 -25.13,-5.99 -38,-10 -14.43,-4.55 -21.55,11.02 -15.97,21.48l-3.22 0.67c-20.5,-13.2 -42.31,-20.43 -65.13,-23.27 -2.32,-1 -4.7,-1.81 -7.02,-2.83 -5.39,-2.35 -10.46,-1.26 -14.4,1.36 -8.02,-0.15 -16.09,-0.03 -24.32,0.6 -30.29,-17.6 -58.71,-38.15 -85.04,-61.9 -13.54,-12.18 -33.4,7.35 -20.1,20.1 17.32,16.57 36.82,33.15 57.77,48.73 -3.41,0.69 -6.84,1.39 -10.28,2.14 -27.04,-15.64 -52.35,-36.11 -75.77,-62.99l-4.94 -3.74c-113.89,-143.39 -187.9,-301.7 -254.32,-476.59 -3.71,-9.8 -11.15,-14.91 -19.02,-16.27 -8.83,-30.38 -18.77,-60.34 -30.56,-89.93 15.25,22.84 31.71,44.57 50.3,63.98 6,6.3 16.3,-0.24 14.22,-8.26 -24.69,-96.95 -98.19,-184.04 -154.72,-264.93 -9.31,-13.26 -30.83,-1.33 -22.09,12.93 36.34,59.07 67.29,126.4 105.9,186.37 -5.18,-1.96 -11.93,2.86 -8.68,9.92 13.54,29.38 25.59,59.46 36.07,90.05 -8.41,1.78 -15.7,7.65 -17.93,16.72 -10.43,-10.57 -32.4,-2.2 -27.42,15.31 9.49,33.37 17.51,71.33 27.09,109.1l-0.03 0.19c-2.98,0.39 -5.85,1.83 -8.2,4.76 -39.96,49.67 -55.93,114.52 -73.35,174.95 -17.54,60.7 -35.98,125.85 -22.72,188.72 2.32,10.94 13.8,12.66 21.87,8.13 -19.29,67.93 -31.1,145.33 12.99,151.62l3.74 -0.06c-9.22,37.55 -16.91,76.04 -10.01,113.8 -15.28,39.21 -34.72,79.8 -36.01,121.21 -53.38,96.92 -104.07,195.17 -137,299.05 -1.66,5.24 -0.28,9.83 2.59,13.29 -50.48,80.97 -110.09,166.75 -130.19,259.5 -0.52,2.44 -0.54,4.74 -0.28,6.88 -47.89,83.57 -100.59,176.6 -103.97,271.32 -0.49,13.92 16.15,18.32 25.46,10.52 86.41,-72.3 131.4,-194.93 182.75,-292.99 54.03,-103.28 100.77,-206.8 142.13,-315.65 1.39,-3.65 -0.21,-7 -2.9,-9.17 34.72,-74.68 66.12,-150.69 98.34,-226.87 1.17,-2.81 0.91,-5.43 -0.15,-7.6 30.8,-80.41 54.37,-163.7 75.02,-243.47 2.17,-8.32 -5.79,-14.86 -12.84,-14.29 4.55,-24.62 8.74,-49.33 12.24,-74.26 3.38,-24.26 -22.3,-39.03 -38.75,-30.65 3.37,-23.32 6.32,-46.71 7.35,-70.43 0.33,-6.93 -10.04,-9.82 -13.23,-3.58 -5.39,10.67 -10.16,21.48 -14.59,32.43 4.07,-25.49 9.17,-50.87 16.43,-76.37 5.76,-20.22 -12,-31.19 -27.45,-27.73 5.66,-21.72 10.49,-43.63 15.79,-65 6.99,-28.09 15.61,-56.72 22.45,-85.56 4.34,21.16 8.86,42.43 13.89,63.71 -8.83,2.02 -16.13,8.65 -15.28,20.28 4.85,67.15 21.13,135.23 58.44,192.12 1.44,2.2 2.98,4.46 4.49,6.72 1.96,23.84 6.3,47.59 12.18,70.67 -24.32,25.7 -5.64,73.5 27.09,85.11 75.98,26.88 144.36,8.37 219.73,-8.81 10.19,9.74 24.8,15.13 38.48,16.34 85.56,7.56 172.87,7.71 257.76,-7.53 45.78,-8.26 102.68,-16.58 136.85,-47.71 7.84,-1.57 15.55,-3.41 23.11,-5.88 7.63,-2.47 10.22,-10.94 7.35,-17.09 36.46,-3.04 71.75,-11.96 103.76,-29.08l0.27 -0.21c39.75,-3.71 77.15,-13.98 108.17,-32.88 3.73,-2.29 5.66,-5.36 6.42,-8.62 26.25,-0.06 52.14,-1.81 76.58,-6.84 37.73,9.01 78.9,13.8 113.56,2.59 2.56,-0.81 3.94,-3.07 4.52,-5.48 4.43,5.79 9.13,11.37 13.71,17 -4.43,7.69 -5,17.75 2.26,26.37 30.08,35.56 59.37,76.01 92.22,111.96 -9.56,6.78 -15.46,19.56 -8.26,31.16 51.86,83.21 149.45,200.68 258.15,247.42 33.3,27.34 68.98,51.75 107.14,72.67 56.9,31.13 136.61,70.7 203.03,52.58 22.48,28.39 46.29,55.61 67.69,84.84 20.89,28.5 35.9,61.63 62.75,85.19l5.13 3.13c-31.02,43.22 -51.39,87.37 -70.07,138.03 -15.55,42.19 -39.3,90.68 -19.77,133.86 0.36,2.38 0.6,4.76 1.11,7.15 1.78,7.96 10.46,9.68 16.57,6.27 3.07,0.45 6.15,0.51 8.89,-0.45 49.31,-17.06 65.34,-77.03 76.82,-123.77 4.34,-17.57 7.26,-34.78 9.01,-51.78 1.3,-0.72 2.44,-1.78 3.25,-3.62 18.45,-41.5 24.6,-81.73 21.28,-123.98 0.49,-2.2 1.09,-4.43 1.09,-6.93 0.39,-54.13 -35.47,-106.44 -80.52,-144.33zm-989.67 -1999.83c42.58,10.4 84.8,19.77 126.46,2.77 7.11,-2.89 9.04,-14.31 0,-16.43 -41.08,-9.67 -81.7,-4.01 -123.62,-7.26 -12.03,-0.96 -14.38,18.08 -2.83,20.91zm-1247.04 101.08c60.85,13.11 123.74,27.72 186.67,31.37 1.39,9.34 7.83,18.02 19.95,18.5 71.94,2.93 147.46,14.22 217.8,-3.68 9.25,-2.35 8.26,-14.98 0,-17.78 -13.53,-4.65 -27.39,-8.05 -41.44,-10.7 4.1,-1.21 8.17,-2.59 12.2,-4.37 8.83,-3.89 8.83,-19.41 0,-23.26 -8.77,-3.89 -17.75,-6.15 -26.79,-7.57 30.86,-3.97 61.24,-9.67 89.65,-19.8 9.85,-3.5 8.14,-17.39 -2.47,-18.11 -24.17,-1.69 -48.82,-0.21 -73.56,2.71 11.48,-3.29 22.99,-6.09 34.51,-8.83 125.22,-10.49 250.22,-7.81 375.72,-11.91 5.63,-0.2 5.27,-7.83 0,-8.52 -81.73,-10.97 -163.92,-11 -245.95,-5.82l4.91 -1c5.79,-1.21 3.98,-9.37 -1.3,-9.73 -74.2,-5.67 -149.36,17.84 -217.41,45.69 -3.82,1.6 -5.3,5.15 -5.06,8.5 -28.24,5.1 -56.27,10.85 -83.51,15.16 -6.27,1 -8.83,6.67 -8.44,12.24 -11.87,0.27 -23.75,0.57 -35.62,0.87 -9.64,0.24 -14.98,6.57 -16.48,13.78 -58.38,-10.07 -118.17,-14.59 -176.19,-23.75 -16.81,-2.66 -24.47,22.3 -7.2,26.01zm877.5 -90.44c23.33,-3.22 46.63,-4.79 69.86,-5.51 1,5.87 5.21,11.03 13.26,11 75.31,-0.24 150.29,1.48 223.8,-16.63 5.81,-1.45 6.36,-11.27 0,-12.33 -4.37,-0.73 -8.71,-1.15 -13.05,-1.75 -1.18,-2.2 -3.2,-4.13 -6.24,-5.27 -91.43,-35.11 -202.64,-18.5 -296.7,-2.35 -21.85,3.77 -12.2,35.83 9.07,32.85zm-1799.23 266.77c-21.37,12.75 -36.65,32.4 -53.52,50.52 -13.89,14.94 9.8,37.52 22.12,22.09 8.35,-10.46 16.69,-20.91 25.04,-31.37 3.7,-4.67 8.26,-9.22 11.33,-14.28 3.22,-5.3 5.15,-11.6 7.54,-17.3 2.95,-7.15 -6.63,-13.14 -12.5,-9.65zm-16.78 185.07c-53.44,10.55 -104.01,33.48 -157.14,46.5 -10.07,2.47 -7.69,15.52 0.6,17.66 -7.3,5.52 -14.22,11.63 -20.65,17.72 -11.18,10.55 -11.72,23.63 -6.54,34.33 -24.04,1.3 -48.22,1.17 -72.9,-3.77 -28.48,-5.73 -40.24,35.02 -12.09,43.81 28.69,8.95 62.69,16.94 96.47,18.96 -14.2,5 -28.48,9.8 -43.43,13.11 -40.11,-35.59 -106.02,-43.57 -149.63,-11.54 -12.57,-3.74 -24.93,-7.95 -36.98,-12.54 -9.62,-3.65 -18.75,-0.69 -25.56,5.31 -24.77,-9.49 -50.96,-13.41 -77.24,-18.24l-4.13 -0.87c-1.69,-6.57 -6.81,-12.02 -15.07,-11.36l-4.74 1c-2.35,-1.81 -4.7,-3.44 -6.99,-4.76l-3.89 -5.03 0.03 -0.09c7,-18.57 -18.11,-28.93 -30.31,-17.93l1.63 -2.05c7.66,-3.65 15.1,-10.7 20.65,-16.91 12.5,-14.13 19.38,-30.62 21.85,-49.24 1.93,-14.92 -24.2,-18.59 -26.52,-3.59 -1.6,10.58 -5.37,20.19 -11.57,28.57 -3.68,-3.46 -8.53,-5.7 -14.23,-5.7 -9.37,0 -16.57,6 -19.56,13.93l-3.93 2.3c-12.02,8.83 -23.26,17.87 -28.96,32.12 -5.88,14.74 -3.53,30.78 6.87,42.8l1.99 1.9c-0.03,5.52 1.63,11.15 5.76,15.58 14.58,15.7 35.22,28.42 58.37,37.34 21.67,10.13 46.35,18.17 68.26,13.99 21.46,0.75 42.31,-2.2 60.39,-9.29 89.21,73.33 292.63,91.92 352.33,-32.24 4.01,-8.32 2.44,-16.79 -2.38,-22.54 10.91,-5.61 21.09,-12.69 30.11,-21.91 6.75,-6.93 4.7,-22 -6.3,-23.75 -19.49,-3.04 -38.78,-3.1 -58.07,-2.22 3.2,-2.5 6.42,-4.91 9.64,-7.63 9.44,-7.89 19.23,-19.38 26.34,-29.44 5.51,-7.84 1.84,-19.5 -5.79,-24.68 31.4,-8.13 62.02,-19.05 88.72,-36.59 6.87,-4.49 2.47,-14.52 -5.45,-12.98zm-691.8 -376.35c-3.7,4.97 -7.38,9.91 -11.03,14.89 -2.54,3.34 2.44,8.29 5.82,5.82 4.97,-3.68 9.94,-7.32 14.95,-10.97 9.22,-6.81 -2.83,-19.02 -9.74,-9.73zm592.76 -388.29c3.5,3.8 7.03,7.6 10.67,11.37 5.78,15.28 12.44,30.26 19.49,45.96 10.46,23.45 24.56,47.94 52.26,50.66 4.91,0.45 9.82,-3.07 12.27,-7.06 5.66,-9.28 6.93,-19.2 5.69,-29.11 4.07,1.24 8.11,2.53 12.33,3.38 7.96,1.59 17.96,0.57 23.57,-6.24 2.14,-2.63 3.7,-5.13 5,-7.99l3.8 -3.01c33.27,-36.83 -7.14,-84.42 -39.15,-105.3 -37.25,-24.35 -82.88,-23.14 -122.24,-4.97 -29.32,13.56 -10.28,51.53 16.3,52.31zm-490.6 440.46c14.77,-8.74 28.03,-21.58 39.54,-35.9 -0.21,6.09 1.93,11.78 8.85,16.21 14.5,9.25 29.2,2.14 41.29,-8.4 2.32,3.7 5.96,6.66 10.76,6.39 19.89,-1.15 29.42,-15.49 39.09,-31.13l32.39 -52.26c10.64,-17.18 -4.49,-32.94 -20.1,-33.24 0.19,-6.12 0.33,-12.23 0.55,-18.35 0.69,-25.59 -40.51,-25.65 -39.78,0 0.09,3.86 0.24,7.69 0.33,11.51 -3.85,1.81 -7.14,4.82 -9.25,9.61 -8.86,20.31 -20.43,38.84 -35.23,55.18 12.99,-26.46 -10,-50.41 -32.82,-50.6l4.55 -4.22c18.69,-14.77 -1.78,-43.33 -22.09,-37.97 -19.26,5.09 -40.6,7.71 -58.2,17.54 -10.91,6.09 -20.31,13.74 -28.48,22.54l-2.37 1.93c-8.69,8.47 -18.42,21.25 -19.56,34.15 -6.9,28.3 19.53,51.86 45.87,45.75 -20.43,28.75 10.67,71.39 44.66,51.26zm193.33 -125.16l0.96 1.69c2.9,5.84 5.67,10.7 8.95,14.95 -1.63,6.2 -3.62,12.38 -5.94,18.5 -1.14,2.98 3.94,5.15 5.18,2.2 2.17,-5.13 4.01,-10.33 5.7,-15.55 3.53,3.2 7.6,6.03 13.26,8.17 8.5,3.2 17.09,-2.35 21.79,-8.89 3.14,-4.31 4.61,-9.13 5.39,-14.08 3.95,0.76 8.11,0.97 12.57,0 2.32,-0.48 4.67,-1.87 6.81,-2.86 8.74,-4.1 14.28,-15.34 14.13,-24.62 -0.06,-3.07 -0.33,-6.24 -0.63,-9.37 5.79,1.87 12.87,1.35 17.03,-3.5 13.35,-15.7 7.89,-31.04 6.39,-50.18 -1.63,-20.82 -1.11,-41.61 0.78,-62.41 0.69,-7.69 -1.78,-13.47 -5.94,-17.45 1.21,-1.96 2.54,-3.77 3.68,-5.76 0.63,5.43 1.32,10.89 2.2,16.31 3.49,21.33 8.2,46.95 31.46,53.74l1.06 0.09c2.17,3.67 4.52,7.32 7.3,10.79 10.43,13.17 26.88,26.67 44.54,21.55 10.06,16.55 25.7,34.84 43.37,31.07 12.11,9.19 29.35,11.09 41.59,-2.83 67.18,-76.43 51.98,-182.87 15.31,-269.21 -5.66,-13.35 -24.44,-5.12 -25.13,6.81 -3.22,54.87 -1.17,106.29 -13.65,155.98 -1.8,1.09 -3.1,2.93 -2.95,5.63l0.15 4.4c-3.8,12.87 -8.71,25.61 -14.95,38.28 -12.84,-24.68 -23.51,-47.41 -28.24,-76.13 -4.37,-26.52 -50.72,-20.61 -47.43,6.45 0.42,3.22 1.02,6.39 1.5,9.61 -2.83,-2.02 -6.06,-3.65 -9.82,-4.1 -6.36,-23.93 -9.22,-48.07 -9.68,-72.78 -0.09,-6.42 -2.65,-11.06 -6.33,-14.16 2.5,-9.95 4.52,-19.56 6.09,-28.42 11.63,-66.72 -3.49,-125.16 -41.37,-180.37 -14.5,-21.13 -53.89,-8.83 -44.12,18.59 20.67,58.14 26.13,123.26 4.4,181.91 -10.28,27.67 -26.85,52.59 -34.6,79.41 -19.11,-10.76 -48.25,2.83 -40.63,29.98 4.55,16.22 9.13,32.4 13.71,48.61 -10.97,-5.13 -25.37,-2.38 -31.37,13.98 -8.95,24.23 -5.51,51.48 7.72,73.47 4.97,8.29 12.5,11.15 19.77,10.49zm-442.83 125.22c-22.12,3.5 -45.06,14.8 -58.68,32.91 -3.22,4.25 -6.3,8.93 -9.1,13.8 -11.21,8.95 -19.47,20.92 -21.49,35.95 -1.18,8.8 7.23,17.72 15.16,19.89l1.72 0.15c8.86,13.8 28.91,15.37 40.5,4.13 11.54,-11.21 12.54,-28 21.16,-41.23 7.53,-11.48 14.46,-20.98 26.57,-27.96 21.55,-12.42 6.03,-41.08 -15.85,-37.65zm3330.13 1226.12c-16.82,-63.65 -69.32,-119.28 -114.98,-163.22 -15.82,-15.22 -39.51,8.41 -24.11,24.11 48.85,49.76 79.8,112.56 127.33,162.65 5.33,5.67 12.53,2.14 14.8,-3.68 104.57,109.52 211.32,218.31 343.98,293.26 7.05,4.01 14.19,-5.27 8.59,-11.12 -104.33,-109.37 -225.54,-200.44 -335.88,-303.69 -6.87,-6.42 -15.28,-3.92 -19.74,1.69zm-56.48 -172.32c-9.8,-13.44 -24.53,-23.84 -37.01,-34.81 -13.89,-12.27 -27.79,-24.53 -41.69,-36.8 -3.16,-2.8 -6.9,-2.68 -9.82,-1.11 -3.82,-3.77 -7.59,-7.63 -11.45,-11.37 -6.54,-6.39 -16.48,3.56 -10.04,10.04 48.28,48.61 91.77,101.35 138.15,151.68 3.77,4.1 10.94,-1.26 7.81,-6.03 -16.64,-24.98 -35.29,-48.28 -54.82,-70.82 3.56,2.62 7.26,5 11.09,6.99 4.61,2.38 11.36,-2.83 7.78,-7.78z"/>
  </g>
 </g>
</svg>
