<?xml version="1.0" encoding="UTF-8"?>
<!DOCTYPE svg PUBLIC "-//W3C//DTD SVG 1.1//EN" "http://www.w3.org/Graphics/SVG/1.1/DTD/svg11.dtd">
<!-- Creator: CorelDRAW 2017 -->
<svg xmlns="http://www.w3.org/2000/svg" xml:space="preserve" width="8in" height="8in" version="1.1" style="shape-rendering:geometricPrecision; text-rendering:geometricPrecision; image-rendering:optimizeQuality; fill-rule:evenodd; clip-rule:evenodd"
viewBox="0 0 8000 8000"
 xmlns:xlink="http://www.w3.org/1999/xlink">
 <defs>
  <style type="text/css">
   <![CDATA[
    .darktone_1 {fill:none}
    .darktone_2 {fill:#373435;fill-rule:nonzero;fill-opacity:0.501961}
   ]]>
  </style>
 </defs>
 <g id="Layer_x0020_1">
  <metadata id="CorelCorpID_0Corel-Layer"/>
  <g id="_1778948140608">
   <rect class="darktone_1" x="0" y="0" width="8000" height="8000"/>
   <path class="darktone_2" d="M5121.27 3343.61l-18.38 -30.28m36.19 -1.45c16.02,-1.21 31.76,-3.24 47,-6.37 -84.23,-32.77 -161.41,-48.24 -250.65,-51.04 -4.06,-0.13 -7.62,0.53 -10.7,1.78l214.35 55.63zm993.86 -429.35l0 0zm-57.12 -843.69l0 0zm-1043.23 -1822.41l27.6 30.65 -4.51 3.05 -23.09 -33.69zm999.26 2229.77c-8.73,49.86 -88.24,205.15 -49.8,272.87 23.13,40.76 26.11,-73.91 37.3,-92.86 8.46,-14.33 9.99,-165.66 12.5,-180.01zm91.67 -78.57c-52.83,153.67 -94.19,318.33 -73.9,494 -0.56,13.59 -1.49,27.01 -1.56,40.79 -0.04,46.08 25.63,66.36 46.93,55.17 9.2,6.31 18.67,10.46 27.83,8.54 13.22,-2.64 25.96,-7.09 38.26,-13.15 -23.33,3 -65.82,1.23 -44.41,-25.14l-15.92 -0.86 70.43 -54.94 -38.22 10.49c-101.21,33.54 44.8,-343.66 47.71,-345.72l-30.05 3.48 20.56 -14.97 -22.89 -5.34 32.88 -14.97 -37.44 -12.86 4.74 -3.66c-0.75,-1.15 -16.07,-67.79 10.21,-81.89 -30.23,-8.47 -37.52,-20.75 -35.15,-38.98zm401.43 1356.41c-77.54,119.69 -184.8,253.13 -154.49,400.34 -0.56,7.62 -1.49,15.15 -1.56,22.89 -0.04,25.85 25.63,37.23 46.93,30.95 7.69,2.96 15.56,5.07 23.28,5.06l43.67 -73.01 -0.59 -9.56c47.74,-166.78 91.71,-284.1 105.7,-398.6l-62.92 21.93zm-2517.61 -646.56c-78.67,-126.38 39.94,-232.54 -15.39,-378.24 -4.26,-11.25 -12.81,-17.13 -21.84,-18.68 -10.14,-34.88 -21.56,-69.29 -35.1,-103.26 17.52,26.23 36.41,51.17 57.76,73.46 6.89,7.24 18.72,-0.28 16.33,-9.48 -28.35,-111.33 -112.75,-211.34 -177.67,-304.22 -10.69,-15.22 -35.4,-1.53 -25.36,14.84 41.73,67.83 77.27,145.14 121.6,214.01 -5.95,-2.25 -13.7,3.29 -9.97,11.39 15.54,33.73 29.39,68.28 41.43,103.4 -9.65,2.04 -18.03,8.79 -20.59,19.2 -11.97,-12.14 -37.2,-2.52 -31.49,17.58 10.9,38.31 20.11,81.91 31.11,125.28l-0.03 0.21c-3.43,0.45 -6.72,2.11 -9.42,5.46 -32.19,40 -50.82,88.6 -65.98,137.99l144.61 91.06zm1691.05 -1896.76c5.45,59.41 5.84,120.27 -2.03,184.07 -4.59,37.19 50.42,42.9 57.28,6.77 4.13,-21.77 7.88,-44.03 11.13,-66.63l-66.38 -124.21zm189.05 374.08l0.15 -1.14m5.74 235.89c-0.96,16.94 -2.15,33.93 -3.58,50.94 -0.41,4.44 0.85,7.89 2.71,10.73 -3.97,49.38 -7.82,98.78 -11.72,148.2 -1.25,15.91 16.7,22.2 26.74,15.53 73.24,49.28 155.24,63.28 224.92,57.68l2.74 -1.13 -37.59 -22.71 2.34 -23.2 -24.06 13.24 -12.36 -11.8c0.13,-0.96 -31.74,-55.49 -60.88,-121.04 -9.33,0.2 -18.9,0.48 -28.75,0.86l-80.52 -117.31zm-1952.08 538.13c-46.51,-82.19 -116.76,-148.43 -179.78,-218.09 -16.33,-18.07 -41.91,8.3 -26.51,26.54 31.63,37.33 62.09,76.24 94.62,113.06 50.7,61.49 94.95,127.59 139.32,193.72 3.53,5.29 11.07,0.76 8.44,-4.95 -16.16,-34.91 -35.12,-67.96 -55.72,-99.98l5.12 4.19c8.9,6.79 19.31,-5.98 14.5,-14.49zm1906.06 1282.09l-2.19 2.2 2.19 -2.2zm2.2 -2.19l-2.2 2.19 2.2 -2.19zm0 0l0 0zm-4.39 4.39l-26.29 -6.2 5.93 -7.9 20.35 14.09zm-1145.13 -213.49l-1.47 2.93 1.47 -2.93zm-1302.97 -74.7l-1.47 2.93 1.47 -2.93zm2533.79 -1572.76l0 0zm10.99 -32.96l0 0zm-21.97 -107.65l0 0zm-17.94 -351.91l-1.47 2.93 1.47 -2.93zm-26.88 -71.52l11.39 51.87 -5.56 0.7 -6.46 -53.84 -11.7 -23.69 0.02 0.17 -0.04 -0.22c-14.67,-29.77 -30.97,-63.28 -46.04,-97.04l5.39 33.07 -5.64 0.58 -3.88 -42.96c-6.04,-13.75 -11.81,-27.49 -17.16,-40.97l-2.17 11.14 -11.93 -49.38c-8.65,-25.66 -14.75,-49.36 -16.71,-69.15l6.65 72.49c-18.87,-40.27 -36.51,-70.68 -53.5,-95.61l0 12.19 -37.88 -61.48 -3.73 -4.33 4.93 33.17 -28.96 -60.13 -6.22 -6.92 3.89 22.33 -12.01 -31.47c-12.78,-14.51 -25.72,-29.98 -39.1,-48.48l9.22 36.46 -64.52 -129.24 -2.97 33.8 -23.47 -46.89c-1.02,-3.69 -5.57,-9.87 -12.7,-18.11l-5.15 11.54 -10.33 -28.57c-7.18,-7.66 -15.43,-16.27 -24.39,-25.67l-3.17 22.89 -13.68 -40.65 -6.68 -7.12 0.52 25.06c10.91,13.98 21.39,28.16 31.11,42.7 17.76,114.76 23.9,253.65 68.08,198.49 5.51,4.74 12.99,6.95 19.87,6.34 20.61,71.85 35.64,145.06 41.15,219.53 2.03,27.87 43.02,20.47 42.26,-6.41 -0.35,-13.6 -0.93,-27.09 -1.76,-40.48 16.2,84.19 23.04,187.29 56.41,188 10.6,0.23 23.88,-9.89 40.98,-34.22 6.46,-9.19 13.45,-20.37 21.07,-33.82 4.96,-8.76 -3.93,25.47 -10.7,67.43 -8.4,52.08 -13.55,116.09 15.03,124.81 5.99,1.83 13.47,1.22 22.71,-2.43 3.16,-1.25 6.52,-2.83 10.1,-4.82 3.37,-1.87 6.4,-2.68 9.12,-2.59 65.89,2.19 -13.28,369.82 63.75,276.47 4.6,-5.58 10.19,-11.82 17.01,-18.64 0.09,0.16 0.12,0.43 0.12,0.74 -0,0.31 -0.05,0.69 -0.15,1.14 -0.93,4.4 -6.05,15.46 -12.71,30.63 -23.31,53.02 -68,161.1 -10.48,203.21 9.62,7.04 16.37,-12.34 29.08,0.91 9.2,9.59 21.52,36.29 40.33,102.54 12.87,45.33 3.73,49.37 39.89,14.76l-23.18 -0.76 16.87 -9.35 12.2 -6.76 -18.24 -2.49 -12.61 -1.72 9.7 -2.72 27.78 -7.8 -26.57 -5.89 24.31 -8.57 -0.13 -0.34 -33.99 -12.7 27.37 -5.31c-0.91,-2.6 -1.8,-5.19 -2.68,-7.78 -12.9,-4.67 -28.17,-11.4 -33.76,-13.5l2.06 -9.69 19.87 -17.47c-2.17,-9.11 -3.89,-17.95 -5.09,-26.44l-21.95 4.72 20.57 -17.08c-0.34,-4.29 -0.52,-8.45 -0.52,-12.48l-24.77 8.33 35.47 -51.01c-1.03,-0.75 -2.05,-1.4 -3.07,-2.01l-21.42 20.06 9.63 -24.43c-19.96,-3.09 -34.87,14.83 -33.17,3.39l-1.34 0.99 -3.1 -3.18 8.39 -10.96c6.41,-17.76 20.81,-52.5 46.33,-117.72l-2.97 -1.07 -45.73 45.33 13.91 -36.73c-3.25,-3.82 -5.67,-9.87 -7.41,-17.74l-4.41 8.3 3.54 -12.67c-9.59,-54.26 7.48,-178.93 11.52,-259l-6.04 -0.26 -11.14 53.32 3.12 -150.46c-0.25,-1.95 -0.57,-3.31 -0.95,-4.02l-1.46 0.07c-2.45,3.62 -6.52,22.81 -13,66.24 -4.36,-13.15 -16.73,-38.54 -32.5,-70.47zm-12.31 -24.78l0 0zm-211.3 -340.92l-1.46 2.93 1.46 -2.93zm-39.55 -39.55l-1.46 2.93 1.46 -2.93zm-4.03 -6.22l0 0zm-4255.85 610.3c5.26,9.07 35.49,34.14 49.93,40.85 51.87,24.09 69.32,18.44 105.36,72.38 30.48,45.63 71,22.8 101.49,86.7 9,18.87 17.22,47.98 40.71,25.35 5.39,-5.19 -23.56,-44.69 -0.18,-66.48 18.32,-17.09 6.42,-31.54 -0.22,-52.81l-3.96 18.02 -12.83 -2.73 0.63 -19.98c-4.8,2.41 -10.04,3.73 -15.6,4.2l-4.3 9.16 0.05 -8.96c-7.05,0.08 -14.55,-1.03 -22.26,-2.85l-0.2 0.78 -19.11 -6.44 -215.33 -98.87 2.2 4.39 -6.37 -2.69zm4.17 -1.7l0 -2.2 -2.56 1.83 2.56 0.37zm356.6 -63.28c10.13,14.2 53.81,34.81 85.95,82.72 15.94,23.77 55.93,80.02 80.3,97.29 27.92,19.78 98.15,54.44 101.91,86.64 1.72,14.74 17.23,22.26 19.7,50.78 0.89,10.24 6.56,3.22 7.29,25.18 1.72,51.28 29.92,-21.54 32.38,-42.2 1.53,-12.89 6.38,-0.46 7.29,5.92 1.06,7.41 -1.83,47.67 10.24,41.31 17.88,16.65 12.91,48.73 25.18,-18.57 6.09,-33.37 1.3,-12.5 -13.87,-38.54 -34.63,-59.47 -193.36,-79.4 13.28,-52.86 11.97,1.54 81.44,34.57 50.15,-2.53 8.37,-5.36 12.12,1.39 18.33,-13.27 3.17,-7.5 4.62,2.56 10.56,-4.24 -5,-0.83 -9.96,-1.74 -14.87,-2.73l-8.93 3.58 7.15 -3.94c-43.13,-8.88 -82.36,-23.47 -110.36,-33.98l-15.89 4.85 -2.51 -4.83 4.59 -5.17c-13.84,-5.09 -23.43,-8.2 -27.31,-7.4l-5.68 1.63 3.15 -3.28 -11.26 -10.59 -5.53 2.13 2.03 -5.41 -22.22 -20.91 -206.65 -134.3c-6.17,-1.39 -19.58,-1.71 -27.79,-0.63l-0.09 0.72 -6.52 2.64zm3499.39 2234.23c2.13,2.47 3.82,5.7 5.25,9.39l1.41 -0.96 2.13 1.31 -2.13 3.67c3.43,10.76 5.37,24.08 9.37,33.88l10.52 -7.96 -7.22 14.35c1.76,2.62 3.86,4.66 6.43,5.9l11.79 -9.26 -11.06 9.59c7.24,2.96 18.09,-0.25 35.36,-14.46 77.63,-63.89 33.23,7.99 67.2,33.16 43.77,-19.04 -6.07,-30.96 22.38,19.64 10.76,19.14 36.64,-107.5 20.3,14.23 41.1,-8.4 50.45,-117.38 53.99,-30.72 4.76,116.44 38.35,-57.99 35.6,6.07 -3.92,91.43 27.69,-60.13 29.17,-4.52 1.55,58.48 19.67,-49.99 35.24,-10.59 18.46,46.71 24.43,48.26 26.35,36.65 0.13,-1.91 0.26,-3.35 0.48,-4.08 1.68,-20.26 -3.22,-60.91 10.67,-25.96 4.04,10.17 7.63,19.03 10.83,26.72 5.22,-9.24 6.63,-20.88 10.85,-32.33 18.41,23.78 6.89,27.69 22.85,6.67 20.02,-26.35 19.74,47.39 34.61,29.29 22.81,-27.75 15.6,10.87 25.54,-11.76 1.53,-3.48 2.81,-6.31 3.87,-8.59 -6.98,3.02 -13.94,6.08 -20.89,9.17 6.15,-14.15 10.58,-42.59 19.3,-20 1.07,2.76 2.11,5.3 3.12,7.65 9.69,-19.47 -5.5,27.07 12.55,4.86 30.85,-37.98 15.15,55.06 36.01,-3.19 7.59,-21.19 10.69,30.55 11.58,14.61 3.63,-65.41 12.92,-1 14.13,-1.64 23.86,-12.61 7.79,-7.03 12.95,3.22l13.85 -24.87 30.04 2.27 -30.04 -2.27 12.44 0.94 14.09 1.07 -8.2 -7.47 7.31 0.39 5.43 0.29 14.3 0.76 -5.59 18.11 49.98 -47.16 -11.09 32.8 18.71 -12.06 -4.36 12.9c4.59,0.05 9.3,0.27 14.1,0.65l16.36 -17.82 -2.84 19.31c4.7,0.66 9.44,1.46 14.15,2.4l3.05 -6.38c-4.59,-13.59 -16.22,-34.44 -40.31,-63.12 -33.22,-39.56 -11.72,37.72 -25.18,-20.65 -54.22,-15.24 -10.54,33.6 -96.73,-25.72 -33.51,-23.06 -129.09,6.61 -182.08,-29.34 -21.26,-14.43 -42.56,37.35 -98.63,-35.72 -13.02,-16.96 -18.24,23.5 -87.5,0.83 -94.85,-31.04 -76.32,-36.27 -145.3,-66.49 -34.69,-15.2 -86.94,-15.91 -124.41,-46.63 -0.98,-0.8 -1.95,-1.63 -2.91,-2.48 -6.77,-5.97 -13.01,-13 -18.52,-21.37 -1.71,-2.6 -4.17,-5.32 -7.22,-8.02 2.39,-1.13 4.84,-1.47 7.36,-0.89 59.51,13.72 98.02,62.01 53,12.87 -4.72,-5.16 -10.38,-9.91 -16.81,-14.32 -45.7,-31.33 -131.47,-44.89 -214.35,-55.63 -7.38,-0.96 -14.73,-1.89 -22.04,-2.81 -72.35,36.38 -326.59,58.26 -311.23,24.96 49.25,-10.19 143.58,-15.75 172.04,-47.31 -171.37,-45.67 -159.33,-12.72 -268.53,-14.96 20.91,19.22 25.17,34.42 -1.33,37.68 -90.59,11.14 -146.31,-69.81 -281.55,-76.99 -112.04,-5.94 -169.48,-63.56 -135.12,-62.2 22,0.87 71.61,-7.9 110.76,-7.11l-1.89 -0.5c-66.37,-17.37 -124.09,-35.33 -149.02,-49.48 -61.59,-34.95 -114.58,-50.26 -174.12,-71.09 -21.23,-7.43 -43.29,-15.56 -66.87,-25.53l-1.54 -4.45c-5.2,-15.32 -23.2,-18.34 -38.46,-13.67 -5.99,-2.9 -12.08,-5.94 -18.29,-9.13 -6.28,-15.86 -12.92,-31.56 -19.02,-47.15 -10.56,-27.02 -19.56,-55.41 -30.79,-82.98 19.27,15.04 -82.47,29.03 -62.3,43.77 -9.05,6.57 -6.44,51.92 2.33,61.04l1.55 4.62c-26.32,26.37 -31.63,82.24 -52.24,72.67 -90.2,-41.91 -27.13,-29.86 -51.43,7.98 -25.75,40.09 15.87,61.32 -24.29,59.76 -120.27,-4.68 -60.72,41.95 -95.83,33.33 -61.83,-15.17 -22.04,49.64 -86.07,49.64 -19.35,0 -56.21,124.09 -120.83,78.09 -21.38,-15.22 -175.39,283.97 -177.56,300.3l25.8 -35.74c5.39,3.57 8.35,6.85 10.28,9.83 10.82,-7.81 20.8,-12.82 29.59,-14.12l3.69 -9.61 10.71 10.04c2.47,-1.67 4.91,-3.34 7.31,-5.01l1.42 -9.71 4.81 5.31c7.07,-5.05 13.7,-9.98 19.67,-14.55l3.85 -13.24 6.16 5.46c12.07,-9.52 19.68,-16.07 19.87,-16.1 4.66,-0.82 8.38,-6.41 14.09,-14.25l-0.85 -25.86c6.51,-3.54 15.87,-7.43 27.13,-11.44l-1.94 -10.59 7.66 8.59c5.39,-1.84 11.15,-3.7 17.2,-5.56l1 -6.77 1.83 5.91c5.98,-1.82 12.22,-3.64 18.65,-5.44l0.04 -0.23 0.08 0.2c19.09,-5.34 39.76,-10.52 60,-15.06l0.05 -0.22 0.07 0.2c31.25,-7.02 61.41,-12.54 83.06,-14.86l1.83 -3.8 -0.15 3.62 4.19 -0.39c25.65,-25.66 14.43,-64.2 57.01,-3.33 35.44,50.67 21.88,-60.87 51.43,-28.45 72.37,79.4 39.89,-1.12 90.24,43.69 46.76,41.62 70.37,-54.21 80.95,-25.36 32.07,87.48 27.83,-96.52 73.21,15.35 30.01,73.98 42.45,-63.82 42.74,14.88 0.35,96.56 31.8,-134.47 69.76,51.79 3.68,18.07 23.12,-69.55 26.07,-9.76 5.61,113.74 2.17,-71.32 52.74,-5.24 15.63,20.43 26.43,20.4 34.3,12.28 1.85,2.95 3.84,5.85 5.97,8.69 1.94,109.49 7.95,218.59 38.64,322.48 1.56,5.24 6.25,8.25 11.94,9.52 -5.31,94.74 -18.16,198.51 20.21,286.11 1.03,2.3 2.53,4.2 4.28,5.82 -0.52,95.44 -0.38,201.36 59.02,281.3 8.73,11.74 31.28,6.13 37.04,-5.46 6.28,-12.63 14.28,-19 23.2,-21.26 7.46,-17.2 14.02,-35.18 21.26,-52.82 14.34,5.87 7.53,6.04 28.54,-2.26l-139.16 -510.59 -12.65 0.63 13.07 -8.16c-5.2,-2.12 -16.97,-16.35 -21.57,-21.18l7.04 -0.64 -7.76 -85.64 -21.17 -98.72 18.28 -11.81 -23.55 -7.45 15.35 -18.43 -15.21 -3.72 -0.86 -6.27 44.3 -13.99 11.37 -3.59 -0.85 -5.22 -0.01 0 -0.14 0.11 -0.28 0.19 -0.24 0.14 -0.26 0.12 -0.29 0.1 -0.11 0.03 -0.35 0.07 -0.2 0.02 -0.01 0 -0.19 -0 -0.2 -0.02 -0.04 -0.01 -0.32 -0.08 -0.08 -0.03 -0.3 -0.13 -0.02 -0.01 -0.18 -0.11 -0.28 -0.2 -0.13 -0.11 -0.25 -0.25 -0.03 -0.03 -0.16 -0.19 -0.15 -0.21 -0.15 -0.22c-0.19,-0.3 -0.37,-0.65 -0.54,-1.03l-0.02 -0.06 -0.22 -0.59 -0.11 -0.33 -0.01 -0.03 -0.09 -0.32 -0.09 -0.36 -0.01 -0.04c-0.12,-0.48 -0.22,-1.01 -0.3,-1.57l-0.06 -0.44 -0.05 -0.45 -0.04 -0.47 -0 -0.07 -0.05 -0.82 -0 -0.09 -0.02 -0.51 -0.01 -0.46 0 -0.07 0 -0.54 0.01 -0.56 0.02 -0.57 0 -0.01 0.06 -1.08 0.01 -0.09 0.05 -0.61 0.06 -0.57 0 -0.06 0.07 -0.64 0.01 -0.05 0.07 -0.59 0 -0.01 0.09 -0.67 0.1 -0.68 0.12 -0.69 0.13 -0.71 0.02 -0.14 0.12 -0.58 0.15 -0.73 0.14 -0.65 0.02 -0.09 0.18 -0.76 0.16 -0.65 0.03 -0.11 0.05 -0.2 0.3 -1.13 0.24 -0.87 0.06 -0.19 0 0c1.94,-6.73 5.25,-14.73 10.46,-23.77 1.49,19.18 -0.08,31.96 -2.57,39.36l7.33 14.48 23.8 -51.54 -2.31 23.59c37.78,-36.44 60.16,29.82 82.71,9.37l23.17 30.47 5.02 -23.62 23.08 60.57 22.19 -68.43 7.2 1.86 74.67 12.29 3.54 -11.48 2.91 12.54 21.34 3.51 1.18 -5.06 1.89 5.56 22.63 3.72 1.31 -15.53 4.51 12.01c133.83,-80.45 180.39,-42.39 276.01,-38.09l-0.02 -0.24 0.12 0.25c13.59,0.61 28.17,0.52 44.13,-0.67l0.96 -3.89 0.96 3.75c13.75,-1.1 28.52,-3.03 44.57,-6.07l0 25.27 18.28 -26.59 4.92 1.44 13.88 12.54 4.82 -9.69 8.07 21.33c4.86,-9.78 13.57,-16.7 24.26,-20.78l2.71 -7.25 5.5 1.63 -0.24 3.19c5.22,-1.23 10.77,-1.88 16.45,-1.94l2.63 -7.13 1.68 7.19c4.37,0.17 8.78,0.69 13.19,1.54l0.36 -13.93 5.91 15.36c3.86,1.03 7.67,2.33 11.39,3.89l3.55 -21.31 31.84 50.4 0 -63.72 24.18 8.79 31.7 -13.06 9.21 0.78c88.04,32.99 221.78,135.68 187.42,190.46m-972.79 -430.75l-0.03 -0.01 0.02 0.02 0.01 -0.01zm-1218.26 390.39l-29.33 -2.02c7.77,4.2 17.86,4.5 29.26,2.12l0.07 -0.1zm2471.86 218.87c-88.71,46.72 -166.75,107.87 -231.78,185.19 -1.84,0.66 -3.65,1.08 -5.5,1.89 -122.04,52.7 -245.06,102.73 -366.75,156.26 -38.35,-31.2 -80.4,-47.65 -131.54,-43.72 -24.99,1.96 -44.25,13.33 -56.22,29.38 -4.87,1.95 -9.52,4.33 -13.82,7.14 0.27,1.83 0.58,3.55 0.92,5.2l1.66 -2.61 6.92 23.88c2.35,3.33 4.93,5.94 7.53,8.2l6.01 -5.69 0.11 10.52c3.81,2.89 7.41,5.66 10.19,9.56l9.44 -9.13 -4.51 40.48c13.99,6 1.82,-16.21 32.7,5.48 41.06,28.83 105.98,16.64 147.09,12.91 98.49,-8.93 91.13,9.31 187.55,-38.76 56.31,-28.08 84.83,-17.52 131.54,-55.2 97.35,-78.56 140.43,-65.1 155.12,-78.09l-7.94 -8.98 30.3 -5.67 0.89 -0.98 0.35 -0.23 -1.67 -4.26 0.14 -0.06 0.15 -0.06 0.12 -0.05 0.04 -0.02 0.17 -0.07 0.17 -0.07 0.09 -0.04 0.09 -0.04 0.19 -0.07 0.19 -0.08 0.05 -0.02 0.15 -0.06 0.2 -0.08 0.21 -0.08 0 0 0.21 -0.09 0.22 -0.09 0.18 -0.07 0.05 -0.02 0.24 -0.09 0.24 -0.09 0.13 -0.05 0.12 -0.05 0.26 -0.1 0.26 -0.1 0.07 -0.03 0.19 -0.07 0.27 -0.11 0.28 -0.11 0.01 -0 0.27 -0.11 0.29 -0.11 0.23 -0.09 0.06 -0.02 0.3 -0.11 0.3 -0.12 0.17 -0.07 0.14 -0.06 0.31 -0.12 0.31 -0.13 0.09 -0.04 0.23 -0.09 0.32 -0.13 0.33 -0.13 0.02 -0.01 0.32 -0.12 0.34 -0.13 0.28 -0.11 0.07 -0.03 0.35 -0.13 0.35 -0.14 0.2 -0.07 0.16 -0.06 0.36 -0.14 0.36 -0.14 0.11 -0.05 0.25 -0.1 0.37 -0.14 0.37 -0.15 0.02 -0.01 0.35 -0.14 0.38 -0.15 0.31 -0.12 0.07 -0.03 0.39 -0.15 0.39 -0.15 0.22 -0.09 0.17 -0.07 0.4 -0.15 0.4 -0.16 0.13 -0.05 0.27 -0.11 0.41 -0.16 0.41 -0.16 0.04 -0.01 0.37 -0.15 0.41 -0.16 0.35 -0.13 0.07 -0.03 0.41 -0.17 0.42 -0.17 0.25 -0.09 0.17 -0.07 0.42 -0.17 0.42 -0.17 0.15 -0.06 0.28 -0.11c8.84,-5.88 17.67,-11.81 26.47,-17.82l-7.79 -7.81 11.46 5.3c6.74,-4.61 13.47,-9.26 20.18,-13.95 62.41,-75.79 132.4,-143.47 213.54,-199.2 0.21,-3.67 0.03,-7.38 -0.5,-11.03l0.71 -0.34c-17.65,-9.66 -35.96,10.55 -53.66,-3.03 -19.02,-14.59 7.53,-16.5 -18.84,-8.16 -8.46,-5.52 -16.93,16.61 -40.21,17.98 -51.18,3.01 -7.27,-28.01 -33.66,-10.68 -11.78,7.73 -29.62,12.15 -46.28,13.82zm155.2 -73.34c-3.81,-27.02 -12.26,-58.19 -7.15,-37.16 4.85,19.94 8.78,30.45 12.1,34.92l-4.96 2.24zm-519.69 -3370.65l-1.46 2.93 1.46 -2.93zm130.3 75.87l1.9 14.57 -16.55 -28.26c-5.2,-4.53 -10.54,-8.87 -15.99,-13.06l2.44 19.26 -2.14 0.92 -18.84 -33.72c-4.34,-3.02 -8.74,-6 -13.19,-8.95l0.55 13.28 -18.96 -25.27 -5.59 -3.58 5.67 19.57 -18.48 -27.79c-5.43,-3.5 -10.91,-7.06 -16.42,-10.71l1.04 8.23 -14.89 -17.59c-2.63,-1.81 -5.27,-3.65 -7.91,-5.53l5.3 20.91 -26.28 -36.52c-2.16,-1.69 -4.32,-3.4 -6.48,-5.15l4.13 13.13 -55.98 -62.04 -6.39 10.42 -32.54 -24.9 14.9 42.61c-30.23,-21.96 -57.37,-37.44 -82.24,-48.25l2.86 7.4 -32.94 -18.62c-6.8,-2.11 -13.43,-3.87 -19.92,-5.34l18.88 17.44 -39.59 -17.27 4.43 10.68 -30.52 -16.95c-1.78,-0.07 -3.54,-0.12 -5.3,-0.16l18.24 23.7 -39.18 -23.46c-4.99,0.21 -9.93,0.51 -14.83,0.88l16.67 13.79 -27.62 -12.87 -7.85 0.75 4.71 7.73 -18.11 -6.36c-11.13,1.15 -22.25,2.28 -33.52,3.01l1.25 4.74 -9.33 -4.3c-4.48,0.2 -9,0.33 -13.56,0.36l8.3 11.3 -2.19 0.64 -19.01 -12.14c-7.04,-0.27 -14.2,-0.82 -21.52,-1.73l2.22 4.48 -43.29 -13.29 -1.06 2.8 22.96 18.55 -7.17 -1.67c-0.09,4.73 -16.66,-0.67 -29.92,-5.88 -13.36,15.32 -21.79,33.97 -21.76,55.42 0.01,8.77 1.39,17.03 3.91,24.54l28.77 9.4 -23.36 2.68 0.85 1.45c16.35,8.35 38.3,16.63 67.86,24.65 -0.96,-0.15 -25.98,-2.56 -46.78,-4.05 14.13,7.93 32.03,9.75 51.5,2.74 25.87,-9.34 42.32,-29.46 70.13,-34.04 37.74,-6.19 74.97,12.4 108.83,26.65 18.48,7.79 34.78,2.44 45.52,-8.69 56.41,39.67 102.28,88.46 141.18,145.13 27.64,40.24 93.09,0.16 72.86,-43.62 -5.9,-12.7 -12.7,-26.15 -20.02,-39.89 67.07,75.55 120.28,163.85 178.54,255.09 5.03,7.91 11.31,11.91 17.76,13.27 20.17,46.71 38.33,94.06 55.25,140.98 6.1,16.98 31.32,5.72 25.57,-11.13 -16.12,-47.26 -34.37,-93.63 -53.89,-139.39 9.31,-9.15 14.83,-23.25 10.76,-36.89 -4.76,-15.91 -10.22,-32.3 -16.24,-48.94 40.73,56.96 76.3,118.21 105.32,181.52 5.87,12.85 25.08,11.43 30.73,1.24 9.51,25.85 17.63,52.01 23.32,78.44l2.56 -0.73c-8.31,-27.54 -16.17,-54.59 -24.42,-81.28 0.44,-2.1 0.43,-4.36 -0.3,-6.92 -9.85,-34.74 -22.11,-70.37 -36.88,-105.61l1.64 10.33 -1.64 -10.33c-6.46,-15.44 -13.41,-30.8 -20.84,-45.99l1.94 14.66 -20.22 -59.62c-4.28,-5.32 -8.51,-10.7 -12.67,-16.13l4.83 26.82 -6.07 2.67 -39.3 -85.65c-4.38,-5.8 -8.85,-11.52 -13.42,-17.13l3.28 34.83m102.45 145.55l0 -0 1.64 10.33 -1.64 -10.33zm-135.52 -191.16l-1.32 0.94c0.24,0.32 0.84,0.63 1.98,0.79 0,-0.96 -0.29,-1.49 -0.65,-1.73zm114.17 141.26c5.89,7.05 11.78,14.09 17.63,21.15 8.24,9.95 16.41,19.93 24.35,30.01l-21.97 -47.91c-7.67,-8.57 -15.43,-17.44 -23.1,-26.53l3.09 23.28zm17.63 21.15l0.33 -0.65 -0.33 0.65zm-1316.56 2919.81l-1.15 -7.11 -0.02 0.18 -0 0.04 -0.02 0.22 -0.01 0.17 -0.01 0.06 -0.02 0.22 -0.01 0.15 -0.01 0.07 -0.02 0.22 -0.01 0.13 -0.01 0.09 -0.02 0.22 -0.01 0.11 -0.02 0.11 -0.02 0.22 -0.01 0.09 -0.02 0.13 -0.03 0.22 -0.01 0.07 -0.02 0.15 -0.03 0.22 -0.01 0.05 -0.02 0.17 -0.03 0.22 -0 0.03 -0.02 0.19 -0.03 0.22 0 0.01 -0.06 0.42 0 0 -0.03 0.22 -0.03 0.19 -0 0.02 -0.03 0.22 -0.02 0.18 -0.01 0.04 -0.03 0.22 -0.02 0.15 -0.01 0.06 -0.03 0.22 -0.02 0.14 -0.01 0.08 -0.03 0.22 -0.02 0.12 -0.02 0.1 -0.03 0.21 -0.02 0.1 -0.02 0.12 -0.03 0.21 -0.02 0.08 -0.02 0.13 -0.03 0.21 -0.01 0.06 -0.02 0.15 -0.03 0.21 -0 0.04 -0.03 0.17 -0.03 0.21 -0 0.03 -0.03 0.19 -0.03 0.2 -0 0.01 -0.03 0.2 -0.03 0.2 0 0.01 -0.03 0.2 -0.02 0.18 -0 0.03 -0.03 0.2 -0.02 0.16 -0.01 0.05 -0.03 0.2 -0.02 0.14 -0.01 0.06 -0.03 0.2 -0.02 0.12 -0.01 0.08 -0.03 0.2 -0.01 0.1 -0.02 0.09 -0.02 0.2 -0.01 0.08 -0.01 0.11 -0.03 0.19 -0.01 0.07 -0.02 0.13 -0.02 0.19 -0 0.05 -0.02 0.14 -0.02 0.19 -0 0.03 -0.02 0.16 -0.02 0.19 -0 0.02 -0.02 0.17 -0.02 0.19 2.92 -6.32zm-3014.81 -879.99c12.2,9.93 31.09,6.08 39.15,-7.39 8.25,-13.82 4.87,-30.29 9.77,-45.3 4.3,-13.04 8.54,-24 18.43,-33.89 15.47,-15.45 0.03,-35.6 -17.69,-34.15l-1.18 1.73 -0.06 0.09 -1.25 1.82 -0.87 1.27 -0.38 0.55 -1.26 1.82 -0.56 0.8 -0.71 1.02 -5.94 8.54 -0.41 0.59 -1.28 1.83 -0.53 0.77 -0.74 1.06 -1.27 1.83 -0.21 0.3 -4.41 6.4 -0.43 0.63 -1.25 1.84 -0.5 0.74 -0.75 1.1 -1.24 1.84 -0.18 0.27 -1.05 1.57 -1.09 1.64 -0.13 0.2 -1.21 1.84 -0.76 1.17 -1.63 2.52 -0.45 0.7 -0.07 0.11 -1.68 2.65 -0.15 0.24 -0.15 0.23 -1.01 1.62 -0.16 0.26 -0.98 1.59 -1.13 1.85 -0.27 0.44 -0.78 1.3 -0.07 0.11 -1.09 1.85 -0.1 0.17 -0.91 1.56 -0.19 0.33 -1.11 1.96c-8.62,18.39 -12.81,37.43 -8.12,58.02zm1307.34 499.94c14,38.08 24.96,75.42 48.31,108.81 4.77,6.81 18.8,4.81 17.27,-5.18 -12.15,-79.82 -59.56,-158.73 -91.47,-232.81 -5.07,-11.74 -24.11,-6.65 -19.54,5.9 15.17,41.09 30.29,82.2 45.42,123.28zm15.87 53.31c-5.6,-33.31 -26.29,-55.84 -43.35,-84.91 -22.25,-37.94 -42.25,-76.97 -58.65,-117.85 -2.34,-5.83 -4.62,-11.67 -6.84,-17.54 -7.04,8.93 -10.52,19.32 -6.86,31.74l4.83 -2.81 -0.14 13.5c7.57,13.59 11.39,27.57 9.41,40.43 2.32,4.31 4.59,8.67 6.81,13.09l10.76 -6.91 -6.73 15.08c11.29,23.34 21.3,48.13 29.98,74.41l8.87 -9.55 -5.43 20.24c2.91,9.35 5.67,18.88 8.26,28.6 1.4,1.1 2.81,2.17 4.24,3.2l4.81 2.53 -0.31 0.57c7.84,5.15 16.22,9.31 25.19,12.22 10.23,3.35 16.62,-7.53 15.16,-16.06zm-163.76 -401.93c62.06,-61.99 100.63,-140.26 93.81,-230.53 -1.29,-17.17 -11.71,-29.39 -24.86,-34.19 12.39,-19.22 22.23,-40.15 28.18,-63.46 4.44,-17.47 -12.91,-39.9 -32.31,-32.47 -34.31,13.27 -65.52,31.15 -95.85,50.55 2.83,-7.02 5.78,-13.91 8.46,-21.3 7.88,-21.55 12.99,-49.23 15.09,-72.11 1.59,-17.8 -15.21,-33.2 -32.36,-34.46 43.13,-42.41 82.4,-88.58 109.15,-141.8 6.91,-13.66 -9.55,-25.76 -20.9,-15.88 -76.46,66.85 -136.74,151.03 -210.4,221.59 -13.95,13.37 2.06,32.22 17.44,27.95 -6.64,15.71 -12.13,32.05 -16.82,47.86 -8.21,27.46 3.1,49.09 21.44,61.54 -2.12,1.38 -109.91,58.05 -121.23,61.87 -51.33,17.31 -32.33,94.06 21.33,82.03 191.91,-43.11 -91.32,19.48 -136.84,123.19 -23.78,5.68 -47.66,10.4 -71.39,14.22 -18.94,3.08 -30.93,16.36 -36.33,32.41 -48.85,7.76 -94.8,25.85 -141.73,42.56l-7.48 2.44c-8.85,-9.03 -22.21,-13.06 -34.92,-4.3l-6.72 6.03c-5.48,-0.74 -10.79,-1.17 -15.73,-1.18l-10.97 -4.5 -0.04 -0.18c-6.01,-36.5 -56.2,-29.83 -65.67,-0.69l0.71 -4.82c8.97,-13.04 14.41,-31.36 17.58,-46.55 7.02,-34.48 2.76,-67.52 -10.63,-99.88 -10.8,-25.89 -56.41,-7.47 -46.17,18.92 7.28,18.58 10.16,37.61 7.95,56.92 -9.17,-2.15 -19.09,-1.24 -28.3,4.07 -15.13,8.74 -21.17,25.15 -18.59,40.72l-4.2 7.36c-6.76,15.42 -12.99,30.7 -15.95,46.65l7.53 -1.09 14.59 11.94c20.98,4 39.31,7.26 56.08,9.42l146.67 -25.6 0.01 -0c17.29,-8.66 42.58,-12.17 73.71,-12.87l45.07 -7.87 -0.85 -7.93 267.32 26.52 19.11 0c20.95,-5.99 41.81,-13.17 62.27,-21.46 4.67,-13.34 9.25,-9.85 19.15,-8.15 17.43,-7.78 34.5,-16.37 51,-25.76l2.37 5.02c1.59,-1.3 3.2,-2.65 4.87,-4.1 8.22,-7.15 15.78,-12.06 22.97,-15.78l-1.1 -2.91c46.12,-30.2 86.88,-12.17 74.46,-59.97zm-66.36 -152.14c-86.28,100.71 -121.36,60.7 0,0zm461.36 715.3c-20.31,45.83 -46.35,90.99 -74.36,136.04 25.53,-95.72 38.71,-197.3 52.96,-289.93 0.37,-2.1 -2.81,-2.93 -3.25,-0.78 -16.33,75.2 -40.66,148.83 -64.41,222.4 4.55,-33.24 6.08,-67.35 9.28,-100.41 8.7,-90.48 13.61,-181.04 15.85,-271.88 0.92,-38.22 -58.28,-36.16 -59.41,1.98 -2.21,78.4 -6.62,156.69 -13.63,234.74 -5.65,-78.22 -23.39,-156.23 -36.5,-233.02 -4.16,-24.59 -41.77,-13.29 -37.39,11.27 17.03,94.73 27.67,193.34 62.44,283.55l4.02 3.94c-8.43,57.75 -18.71,117.02 -4.73,172.76 2.38,9.35 12.34,11.85 19.85,8.47 -4.08,21.29 -8.43,42.5 -13.13,63.71 -12.73,20.04 -25.31,40.18 -37.39,60.46 17.45,-95.46 22.21,-193.51 12.65,-292.27 -2.59,-27.11 -19.5,-43.55 -39.37,-49.5 -7.63,-37.67 -26.23,-64.55 -61.95,-73.34 3.54,18.26 6.55,37.1 9.02,56.55l0.13 -0.05 -0.12 0.15c1.74,13.71 3.21,27.72 4.42,42.03l13.5 -8.43 -12.28 24.5c0.55,7.91 1.02,15.91 1.4,24 44.22,-33.15 44.48,-16.73 31.84,15.59l0.02 0.02 -0.29 0.66c-6.84,17.38 -17.3,39.23 -26.64,60.43l31.89 -20.41 -49.19 128.32c6.71,-3.19 16.46,-8.96 29.94,-17.63l-22 74.62c-9.28,17.76 -19.16,36.75 -29.44,56.53l16.3 -12.51 -41.57 65.54 16.18 -4.43c-7.35,10.35 -56.52,75.16 -56.02,81.55l9.03 -1.9 2.36 5.31c-3.98,2.76 -14.56,10.54 -25.1,17.94l-11.39 21.77 3.88 1.65c-1.73,1.26 -4.36,2.96 -7.31,4.89 -7.72,14.72 -15.39,29.26 -22.91,43.5l3.2 -0.74 -4.54 3.26c-13.08,24.73 -25.74,48.48 -37.66,70.53l44.39 -23.25 -60.67 64.85 -3.04 3.26 -3.74 -2.64 0.22 -0.41 6.56 -0.2 12.93 -0.4 -39.93 36.95 -1.41 2.45 36.35 -11.58 -72.11 66.46 20.33 5.18 1 4.04 -76.97 39.65 -3.33 -0.65 12.26 10.38 -2.11 5.86 -59.22 -3.48 30.38 15.26 -189.73 18.48c-5.12,1.92 -10.11,3.89 -14.95,5.95l-0.04 3.03 14.62 11.33 -29.21 3.59 7.2 6.43 -44.3 45.99 -5.38 54.24c7.78,23.79 35.72,43.36 60.77,41.01 100.22,-9.48 187.52,-39.24 263.23,-94.57 18.55,10.17 42.55,11.6 60.98,0.54 78.46,-46.89 130.84,-117.2 130.86,-208.28 28.5,-44.74 54.03,-91.11 76.35,-138.78 5.11,1.37 10.98,0.23 16.06,-4.52 30.73,-28.57 56.19,-61.8 78.22,-97.99l3.34 -3.9c1.63,-3.2 3.04,-6.46 4.59,-9.67 80.75,-140.91 111.2,-323.46 170.3,-464.38l-2.97 -1.68zm-259.14 940.74c-20.72,-6.57 -38.72,-8.9 -59.85,-2.93 -5.65,1.6 -31.95,10.46 -44.2,18.54 -12.83,-6.39 -25.85,-7.11 -40.04,-2.48 -3.7,1.22 -6.8,3.19 -9.96,5.09 -42.7,0.26 -85.62,1.17 -123.16,23.59 -15.91,9.51 -14.01,31.94 0.91,41.07 37.38,22.8 81.72,23.71 125.04,24.26 9.88,6.44 21.9,10.1 34.7,10.23l1.11 -0.41 1.11 -0.41 1.11 -0.42 1.11 -0.43 2.22 -0.87 1.11 -0.44 2.23 -0.89 1.12 -0.45 1.12 -0.46 1.12 -0.46 1.12 -0.46 1.12 -0.47 2.26 -0.96 1.13 -0.48 2.26 -0.98 1.13 -0.5 2.27 -1.01 1.14 -0.52 1.14 -0.52 0.66 -0.3 0.48 -0.22 1.15 -0.53 1.15 -0.53 0.06 -0.03 1.09 -0.51 1.15 -0.54 1.15 -0.55 1.15 -0.56 1.16 -0.56 1.16 -0.56 1.16 -0.57 0.51 -0.24 0.55 -0.27 0.11 -0.06 1.17 -0.58 1.17 -0.58 0.84 -0.42 0.33 -0.17 1.18 -0.59 1.18 -0.6 1.18 -0.61 0 0 1.18 -0.61 1.19 -0.62 1.19 -0.62 0.35 -0.18 0.74 -0.39 0.11 -0.06 1.2 -0.63 1.2 -0.64 0.69 -0.37 0.51 -0.28 1.2 -0.65 1.21 -0.66 1.04 -0.56 0.17 -0.09 1.21 -0.67 1.22 -0.67 1.22 -0.68 0.18 -0.1 1.04 -0.58 1.23 -0.69 1.23 -0.69 0.53 -0.3 0.7 -0.4 1.24 -0.7 1.24 -0.71 0.89 -0.51 4.11 -2.39 7.56 7.31c2.76,-1.79 5.44,-3.65 8.07,-5.59l-1.21 -30.02 17.36 16.22 1.55 -1.56 0.24 -19.14 7.78 10.09c2.48,-3.09 4.8,-6.3 6.94,-9.62l-1.85 -9.13 5.98 2.19c1.52,-2.78 2.92,-5.64 4.19,-8.58 6.15,-14.31 0.46,-28.52 -14.72,-33.36zm3897.68 88.38c-25.14,-10.79 -50.79,-16.91 -78.2,-17.47 -12.48,-0.25 -26.19,3.78 -38.11,2.71l-0.56 0.06c-1.67,-4.89 -3.53,-9.78 -5.91,-14.4 -11.22,-30.61 -38.14,-50.4 -68.25,-60.89 -20.64,-13.52 -42.75,-15.88 -68.05,-6.41 -41.87,15.67 -44.88,70.95 -17.04,94.86l148.15 10.8 67.93 4.95 77.76 5.67c-3.06,-8.59 -9.89,-16.51 -17.71,-19.88zm-4065.94 -2319.13c-50.07,52.52 -71.89,124.87 -119.05,180.53 -36.09,42.57 25.75,104.4 62.22,61.34 53.25,-62.74 113.53,-143.67 99.07,-230.52 -3.17,-19.19 -29.85,-24.3 -42.24,-11.35zm-64.63 -183.31c-22.62,40.52 -28.96,86.48 -39.33,131.48 -8.5,37.08 50.8,51.44 56.31,15.03 3.73,-24.67 7.46,-49.33 11.19,-74 1.63,-10.99 4.74,-22.58 4.98,-33.63 0.27,-11.57 -2.5,-23.54 -3.96,-34.95 -1.89,-14.3 -22.96,-15.04 -29.19,-3.93zm2926.33 -167.46c48.9,11.94 97.38,22.7 145.21,3.18 8.17,-3.32 10.38,-16.43 0,-18.86 -44.24,-10.42 -88.03,-5.34 -133,-7.76l-9.46 3.78 -2.74 19.65zm5.11 -23.88l-1.85 -0.14c-13.82,-1.11 -16.51,20.76 -3.26,24.02l5.11 -23.88zm-1437.07 139.95c69.87,15.05 142.09,31.83 214.35,36.02 1.59,10.73 9,20.69 22.91,21.25 82.61,3.36 169.33,16.33 250.09,-4.22 10.63,-2.69 9.49,-17.2 0,-20.41 -15.53,-5.33 -31.45,-9.24 -47.58,-12.29 4.7,-1.39 9.38,-2.98 14.01,-5.02 10.15,-4.46 10.15,-22.29 0,-26.71 -5.97,-2.65 -12.02,-4.64 -18.11,-6.16l-0.43 0.23 -0.42 0.22 -0.07 0.04 -0.35 0.19 -0.42 0.22 -0.42 0.22 -0.05 0.03 -0.36 0.19 -0.82 0.44 -0.03 0.02 -0.38 0.2 -0.4 0.21 -0.4 0.21 -0 0 -0.39 0.21 -0.39 0.21 -0.37 0.2 -0.02 0.01 -0.39 0.21 -0.39 0.2 -0.34 0.18 -0.04 0.02 -0.38 0.2 -0.37 0.2 -0.31 0.17 -0.06 0.03 -0.37 0.2 -0.36 0.19 -0.72 0.38 -0.35 0.19 -0.26 0.14 -0.09 0.05 -0.35 0.19 -0.34 0.18 -0.23 0.12 -0.11 0.06 -0.33 0.18 -0.65 0.35 -0.32 0.17 -0.93 0.5 -0.3 0.16 -0.15 0.08 -0.15 0.07 -0.29 0.15 -0.28 0.15 -0.13 0.07 -0.15 0.08 -0.27 0.15 -0.27 0.14 -0.1 0.06 -0.16 0.08 -0.26 0.14 -0.25 0.13 -0.08 0.05 -0.17 0.09 -0.24 0.13 -0.24 0.13 -0.06 0.04 -0.17 0.09 -0.22 0.12 -0.22 0.12 -0.05 0.02 -0.16 0.09 -0.2 0.11 -0.2 0.11 -0.03 0.02 -0.16 0.09 -0.19 0.1 -0.18 0.1 -0.02 0.01 -0.15 0.08 -0.17 0.09 -0.16 0.09 -0.01 0 -0.15 0.08 -0.15 0.08 -0.14 0.08 8.91 -20.52 -58.05 23.65 14.98 -23.15c-4.25,0.44 -8.46,0.87 -12.65,1.27l-30.89 21.88 13.4 -20.25 -2.5 0.22 -65.45 26.19 16.08 -22.49c-4.04,0.25 -8.04,0.48 -12,0.7l-51.25 27.41 -3.09 -4.87 24.58 -21.14c-12.25,0.46 -24.07,0.78 -35.45,0.96 -6.77,2.45 -10.7,8.22 -12.02,14.58 -7.67,-1.32 -15.35,-2.56 -23.06,-3.73l-13.85 15.35 -7.03 -6.41 9.82 -10.58c-16.41,-2.37 -32.86,-4.47 -49.33,-6.49l-33.44 16.05 -1.7 -5.55 11.59 -13.34c-12.65,-1.52 -25.29,-3.01 -37.9,-4.59l-1.32 2.94 -1.47 -2.13 2.07 -0.91c-10.36,-1.3 -20.7,-2.64 -31,-4.07l-30.01 17.94 -4.17 -6.88 12.93 -14.17 -4.44 -0.69c-19.31,-3.05 -28.09,25.61 -8.27,29.86zm446.6 -23.45c10.88,-1.74 21.67,-3.72 32.31,-6.07l-1.32 -9.51 -5.87 0.85 -0.39 0.26 -0.43 0.29 -0.26 0.17 -0.19 0.12 -0.46 0.3 -0.22 0.15 -0.24 0.15 -0.48 0.31 -0.18 0.12 -0.31 0.2 -0.5 0.31 -0.14 0.09 -0.38 0.23 -0.52 0.32 -0.08 0.06 -0.45 0.28 -0.55 0.33 -0.03 0.02 -0.52 0.31 -0.53 0.32 -0.03 0.02 -0.57 0.34 -0.48 0.29 -0.09 0.06 -0.59 0.35 -0.43 0.26 -0.17 0.1 -0.61 0.35 -0.37 0.22 -0.24 0.14 -0.62 0.36 -0.31 0.19 -0.31 0.18 -0.63 0.37 -0.26 0.15 -0.38 0.22 -0.64 0.37 -0.19 0.11 -0.46 0.26 -0.65 0.37 -0.12 0.07 -0.54 0.3 -0.67 0.37 -0.05 0.03 -0.62 0.35 -0.65 0.37 -0.02 0.01 -0.68 0.38 -0.58 0.33 -0.09 0.05 -0.68 0.38 -0.52 0.29 -0.17 0.09 -0.69 0.38 -0.44 0.25 -0.25 0.13 -0.69 0.38 -0.69 0.38 -0.69 0.38 -0.3 0.17 -0.39 0.22 -0.69 0.38zm322.26 -57.93l3.6 -0.05 1.67 -3.36 -5.27 3.41zm125.92 -2.46l14.94 -0.46c2.81,-0.1 4.32,-1.81 4.63,-3.77 -5.8,0.99 -11.48,2.02 -17.06,3.1l-2.52 1.13zm186.25 -26.11l1.65 -0.06 -0.26 -0.37 -1.35 0.19 -0.04 0.24zm8.24 4.33c2.24,4.64 6.73,8.09 13.8,8.06 76.02,-0.24 151.74,1.25 226.28,-12.51l17.87 -22.47 -2.15 -0.29c-1.35,-2.52 -3.67,-4.74 -7.17,-6.05l-11.03 9.91 2.4 -13.06c-3.08,-1.08 -6.18,-2.11 -9.3,-3.09l-68.79 32.11 -4.52 -9.87 37.52 -24.36 -1.92 -4.9 -170.54 51.57 7.46 -15.24c-3.7,0.58 -7.39,1.16 -11.06,1.71l-18.84 8.47zm242.22 -4.84c9.54,-1.8 19.06,-3.85 28.56,-6.19 6.68,-1.67 7.3,-12.94 0,-14.16l-0.94 -0.15 -27.62 20.5z"/>
  </g>
 </g>
</svg>
